
T0F14 000:298 SEGGER J-Link V5.12e Log File (0000ms, 0278ms total)
T0F14 000:298 DLL Compiled: Apr 29 2016 15:03:58 (0000ms, 0278ms total)
T0F14 000:298 Logging started @ 2023-10-10 15:18 (0000ms, 0278ms total)
T0F14 000:298 JLINK_SetWarnOutHandler(...) (0000ms, 0278ms total)
T0F14 000:298 JLINK_OpenEx(...)
Firmware: J-Link V9 compiled May  7 2021 16:26:12
Hardware: V9.40
S/N: 69405869
Feature(s): RDI, GDB, FlashDL, FlashBP, JFlash  returns O.K. (0269ms, 0547ms total)
T0F14 000:567 JLINK_SetErrorOutHandler(...) (0000ms, 0547ms total)
T0F14 000:567 JLINK_ExecCommand("ProjectFile = "E:\4ReferenceMaterial\0companySOC\A18003\DG32F003xx_SDK\SDK\Exmaple\SLEEP\DEEPSLEEP\USER\MDK-ARM\JLinkSettings.ini"", ...)  returns 0x00 (0000ms, 0547ms total)
T0F14 000:570 JLINK_ExecCommand("Device = Cortex-M0+", ...)Device "CORTEX-M0+" selected.  returns 0x00 (0003ms, 0550ms total)
T0F14 000:573 JLINK_ExecCommand("DisableConnectionTimeout", ...)  returns 0x01 (0000ms, 0550ms total)
T0F14 000:573 JLINK_GetHardwareVersion()  returns 0x16F30 (0000ms, 0550ms total)
T0F14 000:573 JLINK_GetDLLVersion()  returns 51205 (0000ms, 0550ms total)
T0F14 000:573 JLINK_GetFirmwareString(...) (0000ms, 0550ms total)
T0F14 000:592 JLINK_GetDLLVersion()  returns 51205 (0000ms, 0550ms total)
T0F14 000:592 JLINK_GetCompileDateTime() (0000ms, 0550ms total)
T0F14 000:594 JLINK_GetFirmwareString(...) (0000ms, 0550ms total)
T0F14 000:597 JLINK_GetHardwareVersion()  returns 0x16F30 (0000ms, 0550ms total)
T0F14 000:607 JLINK_TIF_Select(JLINKARM_TIF_SWD)  returns 0x00 (0001ms, 0551ms total)
T0F14 000:608 JLINK_SetSpeed(5000) (0000ms, 0551ms total)
T0F14 000:608 JLINK_GetId() >0x108 TIF>Found SWD-DP with ID 0x0BC11477 >0x0D TIF> >0x28 TIF> >0x0D TIF> >0x28 TIF> >0x0D TIF> >0x28 TIF> >0x0D TIF> >0x28 TIF> >0x0D TIF> >0x21 TIF> >0x0D TIF> >0x28 TIF> >0x0D TIF> >0x28 TIF> >0x0D TIF> >0x21 TIF> >0x0D TIF> >0x0D TIF> >0x0D TIF> >0x0D TIF> >0x0D TIF> >0x21 TIF> >0x0D TIF> >0x0D TIF> >0x0D TIF> >0x0D TIF> >0x0D TIF> >0x0D TIF> >0x21 TIF> >0x0D TIF> >0x0D TIF> >0x0D TIF> >0x0D TIF> >0x0D TIF> >0x0D TIF> >0x28 TIF> >0x0D TIF> >0x28 TIF> >0x0D TIF>
 >0x0D TIF> >0x0D TIF> >0x0D TIF> >0x28 TIF> >0x0D TIF> >0x0D TIF> >0x0D TIF> >0x0D TIF> >0x0D TIF> >0x21 TIF> >0x0D TIF> >0x0D TIF> >0x0D TIF> >0x0D TIF> >0x0D TIF> >0x0D TIF> >0x0D TIF> >0x0D TIF> >0x0D TIF> >0x21 TIF> >0x0D TIF> >0x28 TIF> >0x0D TIF> >0x0D TIF> >0x0D TIF> >0x0D TIF> >0x0D TIF> >0x21 TIF> >0x0D TIF> >0x0D TIF> >0x0D TIF> >0x0D TIF> >0x0D TIF> >0x0D TIF> >0x0D TIF> >0x0D TIF> >0x0D TIF> >0x21 TIF>Found Cortex-M0 r0p1, Little endian. -- CPU_ReadMem(4 bytes @ 0xE000EDF0)
 -- CPU_WriteMem(4 bytes @ 0xE000EDF0) -- CPU_ReadMem(4 bytes @ 0xE0002000)FPUnit: 4 code (BP) slots and 0 literal slots -- CPU_ReadMem(4 bytes @ 0xE000EDFC) -- CPU_WriteMem(4 bytes @ 0xE000EDFC) -- CPU_ReadMem(4 bytes @ 0xE0001000) -- CPU_WriteMem(4 bytes @ 0xE0001000)CoreSight components:ROMTbl 0 @ E00FF000 -- CPU_ReadMem(16 bytes @ 0xE00FF000) -- CPU_ReadMem(16 bytes @ 0xE000EFF0) -- CPU_ReadMem(16 bytes @ 0xE000EFE0)ROMTbl 0 [0]: FFF0F000, CID: B105E00D, PID: 000BB008 SCS
 -- CPU_ReadMem(16 bytes @ 0xE0001FF0) -- CPU_ReadMem(16 bytes @ 0xE0001FE0)ROMTbl 0 [1]: FFF02000, CID: B105E00D, PID: 000BB00A DWT -- CPU_ReadMem(16 bytes @ 0xE0002FF0) -- CPU_ReadMem(16 bytes @ 0xE0002FE0)ROMTbl 0 [2]: FFF03000, CID: B105E00D, PID: 000BB00B FPB >0x0D TIF> >0x21 TIF>  returns 0x0BC11477 (0113ms, 0664ms total)
T0F14 000:721 JLINK_GetDLLVersion()  returns 51205 (0000ms, 0664ms total)
T0F14 000:721 JLINK_CORE_GetFound()  returns 0x60000FF (0000ms, 0664ms total)
T0F14 000:721 JLINK_GetDebugInfo(0x100) -- Value=0xE00FF000  returns 0x00 (0000ms, 0664ms total)
T0F14 000:724 JLINK_GetDebugInfo(0x100) -- Value=0xE00FF000  returns 0x00 (0000ms, 0664ms total)
T0F14 000:724 JLINK_GetDebugInfo(0x101) -- Value=0x00000000  returns 0x00 (0000ms, 0664ms total)
T0F14 000:724 JLINK_ReadMem (0xE0041FF0, 0x0010 Bytes, ...) -- CPU is running -- CPU_ReadMem(16 bytes @ 0xE0041FF0) - Data: 00 00 00 00 00 00 00 00 00 00 00 00 00 00 00 00  returns 0x00 (0008ms, 0672ms total)
T0F14 000:732 JLINK_GetDebugInfo(0x102) -- Value=0x00000000  returns 0x00 (0000ms, 0672ms total)
T0F14 000:732 JLINK_GetDebugInfo(0x103) -- Value=0x00000000  returns 0x00 (0000ms, 0672ms total)
T0F14 000:732 JLINK_ReadMem (0xE0040FF0, 0x0010 Bytes, ...) -- CPU is running -- CPU_ReadMem(16 bytes @ 0xE0040FF0) - Data: 00 00 00 00 00 00 00 00 00 00 00 00 00 00 00 00  returns 0x00 (0008ms, 0680ms total)
T0F14 000:740 JLINK_GetDebugInfo(0x104) -- Value=0xE0000000  returns 0x00 (0000ms, 0680ms total)
T0F14 000:740 JLINK_GetDebugInfo(0x105) -- Value=0xE0001000  returns 0x00 (0000ms, 0680ms total)
T0F14 000:740 JLINK_GetDebugInfo(0x106) -- Value=0xE0002000  returns 0x00 (0000ms, 0680ms total)
T0F14 000:740 JLINK_GetDebugInfo(0x107) -- Value=0xE000E000  returns 0x00 (0000ms, 0680ms total)
T0F14 000:740 JLINK_GetDebugInfo(0x10C) -- Value=0xE000EDF0  returns 0x00 (0000ms, 0680ms total)
T0F14 000:740 JLINK_ReadMemU32(0xE000ED00, 0x0001 Items, ...) -- CPU is running -- CPU_ReadMem(4 bytes @ 0xE000ED00) - Data: 01 C6 0C 41  returns 0x01 (0004ms, 0684ms total)
T0F14 000:744 JLINK_SetResetType(JLINKARM_RESET_TYPE_NORMAL)  returns JLINKARM_RESET_TYPE_NORMAL (0000ms, 0684ms total)
T0F14 000:744 JLINK_Reset() -- CPU is running -- CPU_WriteMem(4 bytes @ 0xE000EDF0) -- CPU is running -- CPU_WriteMem(4 bytes @ 0xE000EDFC) >0x35 TIF> -- CPU is running -- CPU_WriteMem(4 bytes @ 0xE000ED0C) -- CPU is running -- CPU_ReadMem(4 bytes @ 0xE000EDF0) -- CPU is running -- CPU_ReadMem(4 bytes @ 0xE000EDF0) -- CPU is running -- CPU_WriteMem(4 bytes @ 0xE000EDF0) -- CPU is running -- CPU_WriteMem(4 bytes @ 0xE000EDFC) -- CPU is running -- CPU_ReadMem(4 bytes @ 0xE000EDF0)
 -- CPU_WriteMem(4 bytes @ 0xE0002000) -- CPU_ReadMem(4 bytes @ 0xE000EDFC) -- CPU_ReadMem(4 bytes @ 0xE0001000) -- CPU_WriteMem(4 bytes @ 0xE0001000) (0023ms, 0707ms total)
T0F14 000:767 JLINK_Halt()  returns 0x00 (0000ms, 0707ms total)
T0F14 000:767 JLINK_IsHalted()  returns TRUE (0000ms, 0707ms total)
T0F14 000:767 JLINK_ReadMemU32(0xE000EDF0, 0x0001 Items, ...) -- CPU_ReadMem(4 bytes @ 0xE000EDF0) - Data: 03 00 03 00  returns 0x01 (0000ms, 0707ms total)
T0F14 000:767 JLINK_WriteU32(0xE000EDF0, 0xA05F0003) -- CPU_WriteMem(4 bytes @ 0xE000EDF0)  returns 0x00 (0000ms, 0707ms total)
T0F14 000:767 JLINK_WriteU32(0xE000EDFC, 0x01000000) -- CPU_WriteMem(4 bytes @ 0xE000EDFC)  returns 0x00 (0001ms, 0708ms total)
T0F14 000:781 JLINK_GetHWStatus(...)  returns 0x00 (0000ms, 0708ms total)
T0F14 000:789 JLINK_GetNumBPUnits(Type = 0xFFFFFF00)  returns 0x04 (0000ms, 0708ms total)
T0F14 000:789 JLINK_GetNumBPUnits(Type = 0xF0)  returns 0x2000 (0000ms, 0708ms total)
T0F14 000:789 JLINK_GetNumWPUnits()  returns 0x02 (0000ms, 0708ms total)
T0F14 000:795 JLINK_GetSpeed()  returns 0xFA0 (0000ms, 0708ms total)
T0F14 000:800 JLINK_ReadMemU32(0xE000E004, 0x0001 Items, ...) -- CPU_ReadMem(4 bytes @ 0xE000E004) - Data: 00 00 00 00  returns 0x01 (0000ms, 0708ms total)
T0F14 000:800 JLINK_Halt()  returns 0x00 (0000ms, 0708ms total)
T0F14 000:800 JLINK_IsHalted()  returns TRUE (0000ms, 0708ms total)
T0F14 000:804 JLINK_WriteMem(0x20000000, 0x0110 Bytes, ...) - Data: 00 BE 0A E0 0D 78 2D 06 68 40 08 24 40 00 00 D3 ... -- CPU_WriteMem(272 bytes @ 0x20000000)  returns 0x110 (0002ms, 0710ms total)
T0F14 000:806 JLINK_WriteReg(R0, 0x00000000)  returns 0x00 (0000ms, 0710ms total)
T0F14 000:806 JLINK_WriteReg(R1, 0x00B71B00)  returns 0x00 (0000ms, 0710ms total)
T0F14 000:806 JLINK_WriteReg(R2, 0x00000001)  returns 0x00 (0000ms, 0710ms total)
T0F14 000:806 JLINK_WriteReg(R3, 0x00000000)  returns 0x00 (0000ms, 0710ms total)
T0F14 000:806 JLINK_WriteReg(R4, 0x00000000)  returns 0x00 (0000ms, 0710ms total)
T0F14 000:806 JLINK_WriteReg(R5, 0x00000000)  returns 0x00 (0000ms, 0710ms total)
T0F14 000:806 JLINK_WriteReg(R6, 0x00000000)  returns 0x00 (0000ms, 0710ms total)
T0F14 000:806 JLINK_WriteReg(R7, 0x00000000)  returns 0x00 (0000ms, 0710ms total)
T0F14 000:806 JLINK_WriteReg(R8, 0x00000000)  returns 0x00 (0000ms, 0710ms total)
T0F14 000:806 JLINK_WriteReg(R9, 0x2000010C)  returns 0x00 (0000ms, 0710ms total)
T0F14 000:806 JLINK_WriteReg(R10, 0x00000000)  returns 0x00 (0000ms, 0710ms total)
T0F14 000:806 JLINK_WriteReg(R11, 0x00000000)  returns 0x00 (0000ms, 0710ms total)
T0F14 000:806 JLINK_WriteReg(R12, 0x00000000)  returns 0x00 (0000ms, 0710ms total)
T0F14 000:806 JLINK_WriteReg(R13 (SP), 0x20000800)  returns 0x00 (0000ms, 0710ms total)
T0F14 000:806 JLINK_WriteReg(R14, 0x20000001)  returns 0x00 (0001ms, 0711ms total)
T0F14 000:807 JLINK_WriteReg(R15 (PC), 0x20000038)  returns 0x00 (0000ms, 0711ms total)
T0F14 000:807 JLINK_WriteReg(XPSR, 0x01000000)  returns 0x00 (0000ms, 0711ms total)
T0F14 000:807 JLINK_WriteReg(MSP, 0x20000800)  returns 0x00 (0000ms, 0711ms total)
T0F14 000:807 JLINK_WriteReg(PSP, 0x20000800)  returns 0x00 (0000ms, 0711ms total)
T0F14 000:807 JLINK_WriteReg(CFBP, 0x00000000)  returns 0x00 (0000ms, 0711ms total)
T0F14 000:807 JLINK_SetBPEx(Addr = 0x20000000, Type = 0xFFFFFFF2) -- CPU_ReadMem(4 bytes @ 0x20000000) -- CPU_WriteMem(4 bytes @ 0x20000000) -- CPU_ReadMem(4 bytes @ 0x20000000) -- CPU_WriteMem(4 bytes @ 0x20000000) -- CPU_ReadMem(2 bytes @ 0x20000000)  returns 0x00000001 (0003ms, 0714ms total)
T0F14 000:810 JLINK_Go() -- CPU_WriteMem(2 bytes @ 0x20000000) -- CPU_ReadMem(4 bytes @ 0xE0001000) -- CPU_WriteMem(4 bytes @ 0xE0001000) -- CPU_WriteMem(4 bytes @ 0xE0002008) -- CPU_WriteMem(4 bytes @ 0xE000200C) -- CPU_WriteMem(4 bytes @ 0xE0002010) -- CPU_WriteMem(4 bytes @ 0xE0002014) -- CPU_WriteMem(4 bytes @ 0xE0001004) (0005ms, 0719ms total)
T0F14 000:815 JLINK_IsHalted() -- CPU_ReadMem(2 bytes @ 0x20000000)  returns TRUE (0003ms, 0722ms total)
T0F14 000:819 JLINK_ReadReg(R15 (PC))  returns 0x20000000 (0000ms, 0719ms total)
T0F14 000:819 JLINK_ClrBPEx(BPHandle = 0x00000001)  returns 0x00 (0000ms, 0719ms total)
T0F14 000:819 JLINK_ReadReg(R0)  returns 0x00000000 (0000ms, 0719ms total)
T0F14 000:819 JLINK_WriteReg(R0, 0x00000000)  returns 0x00 (0000ms, 0719ms total)
T0F14 000:819 JLINK_WriteReg(R1, 0x00000200)  returns 0x00 (0000ms, 0719ms total)
T0F14 000:819 JLINK_WriteReg(R2, 0x000000FF)  returns 0x00 (0000ms, 0719ms total)
T0F14 000:819 JLINK_WriteReg(R3, 0x00000000)  returns 0x00 (0000ms, 0719ms total)
T0F14 000:819 JLINK_WriteReg(R4, 0x00000000)  returns 0x00 (0000ms, 0719ms total)
T0F14 000:819 JLINK_WriteReg(R5, 0x00000000)  returns 0x00 (0000ms, 0719ms total)
T0F14 000:819 JLINK_WriteReg(R6, 0x00000000)  returns 0x00 (0000ms, 0719ms total)
T0F14 000:819 JLINK_WriteReg(R7, 0x00000000)  returns 0x00 (0001ms, 0720ms total)
T0F14 000:820 JLINK_WriteReg(R8, 0x00000000)  returns 0x00 (0000ms, 0720ms total)
T0F14 000:820 JLINK_WriteReg(R9, 0x2000010C)  returns 0x00 (0000ms, 0720ms total)
T0F14 000:820 JLINK_WriteReg(R10, 0x00000000)  returns 0x00 (0000ms, 0720ms total)
T0F14 000:820 JLINK_WriteReg(R11, 0x00000000)  returns 0x00 (0000ms, 0720ms total)
T0F14 000:820 JLINK_WriteReg(R12, 0x00000000)  returns 0x00 (0000ms, 0720ms total)
T0F14 000:820 JLINK_WriteReg(R13 (SP), 0x20000800)  returns 0x00 (0000ms, 0720ms total)
T0F14 000:820 JLINK_WriteReg(R14, 0x20000001)  returns 0x00 (0000ms, 0720ms total)
T0F14 000:820 JLINK_WriteReg(R15 (PC), 0x20000020)  returns 0x00 (0000ms, 0720ms total)
T0F14 000:820 JLINK_WriteReg(XPSR, 0x01000000)  returns 0x00 (0000ms, 0720ms total)
T0F14 000:820 JLINK_WriteReg(MSP, 0x20000800)  returns 0x00 (0000ms, 0720ms total)
T0F14 000:820 JLINK_WriteReg(PSP, 0x20000800)  returns 0x00 (0000ms, 0720ms total)
T0F14 000:820 JLINK_WriteReg(CFBP, 0x00000000)  returns 0x00 (0000ms, 0720ms total)
T0F14 000:820 JLINK_SetBPEx(Addr = 0x20000000, Type = 0xFFFFFFF2)  returns 0x00000002 (0000ms, 0720ms total)
T0F14 000:820 JLINK_Go() -- CPU_ReadMem(4 bytes @ 0xE0001000) -- CPU_WriteMem(4 bytes @ 0xE0001000) (0002ms, 0722ms total)
T0F14 000:822 JLINK_IsHalted() -- CPU_ReadMem(2 bytes @ 0x20000000)  returns TRUE (0003ms, 0725ms total)
T0F14 000:825 JLINK_ReadReg(R15 (PC))  returns 0x20000000 (0000ms, 0722ms total)
T0F14 000:825 JLINK_ClrBPEx(BPHandle = 0x00000002)  returns 0x00 (0000ms, 0722ms total)
T0F14 000:825 JLINK_ReadReg(R0)  returns 0x00000001 (0000ms, 0722ms total)
T0F14 000:825 JLINK_WriteReg(R0, 0x00000000)  returns 0x00 (0000ms, 0722ms total)
T0F14 000:825 JLINK_WriteReg(R1, 0x00000200)  returns 0x00 (0000ms, 0722ms total)
T0F14 000:825 JLINK_WriteReg(R2, 0x000000FF)  returns 0x00 (0000ms, 0722ms total)
T0F14 000:825 JLINK_WriteReg(R3, 0x00000000)  returns 0x00 (0000ms, 0722ms total)
T0F14 000:825 JLINK_WriteReg(R4, 0x00000000)  returns 0x00 (0000ms, 0722ms total)
T0F14 000:825 JLINK_WriteReg(R5, 0x00000000)  returns 0x00 (0000ms, 0722ms total)
T0F14 000:825 JLINK_WriteReg(R6, 0x00000000)  returns 0x00 (0000ms, 0722ms total)
T0F14 000:825 JLINK_WriteReg(R7, 0x00000000)  returns 0x00 (0000ms, 0722ms total)
T0F14 000:825 JLINK_WriteReg(R8, 0x00000000)  returns 0x00 (0000ms, 0722ms total)
T0F14 000:825 JLINK_WriteReg(R9, 0x2000010C)  returns 0x00 (0000ms, 0722ms total)
T0F14 000:825 JLINK_WriteReg(R10, 0x00000000)  returns 0x00 (0000ms, 0722ms total)
T0F14 000:825 JLINK_WriteReg(R11, 0x00000000)  returns 0x00 (0000ms, 0722ms total)
T0F14 000:825 JLINK_WriteReg(R12, 0x00000000)  returns 0x00 (0000ms, 0722ms total)
T0F14 000:825 JLINK_WriteReg(R13 (SP), 0x20000800)  returns 0x00 (0000ms, 0722ms total)
T0F14 000:825 JLINK_WriteReg(R14, 0x20000001)  returns 0x00 (0000ms, 0722ms total)
T0F14 000:825 JLINK_WriteReg(R15 (PC), 0x20000092)  returns 0x00 (0000ms, 0722ms total)
T0F14 000:825 JLINK_WriteReg(XPSR, 0x01000000)  returns 0x00 (0000ms, 0722ms total)
T0F14 000:825 JLINK_WriteReg(MSP, 0x20000800)  returns 0x00 (0000ms, 0722ms total)
T0F14 000:825 JLINK_WriteReg(PSP, 0x20000800)  returns 0x00 (0000ms, 0722ms total)
T0F14 000:825 JLINK_WriteReg(CFBP, 0x00000000)  returns 0x00 (0000ms, 0722ms total)
T0F14 000:825 JLINK_SetBPEx(Addr = 0x20000000, Type = 0xFFFFFFF2)  returns 0x00000003 (0000ms, 0722ms total)
T0F14 000:825 JLINK_Go() -- CPU_ReadMem(4 bytes @ 0xE0001000) -- CPU_WriteMem(4 bytes @ 0xE0001000) (0002ms, 0724ms total)
T0F14 000:827 JLINK_IsHalted()  returns FALSE (0000ms, 0724ms total)
T0F14 000:866 JLINK_IsHalted() -- CPU_ReadMem(2 bytes @ 0x20000000)  returns TRUE (0002ms, 0726ms total)
T0F14 000:868 JLINK_ReadReg(R15 (PC))  returns 0x20000000 (0000ms, 0724ms total)
T0F14 000:868 JLINK_ClrBPEx(BPHandle = 0x00000003)  returns 0x00 (0000ms, 0724ms total)
T0F14 000:868 JLINK_ReadReg(R0)  returns 0x00000000 (0000ms, 0724ms total)
T0F14 000:869 JLINK_WriteReg(R0, 0x00000200)  returns 0x00 (0000ms, 0724ms total)
T0F14 000:869 JLINK_WriteReg(R1, 0x00000200)  returns 0x00 (0000ms, 0724ms total)
T0F14 000:869 JLINK_WriteReg(R2, 0x000000FF)  returns 0x00 (0000ms, 0724ms total)
T0F14 000:869 JLINK_WriteReg(R3, 0x00000000)  returns 0x00 (0000ms, 0724ms total)
T0F14 000:869 JLINK_WriteReg(R4, 0x00000000)  returns 0x00 (0000ms, 0724ms total)
T0F14 000:869 JLINK_WriteReg(R5, 0x00000000)  returns 0x00 (0000ms, 0724ms total)
T0F14 000:869 JLINK_WriteReg(R6, 0x00000000)  returns 0x00 (0000ms, 0724ms total)
T0F14 000:869 JLINK_WriteReg(R7, 0x00000000)  returns 0x00 (0000ms, 0724ms total)
T0F14 000:869 JLINK_WriteReg(R8, 0x00000000)  returns 0x00 (0000ms, 0724ms total)
T0F14 000:869 JLINK_WriteReg(R9, 0x2000010C)  returns 0x00 (0000ms, 0724ms total)
T0F14 000:869 JLINK_WriteReg(R10, 0x00000000)  returns 0x00 (0000ms, 0724ms total)
T0F14 000:869 JLINK_WriteReg(R11, 0x00000000)  returns 0x00 (0000ms, 0724ms total)
T0F14 000:869 JLINK_WriteReg(R12, 0x00000000)  returns 0x00 (0000ms, 0724ms total)
T0F14 000:869 JLINK_WriteReg(R13 (SP), 0x20000800)  returns 0x00 (0000ms, 0724ms total)
T0F14 000:869 JLINK_WriteReg(R14, 0x20000001)  returns 0x00 (0000ms, 0724ms total)
T0F14 000:869 JLINK_WriteReg(R15 (PC), 0x20000020)  returns 0x00 (0000ms, 0724ms total)
T0F14 000:869 JLINK_WriteReg(XPSR, 0x01000000)  returns 0x00 (0000ms, 0724ms total)
T0F14 000:869 JLINK_WriteReg(MSP, 0x20000800)  returns 0x00 (0000ms, 0724ms total)
T0F14 000:869 JLINK_WriteReg(PSP, 0x20000800)  returns 0x00 (0000ms, 0724ms total)
T0F14 000:869 JLINK_WriteReg(CFBP, 0x00000000)  returns 0x00 (0000ms, 0724ms total)
T0F14 000:869 JLINK_SetBPEx(Addr = 0x20000000, Type = 0xFFFFFFF2)  returns 0x00000004 (0001ms, 0725ms total)
T0F14 000:870 JLINK_Go() -- CPU_ReadMem(4 bytes @ 0xE0001000) -- CPU_WriteMem(4 bytes @ 0xE0001000) (0002ms, 0727ms total)
T0F14 000:872 JLINK_IsHalted() -- CPU_ReadMem(2 bytes @ 0x20000000)  returns TRUE (0002ms, 0729ms total)
T0F14 000:874 JLINK_ReadReg(R15 (PC))  returns 0x20000000 (0000ms, 0727ms total)
T0F14 000:874 JLINK_ClrBPEx(BPHandle = 0x00000004)  returns 0x00 (0001ms, 0728ms total)
T0F14 000:875 JLINK_ReadReg(R0)  returns 0x00000001 (0000ms, 0728ms total)
T0F14 000:875 JLINK_WriteReg(R0, 0x00000200)  returns 0x00 (0000ms, 0728ms total)
T0F14 000:875 JLINK_WriteReg(R1, 0x00000200)  returns 0x00 (0000ms, 0728ms total)
T0F14 000:875 JLINK_WriteReg(R2, 0x000000FF)  returns 0x00 (0000ms, 0728ms total)
T0F14 000:875 JLINK_WriteReg(R3, 0x00000000)  returns 0x00 (0000ms, 0728ms total)
T0F14 000:875 JLINK_WriteReg(R4, 0x00000000)  returns 0x00 (0000ms, 0728ms total)
T0F14 000:875 JLINK_WriteReg(R5, 0x00000000)  returns 0x00 (0000ms, 0728ms total)
T0F14 000:875 JLINK_WriteReg(R6, 0x00000000)  returns 0x00 (0000ms, 0728ms total)
T0F14 000:875 JLINK_WriteReg(R7, 0x00000000)  returns 0x00 (0000ms, 0728ms total)
T0F14 000:875 JLINK_WriteReg(R8, 0x00000000)  returns 0x00 (0000ms, 0728ms total)
T0F14 000:875 JLINK_WriteReg(R9, 0x2000010C)  returns 0x00 (0000ms, 0728ms total)
T0F14 000:875 JLINK_WriteReg(R10, 0x00000000)  returns 0x00 (0000ms, 0728ms total)
T0F14 000:875 JLINK_WriteReg(R11, 0x00000000)  returns 0x00 (0000ms, 0728ms total)
T0F14 000:875 JLINK_WriteReg(R12, 0x00000000)  returns 0x00 (0000ms, 0728ms total)
T0F14 000:875 JLINK_WriteReg(R13 (SP), 0x20000800)  returns 0x00 (0000ms, 0728ms total)
T0F14 000:875 JLINK_WriteReg(R14, 0x20000001)  returns 0x00 (0000ms, 0728ms total)
T0F14 000:875 JLINK_WriteReg(R15 (PC), 0x20000092)  returns 0x00 (0000ms, 0728ms total)
T0F14 000:875 JLINK_WriteReg(XPSR, 0x01000000)  returns 0x00 (0000ms, 0728ms total)
T0F14 000:875 JLINK_WriteReg(MSP, 0x20000800)  returns 0x00 (0000ms, 0728ms total)
T0F14 000:875 JLINK_WriteReg(PSP, 0x20000800)  returns 0x00 (0000ms, 0728ms total)
T0F14 000:875 JLINK_WriteReg(CFBP, 0x00000000)  returns 0x00 (0000ms, 0728ms total)
T0F14 000:875 JLINK_SetBPEx(Addr = 0x20000000, Type = 0xFFFFFFF2)  returns 0x00000005 (0000ms, 0728ms total)
T0F14 000:875 JLINK_Go() -- CPU_ReadMem(4 bytes @ 0xE0001000) -- CPU_WriteMem(4 bytes @ 0xE0001000) (0002ms, 0730ms total)
T0F14 000:877 JLINK_IsHalted()  returns FALSE (0000ms, 0730ms total)
T0F14 000:880 JLINK_IsHalted() -- CPU_ReadMem(2 bytes @ 0x20000000)  returns TRUE (0002ms, 0732ms total)
T0F14 000:882 JLINK_ReadReg(R15 (PC))  returns 0x20000000 (0000ms, 0730ms total)
T0F14 000:882 JLINK_ClrBPEx(BPHandle = 0x00000005)  returns 0x00 (0000ms, 0730ms total)
T0F14 000:882 JLINK_ReadReg(R0)  returns 0x00000000 (0000ms, 0730ms total)
T0F14 000:883 JLINK_WriteReg(R0, 0x00000400)  returns 0x00 (0000ms, 0730ms total)
T0F14 000:883 JLINK_WriteReg(R1, 0x00000200)  returns 0x00 (0000ms, 0730ms total)
T0F14 000:883 JLINK_WriteReg(R2, 0x000000FF)  returns 0x00 (0000ms, 0730ms total)
T0F14 000:883 JLINK_WriteReg(R3, 0x00000000)  returns 0x00 (0000ms, 0730ms total)
T0F14 000:883 JLINK_WriteReg(R4, 0x00000000)  returns 0x00 (0000ms, 0730ms total)
T0F14 000:883 JLINK_WriteReg(R5, 0x00000000)  returns 0x00 (0000ms, 0730ms total)
T0F14 000:883 JLINK_WriteReg(R6, 0x00000000)  returns 0x00 (0000ms, 0730ms total)
T0F14 000:883 JLINK_WriteReg(R7, 0x00000000)  returns 0x00 (0000ms, 0730ms total)
T0F14 000:883 JLINK_WriteReg(R8, 0x00000000)  returns 0x00 (0000ms, 0730ms total)
T0F14 000:883 JLINK_WriteReg(R9, 0x2000010C)  returns 0x00 (0000ms, 0730ms total)
T0F14 000:883 JLINK_WriteReg(R10, 0x00000000)  returns 0x00 (0000ms, 0730ms total)
T0F14 000:883 JLINK_WriteReg(R11, 0x00000000)  returns 0x00 (0000ms, 0730ms total)
T0F14 000:883 JLINK_WriteReg(R12, 0x00000000)  returns 0x00 (0000ms, 0730ms total)
T0F14 000:883 JLINK_WriteReg(R13 (SP), 0x20000800)  returns 0x00 (0000ms, 0730ms total)
T0F14 000:883 JLINK_WriteReg(R14, 0x20000001)  returns 0x00 (0000ms, 0730ms total)
T0F14 000:883 JLINK_WriteReg(R15 (PC), 0x20000020)  returns 0x00 (0000ms, 0730ms total)
T0F14 000:883 JLINK_WriteReg(XPSR, 0x01000000)  returns 0x00 (0000ms, 0730ms total)
T0F14 000:883 JLINK_WriteReg(MSP, 0x20000800)  returns 0x00 (0000ms, 0730ms total)
T0F14 000:883 JLINK_WriteReg(PSP, 0x20000800)  returns 0x00 (0000ms, 0730ms total)
T0F14 000:883 JLINK_WriteReg(CFBP, 0x00000000)  returns 0x00 (0000ms, 0730ms total)
T0F14 000:883 JLINK_SetBPEx(Addr = 0x20000000, Type = 0xFFFFFFF2)  returns 0x00000006 (0000ms, 0730ms total)
T0F14 000:883 JLINK_Go() -- CPU_ReadMem(4 bytes @ 0xE0001000) -- CPU_WriteMem(4 bytes @ 0xE0001000) (0002ms, 0732ms total)
T0F14 000:885 JLINK_IsHalted() -- CPU_ReadMem(2 bytes @ 0x20000000)  returns TRUE (0003ms, 0735ms total)
T0F14 000:888 JLINK_ReadReg(R15 (PC))  returns 0x20000000 (0000ms, 0732ms total)
T0F14 000:888 JLINK_ClrBPEx(BPHandle = 0x00000006)  returns 0x00 (0000ms, 0732ms total)
T0F14 000:888 JLINK_ReadReg(R0)  returns 0x00000001 (0000ms, 0732ms total)
T0F14 000:888 JLINK_WriteReg(R0, 0x00000400)  returns 0x00 (0000ms, 0732ms total)
T0F14 000:888 JLINK_WriteReg(R1, 0x00000200)  returns 0x00 (0000ms, 0732ms total)
T0F14 000:888 JLINK_WriteReg(R2, 0x000000FF)  returns 0x00 (0000ms, 0732ms total)
T0F14 000:888 JLINK_WriteReg(R3, 0x00000000)  returns 0x00 (0000ms, 0732ms total)
T0F14 000:888 JLINK_WriteReg(R4, 0x00000000)  returns 0x00 (0000ms, 0732ms total)
T0F14 000:888 JLINK_WriteReg(R5, 0x00000000)  returns 0x00 (0000ms, 0732ms total)
T0F14 000:888 JLINK_WriteReg(R6, 0x00000000)  returns 0x00 (0000ms, 0732ms total)
T0F14 000:888 JLINK_WriteReg(R7, 0x00000000)  returns 0x00 (0000ms, 0732ms total)
T0F14 000:888 JLINK_WriteReg(R8, 0x00000000)  returns 0x00 (0000ms, 0732ms total)
T0F14 000:888 JLINK_WriteReg(R9, 0x2000010C)  returns 0x00 (0000ms, 0732ms total)
T0F14 000:888 JLINK_WriteReg(R10, 0x00000000)  returns 0x00 (0000ms, 0732ms total)
T0F14 000:888 JLINK_WriteReg(R11, 0x00000000)  returns 0x00 (0000ms, 0732ms total)
T0F14 000:888 JLINK_WriteReg(R12, 0x00000000)  returns 0x00 (0000ms, 0732ms total)
T0F14 000:888 JLINK_WriteReg(R13 (SP), 0x20000800)  returns 0x00 (0000ms, 0732ms total)
T0F14 000:888 JLINK_WriteReg(R14, 0x20000001)  returns 0x00 (0000ms, 0732ms total)
T0F14 000:888 JLINK_WriteReg(R15 (PC), 0x20000092)  returns 0x00 (0000ms, 0732ms total)
T0F14 000:888 JLINK_WriteReg(XPSR, 0x01000000)  returns 0x00 (0000ms, 0732ms total)
T0F14 000:888 JLINK_WriteReg(MSP, 0x20000800)  returns 0x00 (0000ms, 0732ms total)
T0F14 000:888 JLINK_WriteReg(PSP, 0x20000800)  returns 0x00 (0000ms, 0732ms total)
T0F14 000:888 JLINK_WriteReg(CFBP, 0x00000000)  returns 0x00 (0000ms, 0732ms total)
T0F14 000:888 JLINK_SetBPEx(Addr = 0x20000000, Type = 0xFFFFFFF2)  returns 0x00000007 (0000ms, 0732ms total)
T0F14 000:888 JLINK_Go() -- CPU_ReadMem(4 bytes @ 0xE0001000) -- CPU_WriteMem(4 bytes @ 0xE0001000) (0002ms, 0734ms total)
T0F14 000:890 JLINK_IsHalted()  returns FALSE (0000ms, 0734ms total)
T0F14 000:892 JLINK_IsHalted()  returns FALSE (0000ms, 0734ms total)
T0F14 000:895 JLINK_IsHalted() -- CPU_ReadMem(2 bytes @ 0x20000000)  returns TRUE (0002ms, 0736ms total)
T0F14 000:897 JLINK_ReadReg(R15 (PC))  returns 0x20000000 (0000ms, 0734ms total)
T0F14 000:897 JLINK_ClrBPEx(BPHandle = 0x00000007)  returns 0x00 (0000ms, 0734ms total)
T0F14 000:897 JLINK_ReadReg(R0)  returns 0x00000000 (0000ms, 0734ms total)
T0F14 000:898 JLINK_WriteReg(R0, 0x00000001)  returns 0x00 (0000ms, 0734ms total)
T0F14 000:898 JLINK_WriteReg(R1, 0x00000200)  returns 0x00 (0000ms, 0734ms total)
T0F14 000:898 JLINK_WriteReg(R2, 0x000000FF)  returns 0x00 (0000ms, 0734ms total)
T0F14 000:898 JLINK_WriteReg(R3, 0x00000000)  returns 0x00 (0000ms, 0734ms total)
T0F14 000:898 JLINK_WriteReg(R4, 0x00000000)  returns 0x00 (0000ms, 0734ms total)
T0F14 000:898 JLINK_WriteReg(R5, 0x00000000)  returns 0x00 (0000ms, 0734ms total)
T0F14 000:898 JLINK_WriteReg(R6, 0x00000000)  returns 0x00 (0000ms, 0734ms total)
T0F14 000:898 JLINK_WriteReg(R7, 0x00000000)  returns 0x00 (0000ms, 0734ms total)
T0F14 000:898 JLINK_WriteReg(R8, 0x00000000)  returns 0x00 (0000ms, 0734ms total)
T0F14 000:898 JLINK_WriteReg(R9, 0x2000010C)  returns 0x00 (0000ms, 0734ms total)
T0F14 000:898 JLINK_WriteReg(R10, 0x00000000)  returns 0x00 (0000ms, 0734ms total)
T0F14 000:898 JLINK_WriteReg(R11, 0x00000000)  returns 0x00 (0000ms, 0734ms total)
T0F14 000:898 JLINK_WriteReg(R12, 0x00000000)  returns 0x00 (0000ms, 0734ms total)
T0F14 000:898 JLINK_WriteReg(R13 (SP), 0x20000800)  returns 0x00 (0000ms, 0734ms total)
T0F14 000:898 JLINK_WriteReg(R14, 0x20000001)  returns 0x00 (0000ms, 0734ms total)
T0F14 000:898 JLINK_WriteReg(R15 (PC), 0x2000005A)  returns 0x00 (0000ms, 0734ms total)
T0F14 000:898 JLINK_WriteReg(XPSR, 0x01000000)  returns 0x00 (0000ms, 0734ms total)
T0F14 000:898 JLINK_WriteReg(MSP, 0x20000800)  returns 0x00 (0000ms, 0734ms total)
T0F14 000:898 JLINK_WriteReg(PSP, 0x20000800)  returns 0x00 (0000ms, 0734ms total)
T0F14 000:898 JLINK_WriteReg(CFBP, 0x00000000)  returns 0x00 (0000ms, 0734ms total)
T0F14 000:898 JLINK_SetBPEx(Addr = 0x20000000, Type = 0xFFFFFFF2)  returns 0x00000008 (0000ms, 0734ms total)
T0F14 000:898 JLINK_Go() -- CPU_ReadMem(4 bytes @ 0xE0001000) -- CPU_WriteMem(4 bytes @ 0xE0001000) (0002ms, 0736ms total)
T0F14 000:900 JLINK_IsHalted() -- CPU_ReadMem(2 bytes @ 0x20000000)  returns TRUE (0004ms, 0740ms total)
T0F14 000:904 JLINK_ReadReg(R15 (PC))  returns 0x20000000 (0000ms, 0736ms total)
T0F14 000:904 JLINK_ClrBPEx(BPHandle = 0x00000008)  returns 0x00 (0000ms, 0736ms total)
T0F14 000:904 JLINK_ReadReg(R0)  returns 0x00000000 (0000ms, 0736ms total)
T0F14 000:965 JLINK_WriteMem(0x20000000, 0x0110 Bytes, ...) - Data: 00 BE 0A E0 0D 78 2D 06 68 40 08 24 40 00 00 D3 ... -- CPU_WriteMem(272 bytes @ 0x20000000)  returns 0x110 (0002ms, 0738ms total)
T0F14 000:967 JLINK_WriteReg(R0, 0x00000000)  returns 0x00 (0000ms, 0738ms total)
T0F14 000:967 JLINK_WriteReg(R1, 0x00B71B00)  returns 0x00 (0000ms, 0738ms total)
T0F14 000:967 JLINK_WriteReg(R2, 0x00000002)  returns 0x00 (0001ms, 0739ms total)
T0F14 000:968 JLINK_WriteReg(R3, 0x00000000)  returns 0x00 (0000ms, 0739ms total)
T0F14 000:968 JLINK_WriteReg(R4, 0x00000000)  returns 0x00 (0000ms, 0739ms total)
T0F14 000:968 JLINK_WriteReg(R5, 0x00000000)  returns 0x00 (0000ms, 0739ms total)
T0F14 000:968 JLINK_WriteReg(R6, 0x00000000)  returns 0x00 (0000ms, 0739ms total)
T0F14 000:968 JLINK_WriteReg(R7, 0x00000000)  returns 0x00 (0000ms, 0739ms total)
T0F14 000:968 JLINK_WriteReg(R8, 0x00000000)  returns 0x00 (0000ms, 0739ms total)
T0F14 000:968 JLINK_WriteReg(R9, 0x2000010C)  returns 0x00 (0000ms, 0739ms total)
T0F14 000:968 JLINK_WriteReg(R10, 0x00000000)  returns 0x00 (0000ms, 0739ms total)
T0F14 000:968 JLINK_WriteReg(R11, 0x00000000)  returns 0x00 (0000ms, 0739ms total)
T0F14 000:968 JLINK_WriteReg(R12, 0x00000000)  returns 0x00 (0000ms, 0739ms total)
T0F14 000:968 JLINK_WriteReg(R13 (SP), 0x20000800)  returns 0x00 (0000ms, 0739ms total)
T0F14 000:968 JLINK_WriteReg(R14, 0x20000001)  returns 0x00 (0000ms, 0739ms total)
T0F14 000:968 JLINK_WriteReg(R15 (PC), 0x20000038)  returns 0x00 (0000ms, 0739ms total)
T0F14 000:968 JLINK_WriteReg(XPSR, 0x01000000)  returns 0x00 (0000ms, 0739ms total)
T0F14 000:968 JLINK_WriteReg(MSP, 0x20000800)  returns 0x00 (0000ms, 0739ms total)
T0F14 000:968 JLINK_WriteReg(PSP, 0x20000800)  returns 0x00 (0000ms, 0739ms total)
T0F14 000:968 JLINK_WriteReg(CFBP, 0x00000000)  returns 0x00 (0000ms, 0739ms total)
T0F14 000:968 JLINK_SetBPEx(Addr = 0x20000000, Type = 0xFFFFFFF2) -- CPU_ReadMem(4 bytes @ 0x20000000) -- CPU_WriteMem(4 bytes @ 0x20000000) -- CPU_ReadMem(4 bytes @ 0x20000000) -- CPU_WriteMem(4 bytes @ 0x20000000) -- CPU_ReadMem(2 bytes @ 0x20000000)  returns 0x00000009 (0002ms, 0741ms total)
T0F14 000:970 JLINK_Go() -- CPU_WriteMem(2 bytes @ 0x20000000) -- CPU_ReadMem(4 bytes @ 0xE0001000) -- CPU_WriteMem(4 bytes @ 0xE0001000) (0003ms, 0744ms total)
T0F14 000:973 JLINK_IsHalted() -- CPU_ReadMem(2 bytes @ 0x20000000)  returns TRUE (0004ms, 0748ms total)
T0F14 000:977 JLINK_ReadReg(R15 (PC))  returns 0x20000000 (0000ms, 0744ms total)
T0F14 000:977 JLINK_ClrBPEx(BPHandle = 0x00000009)  returns 0x00 (0000ms, 0744ms total)
T0F14 000:977 JLINK_ReadReg(R0)  returns 0x00000000 (0000ms, 0744ms total)
T0F14 000:977 JLINK_WriteMem(0x20000110, 0x0200 Bytes, ...) - Data: 88 01 00 20 81 00 00 00 7D 02 00 00 79 02 00 00 ... -- CPU_WriteMem(512 bytes @ 0x20000110)  returns 0x200 (0003ms, 0747ms total)
T0F14 000:980 JLINK_WriteReg(R0, 0x00000000)  returns 0x00 (0000ms, 0747ms total)
T0F14 000:980 JLINK_WriteReg(R1, 0x00000200)  returns 0x00 (0000ms, 0747ms total)
T0F14 000:980 JLINK_WriteReg(R2, 0x20000110)  returns 0x00 (0000ms, 0747ms total)
T0F14 000:980 JLINK_WriteReg(R3, 0x00000000)  returns 0x00 (0000ms, 0747ms total)
T0F14 000:980 JLINK_WriteReg(R4, 0x00000000)  returns 0x00 (0000ms, 0747ms total)
T0F14 000:980 JLINK_WriteReg(R5, 0x00000000)  returns 0x00 (0000ms, 0747ms total)
T0F14 000:980 JLINK_WriteReg(R6, 0x00000000)  returns 0x00 (0000ms, 0747ms total)
T0F14 000:980 JLINK_WriteReg(R7, 0x00000000)  returns 0x00 (0000ms, 0747ms total)
T0F14 000:980 JLINK_WriteReg(R8, 0x00000000)  returns 0x00 (0000ms, 0747ms total)
T0F14 000:980 JLINK_WriteReg(R9, 0x2000010C)  returns 0x00 (0000ms, 0747ms total)
T0F14 000:980 JLINK_WriteReg(R10, 0x00000000)  returns 0x00 (0000ms, 0747ms total)
T0F14 000:980 JLINK_WriteReg(R11, 0x00000000)  returns 0x00 (0000ms, 0747ms total)
T0F14 000:980 JLINK_WriteReg(R12, 0x00000000)  returns 0x00 (0000ms, 0747ms total)
T0F14 000:980 JLINK_WriteReg(R13 (SP), 0x20000800)  returns 0x00 (0000ms, 0747ms total)
T0F14 000:980 JLINK_WriteReg(R14, 0x20000001)  returns 0x00 (0000ms, 0747ms total)
T0F14 000:980 JLINK_WriteReg(R15 (PC), 0x200000C2)  returns 0x00 (0001ms, 0748ms total)
T0F14 000:981 JLINK_WriteReg(XPSR, 0x01000000)  returns 0x00 (0000ms, 0748ms total)
T0F14 000:981 JLINK_WriteReg(MSP, 0x20000800)  returns 0x00 (0000ms, 0748ms total)
T0F14 000:981 JLINK_WriteReg(PSP, 0x20000800)  returns 0x00 (0000ms, 0748ms total)
T0F14 000:981 JLINK_WriteReg(CFBP, 0x00000000)  returns 0x00 (0000ms, 0748ms total)
T0F14 000:981 JLINK_SetBPEx(Addr = 0x20000000, Type = 0xFFFFFFF2)  returns 0x0000000A (0000ms, 0748ms total)
T0F14 000:981 JLINK_Go() -- CPU_ReadMem(4 bytes @ 0xE0001000) -- CPU_WriteMem(4 bytes @ 0xE0001000) (0002ms, 0750ms total)
T0F14 000:983 JLINK_IsHalted()  returns FALSE (0001ms, 0751ms total)
T0F14 000:991 JLINK_IsHalted() -- CPU_ReadMem(2 bytes @ 0x20000000)  returns TRUE (0003ms, 0753ms total)
T0F14 000:994 JLINK_ReadReg(R15 (PC))  returns 0x20000000 (0000ms, 0750ms total)
T0F14 000:994 JLINK_ClrBPEx(BPHandle = 0x0000000A)  returns 0x00 (0000ms, 0750ms total)
T0F14 000:994 JLINK_ReadReg(R0)  returns 0x00000000 (0000ms, 0750ms total)
T0F14 000:995 JLINK_WriteMem(0x20000110, 0x0200 Bytes, ...) - Data: 70 47 00 00 40 80 02 40 01 29 02 D1 03 4A 50 60 ... -- CPU_WriteMem(512 bytes @ 0x20000110)  returns 0x200 (0003ms, 0753ms total)
T0F14 000:998 JLINK_WriteReg(R0, 0x00000200)  returns 0x00 (0000ms, 0753ms total)
T0F14 000:998 JLINK_WriteReg(R1, 0x00000200)  returns 0x00 (0000ms, 0753ms total)
T0F14 000:998 JLINK_WriteReg(R2, 0x20000110)  returns 0x00 (0000ms, 0753ms total)
T0F14 000:998 JLINK_WriteReg(R3, 0x00000000)  returns 0x00 (0000ms, 0753ms total)
T0F14 000:998 JLINK_WriteReg(R4, 0x00000000)  returns 0x00 (0000ms, 0753ms total)
T0F14 000:998 JLINK_WriteReg(R5, 0x00000000)  returns 0x00 (0000ms, 0753ms total)
T0F14 000:998 JLINK_WriteReg(R6, 0x00000000)  returns 0x00 (0000ms, 0753ms total)
T0F14 000:998 JLINK_WriteReg(R7, 0x00000000)  returns 0x00 (0000ms, 0753ms total)
T0F14 000:998 JLINK_WriteReg(R8, 0x00000000)  returns 0x00 (0000ms, 0753ms total)
T0F14 000:998 JLINK_WriteReg(R9, 0x2000010C)  returns 0x00 (0000ms, 0753ms total)
T0F14 000:998 JLINK_WriteReg(R10, 0x00000000)  returns 0x00 (0000ms, 0753ms total)
T0F14 000:998 JLINK_WriteReg(R11, 0x00000000)  returns 0x00 (0000ms, 0753ms total)
T0F14 000:998 JLINK_WriteReg(R12, 0x00000000)  returns 0x00 (0000ms, 0753ms total)
T0F14 000:998 JLINK_WriteReg(R13 (SP), 0x20000800)  returns 0x00 (0000ms, 0753ms total)
T0F14 000:998 JLINK_WriteReg(R14, 0x20000001)  returns 0x00 (0000ms, 0753ms total)
T0F14 000:998 JLINK_WriteReg(R15 (PC), 0x200000C2)  returns 0x00 (0000ms, 0753ms total)
T0F14 000:998 JLINK_WriteReg(XPSR, 0x01000000)  returns 0x00 (0000ms, 0753ms total)
T0F14 000:998 JLINK_WriteReg(MSP, 0x20000800)  returns 0x00 (0000ms, 0753ms total)
T0F14 000:998 JLINK_WriteReg(PSP, 0x20000800)  returns 0x00 (0000ms, 0753ms total)
T0F14 000:998 JLINK_WriteReg(CFBP, 0x00000000)  returns 0x00 (0000ms, 0753ms total)
T0F14 000:998 JLINK_SetBPEx(Addr = 0x20000000, Type = 0xFFFFFFF2)  returns 0x0000000B (0000ms, 0753ms total)
T0F14 000:998 JLINK_Go() -- CPU_ReadMem(4 bytes @ 0xE0001000) -- CPU_WriteMem(4 bytes @ 0xE0001000) (0003ms, 0756ms total)
T0F14 001:001 JLINK_IsHalted()  returns FALSE (0001ms, 0757ms total)
T0F14 001:004 JLINK_IsHalted() -- CPU_ReadMem(2 bytes @ 0x20000000)  returns TRUE (0003ms, 0759ms total)
T0F14 001:007 JLINK_ReadReg(R15 (PC))  returns 0x20000000 (0000ms, 0756ms total)
T0F14 001:007 JLINK_ClrBPEx(BPHandle = 0x0000000B)  returns 0x00 (0000ms, 0756ms total)
T0F14 001:007 JLINK_ReadReg(R0)  returns 0x00000000 (0000ms, 0756ms total)
T0F14 001:008 JLINK_WriteMem(0x20000110, 0x0200 Bytes, ...) - Data: AA 20 02 49 88 60 55 20 88 60 70 47 00 E0 00 40 ... -- CPU_WriteMem(512 bytes @ 0x20000110)  returns 0x200 (0003ms, 0759ms total)
T0F14 001:011 JLINK_WriteReg(R0, 0x00000400)  returns 0x00 (0000ms, 0759ms total)
T0F14 001:011 JLINK_WriteReg(R1, 0x000000F4)  returns 0x00 (0000ms, 0759ms total)
T0F14 001:011 JLINK_WriteReg(R2, 0x20000110)  returns 0x00 (0000ms, 0759ms total)
T0F14 001:011 JLINK_WriteReg(R3, 0x00000000)  returns 0x00 (0000ms, 0759ms total)
T0F14 001:011 JLINK_WriteReg(R4, 0x00000000)  returns 0x00 (0000ms, 0759ms total)
T0F14 001:011 JLINK_WriteReg(R5, 0x00000000)  returns 0x00 (0000ms, 0759ms total)
T0F14 001:011 JLINK_WriteReg(R6, 0x00000000)  returns 0x00 (0000ms, 0759ms total)
T0F14 001:011 JLINK_WriteReg(R7, 0x00000000)  returns 0x00 (0000ms, 0759ms total)
T0F14 001:011 JLINK_WriteReg(R8, 0x00000000)  returns 0x00 (0000ms, 0759ms total)
T0F14 001:011 JLINK_WriteReg(R9, 0x2000010C)  returns 0x00 (0000ms, 0759ms total)
T0F14 001:011 JLINK_WriteReg(R10, 0x00000000)  returns 0x00 (0000ms, 0759ms total)
T0F14 001:011 JLINK_WriteReg(R11, 0x00000000)  returns 0x00 (0000ms, 0759ms total)
T0F14 001:011 JLINK_WriteReg(R12, 0x00000000)  returns 0x00 (0000ms, 0759ms total)
T0F14 001:011 JLINK_WriteReg(R13 (SP), 0x20000800)  returns 0x00 (0000ms, 0759ms total)
T0F14 001:011 JLINK_WriteReg(R14, 0x20000001)  returns 0x00 (0000ms, 0759ms total)
T0F14 001:011 JLINK_WriteReg(R15 (PC), 0x200000C2)  returns 0x00 (0001ms, 0760ms total)
T0F14 001:012 JLINK_WriteReg(XPSR, 0x01000000)  returns 0x00 (0000ms, 0760ms total)
T0F14 001:012 JLINK_WriteReg(MSP, 0x20000800)  returns 0x00 (0000ms, 0760ms total)
T0F14 001:012 JLINK_WriteReg(PSP, 0x20000800)  returns 0x00 (0000ms, 0760ms total)
T0F14 001:012 JLINK_WriteReg(CFBP, 0x00000000)  returns 0x00 (0000ms, 0760ms total)
T0F14 001:012 JLINK_SetBPEx(Addr = 0x20000000, Type = 0xFFFFFFF2)  returns 0x0000000C (0000ms, 0760ms total)
T0F14 001:012 JLINK_Go() -- CPU_ReadMem(4 bytes @ 0xE0001000) -- CPU_WriteMem(4 bytes @ 0xE0001000) (0002ms, 0762ms total)
T0F14 001:014 JLINK_IsHalted()  returns FALSE (0001ms, 0763ms total)
T0F14 001:018 JLINK_IsHalted() -- CPU_ReadMem(2 bytes @ 0x20000000)  returns TRUE (0002ms, 0764ms total)
T0F14 001:020 JLINK_ReadReg(R15 (PC))  returns 0x20000000 (0000ms, 0762ms total)
T0F14 001:020 JLINK_ClrBPEx(BPHandle = 0x0000000C)  returns 0x00 (0000ms, 0762ms total)
T0F14 001:020 JLINK_ReadReg(R0)  returns 0x00000000 (0000ms, 0762ms total)
T0F14 001:020 JLINK_WriteReg(R0, 0x00000002)  returns 0x00 (0000ms, 0762ms total)
T0F14 001:020 JLINK_WriteReg(R1, 0x000000F4)  returns 0x00 (0000ms, 0762ms total)
T0F14 001:020 JLINK_WriteReg(R2, 0x20000110)  returns 0x00 (0000ms, 0762ms total)
T0F14 001:020 JLINK_WriteReg(R3, 0x00000000)  returns 0x00 (0001ms, 0763ms total)
T0F14 001:021 JLINK_WriteReg(R4, 0x00000000)  returns 0x00 (0000ms, 0763ms total)
T0F14 001:021 JLINK_WriteReg(R5, 0x00000000)  returns 0x00 (0000ms, 0763ms total)
T0F14 001:021 JLINK_WriteReg(R6, 0x00000000)  returns 0x00 (0000ms, 0763ms total)
T0F14 001:021 JLINK_WriteReg(R7, 0x00000000)  returns 0x00 (0000ms, 0763ms total)
T0F14 001:021 JLINK_WriteReg(R8, 0x00000000)  returns 0x00 (0000ms, 0763ms total)
T0F14 001:021 JLINK_WriteReg(R9, 0x2000010C)  returns 0x00 (0000ms, 0763ms total)
T0F14 001:021 JLINK_WriteReg(R10, 0x00000000)  returns 0x00 (0000ms, 0763ms total)
T0F14 001:021 JLINK_WriteReg(R11, 0x00000000)  returns 0x00 (0000ms, 0763ms total)
T0F14 001:021 JLINK_WriteReg(R12, 0x00000000)  returns 0x00 (0000ms, 0763ms total)
T0F14 001:021 JLINK_WriteReg(R13 (SP), 0x20000800)  returns 0x00 (0000ms, 0763ms total)
T0F14 001:021 JLINK_WriteReg(R14, 0x20000001)  returns 0x00 (0000ms, 0763ms total)
T0F14 001:021 JLINK_WriteReg(R15 (PC), 0x2000005A)  returns 0x00 (0000ms, 0763ms total)
T0F14 001:021 JLINK_WriteReg(XPSR, 0x01000000)  returns 0x00 (0000ms, 0763ms total)
T0F14 001:021 JLINK_WriteReg(MSP, 0x20000800)  returns 0x00 (0000ms, 0763ms total)
T0F14 001:021 JLINK_WriteReg(PSP, 0x20000800)  returns 0x00 (0000ms, 0763ms total)
T0F14 001:021 JLINK_WriteReg(CFBP, 0x00000000)  returns 0x00 (0000ms, 0763ms total)
T0F14 001:021 JLINK_SetBPEx(Addr = 0x20000000, Type = 0xFFFFFFF2)  returns 0x0000000D (0000ms, 0763ms total)
T0F14 001:021 JLINK_Go() -- CPU_ReadMem(4 bytes @ 0xE0001000) -- CPU_WriteMem(4 bytes @ 0xE0001000) (0004ms, 0767ms total)
T0F14 001:025 JLINK_IsHalted() -- CPU_ReadMem(2 bytes @ 0x20000000)  returns TRUE (0003ms, 0770ms total)
T0F14 001:028 JLINK_ReadReg(R15 (PC))  returns 0x20000000 (0000ms, 0767ms total)
T0F14 001:028 JLINK_ClrBPEx(BPHandle = 0x0000000D)  returns 0x00 (0000ms, 0767ms total)
T0F14 001:028 JLINK_ReadReg(R0)  returns 0x00000000 (0000ms, 0767ms total)
T0F14 001:086 JLINK_WriteMem(0x20000000, 0x0110 Bytes, ...) - Data: 00 BE 0A E0 0D 78 2D 06 68 40 08 24 40 00 00 D3 ... -- CPU_WriteMem(272 bytes @ 0x20000000)  returns 0x110 (0002ms, 0769ms total)
T0F14 001:088 JLINK_WriteReg(R0, 0x00000000)  returns 0x00 (0000ms, 0769ms total)
T0F14 001:088 JLINK_WriteReg(R1, 0x00B71B00)  returns 0x00 (0000ms, 0769ms total)
T0F14 001:088 JLINK_WriteReg(R2, 0x00000003)  returns 0x00 (0000ms, 0769ms total)
T0F14 001:088 JLINK_WriteReg(R3, 0x00000000)  returns 0x00 (0000ms, 0769ms total)
T0F14 001:088 JLINK_WriteReg(R4, 0x00000000)  returns 0x00 (0000ms, 0769ms total)
T0F14 001:088 JLINK_WriteReg(R5, 0x00000000)  returns 0x00 (0000ms, 0769ms total)
T0F14 001:088 JLINK_WriteReg(R6, 0x00000000)  returns 0x00 (0000ms, 0769ms total)
T0F14 001:088 JLINK_WriteReg(R7, 0x00000000)  returns 0x00 (0000ms, 0769ms total)
T0F14 001:088 JLINK_WriteReg(R8, 0x00000000)  returns 0x00 (0000ms, 0769ms total)
T0F14 001:088 JLINK_WriteReg(R9, 0x2000010C)  returns 0x00 (0000ms, 0769ms total)
T0F14 001:088 JLINK_WriteReg(R10, 0x00000000)  returns 0x00 (0000ms, 0769ms total)
T0F14 001:088 JLINK_WriteReg(R11, 0x00000000)  returns 0x00 (0000ms, 0769ms total)
T0F14 001:088 JLINK_WriteReg(R12, 0x00000000)  returns 0x00 (0000ms, 0769ms total)
T0F14 001:088 JLINK_WriteReg(R13 (SP), 0x20000800)  returns 0x00 (0000ms, 0769ms total)
T0F14 001:088 JLINK_WriteReg(R14, 0x20000001)  returns 0x00 (0000ms, 0769ms total)
T0F14 001:088 JLINK_WriteReg(R15 (PC), 0x20000038)  returns 0x00 (0000ms, 0769ms total)
T0F14 001:088 JLINK_WriteReg(XPSR, 0x01000000)  returns 0x00 (0000ms, 0769ms total)
T0F14 001:088 JLINK_WriteReg(MSP, 0x20000800)  returns 0x00 (0000ms, 0769ms total)
T0F14 001:088 JLINK_WriteReg(PSP, 0x20000800)  returns 0x00 (0000ms, 0769ms total)
T0F14 001:088 JLINK_WriteReg(CFBP, 0x00000000)  returns 0x00 (0000ms, 0769ms total)
T0F14 001:088 JLINK_SetBPEx(Addr = 0x20000000, Type = 0xFFFFFFF2) -- CPU_ReadMem(4 bytes @ 0x20000000) -- CPU_WriteMem(4 bytes @ 0x20000000) -- CPU_ReadMem(4 bytes @ 0x20000000) -- CPU_WriteMem(4 bytes @ 0x20000000) -- CPU_ReadMem(2 bytes @ 0x20000000)  returns 0x0000000E (0003ms, 0772ms total)
T0F14 001:091 JLINK_Go() -- CPU_WriteMem(2 bytes @ 0x20000000) -- CPU_ReadMem(4 bytes @ 0xE0001000) -- CPU_WriteMem(4 bytes @ 0xE0001000) (0002ms, 0774ms total)
T0F14 001:093 JLINK_IsHalted() -- CPU_ReadMem(2 bytes @ 0x20000000)  returns TRUE (0002ms, 0776ms total)
T0F14 001:095 JLINK_ReadReg(R15 (PC))  returns 0x20000000 (0000ms, 0774ms total)
T0F14 001:095 JLINK_ClrBPEx(BPHandle = 0x0000000E)  returns 0x00 (0000ms, 0774ms total)
T0F14 001:095 JLINK_ReadReg(R0)  returns 0x00000000 (0000ms, 0774ms total)
T0F14 001:095 JLINK_WriteMem(0x20000110, 0x0200 Bytes, ...) - Data: 88 01 00 20 81 00 00 00 7D 02 00 00 79 02 00 00 ... -- CPU_WriteMem(512 bytes @ 0x20000110)  returns 0x200 (0003ms, 0777ms total)
T0F14 001:098 JLINK_WriteReg(R0, 0x00000000)  returns 0x00 (0001ms, 0778ms total)
T0F14 001:099 JLINK_WriteReg(R1, 0x00000200)  returns 0x00 (0000ms, 0778ms total)
T0F14 001:099 JLINK_WriteReg(R2, 0x20000110)  returns 0x00 (0000ms, 0778ms total)
T0F14 001:099 JLINK_WriteReg(R3, 0x00000000)  returns 0x00 (0000ms, 0778ms total)
T0F14 001:099 JLINK_WriteReg(R4, 0x00000000)  returns 0x00 (0000ms, 0778ms total)
T0F14 001:099 JLINK_WriteReg(R5, 0x00000000)  returns 0x00 (0000ms, 0778ms total)
T0F14 001:099 JLINK_WriteReg(R6, 0x00000000)  returns 0x00 (0000ms, 0778ms total)
T0F14 001:099 JLINK_WriteReg(R7, 0x00000000)  returns 0x00 (0000ms, 0778ms total)
T0F14 001:099 JLINK_WriteReg(R8, 0x00000000)  returns 0x00 (0000ms, 0778ms total)
T0F14 001:099 JLINK_WriteReg(R9, 0x2000010C)  returns 0x00 (0000ms, 0778ms total)
T0F14 001:099 JLINK_WriteReg(R10, 0x00000000)  returns 0x00 (0000ms, 0778ms total)
T0F14 001:099 JLINK_WriteReg(R11, 0x00000000)  returns 0x00 (0000ms, 0778ms total)
T0F14 001:099 JLINK_WriteReg(R12, 0x00000000)  returns 0x00 (0000ms, 0778ms total)
T0F14 001:099 JLINK_WriteReg(R13 (SP), 0x20000800)  returns 0x00 (0000ms, 0778ms total)
T0F14 001:099 JLINK_WriteReg(R14, 0x20000001)  returns 0x00 (0000ms, 0778ms total)
T0F14 001:099 JLINK_WriteReg(R15 (PC), 0x200000D8)  returns 0x00 (0000ms, 0778ms total)
T0F14 001:099 JLINK_WriteReg(XPSR, 0x01000000)  returns 0x00 (0000ms, 0778ms total)
T0F14 001:099 JLINK_WriteReg(MSP, 0x20000800)  returns 0x00 (0000ms, 0778ms total)
T0F14 001:099 JLINK_WriteReg(PSP, 0x20000800)  returns 0x00 (0000ms, 0778ms total)
T0F14 001:099 JLINK_WriteReg(CFBP, 0x00000000)  returns 0x00 (0000ms, 0778ms total)
T0F14 001:099 JLINK_SetBPEx(Addr = 0x20000000, Type = 0xFFFFFFF2)  returns 0x0000000F (0000ms, 0778ms total)
T0F14 001:099 JLINK_Go() -- CPU_ReadMem(4 bytes @ 0xE0001000) -- CPU_WriteMem(4 bytes @ 0xE0001000) (0002ms, 0780ms total)
T0F14 001:101 JLINK_IsHalted() -- CPU_ReadMem(2 bytes @ 0x20000000)  returns TRUE (0002ms, 0782ms total)
T0F14 001:103 JLINK_ReadReg(R15 (PC))  returns 0x20000000 (0000ms, 0780ms total)
T0F14 001:103 JLINK_ClrBPEx(BPHandle = 0x0000000F)  returns 0x00 (0000ms, 0780ms total)
T0F14 001:103 JLINK_ReadReg(R0)  returns 0x00000200 (0000ms, 0780ms total)
T0F14 001:104 JLINK_WriteMem(0x20000110, 0x0200 Bytes, ...) - Data: 70 47 00 00 40 80 02 40 01 29 02 D1 03 4A 50 60 ... -- CPU_WriteMem(512 bytes @ 0x20000110)  returns 0x200 (0003ms, 0784ms total)
T0F14 001:107 JLINK_WriteReg(R0, 0x00000200)  returns 0x00 (0000ms, 0784ms total)
T0F14 001:107 JLINK_WriteReg(R1, 0x00000200)  returns 0x00 (0000ms, 0784ms total)
T0F14 001:107 JLINK_WriteReg(R2, 0x20000110)  returns 0x00 (0000ms, 0784ms total)
T0F14 001:107 JLINK_WriteReg(R3, 0x00000000)  returns 0x00 (0000ms, 0784ms total)
T0F14 001:107 JLINK_WriteReg(R4, 0x00000000)  returns 0x00 (0000ms, 0784ms total)
T0F14 001:107 JLINK_WriteReg(R5, 0x00000000)  returns 0x00 (0000ms, 0784ms total)
T0F14 001:107 JLINK_WriteReg(R6, 0x00000000)  returns 0x00 (0000ms, 0784ms total)
T0F14 001:107 JLINK_WriteReg(R7, 0x00000000)  returns 0x00 (0000ms, 0784ms total)
T0F14 001:107 JLINK_WriteReg(R8, 0x00000000)  returns 0x00 (0000ms, 0784ms total)
T0F14 001:107 JLINK_WriteReg(R9, 0x2000010C)  returns 0x00 (0000ms, 0784ms total)
T0F14 001:107 JLINK_WriteReg(R10, 0x00000000)  returns 0x00 (0000ms, 0784ms total)
T0F14 001:107 JLINK_WriteReg(R11, 0x00000000)  returns 0x00 (0000ms, 0784ms total)
T0F14 001:107 JLINK_WriteReg(R12, 0x00000000)  returns 0x00 (0000ms, 0784ms total)
T0F14 001:107 JLINK_WriteReg(R13 (SP), 0x20000800)  returns 0x00 (0000ms, 0784ms total)
T0F14 001:107 JLINK_WriteReg(R14, 0x20000001)  returns 0x00 (0000ms, 0784ms total)
T0F14 001:107 JLINK_WriteReg(R15 (PC), 0x200000D8)  returns 0x00 (0000ms, 0784ms total)
T0F14 001:107 JLINK_WriteReg(XPSR, 0x01000000)  returns 0x00 (0000ms, 0784ms total)
T0F14 001:107 JLINK_WriteReg(MSP, 0x20000800)  returns 0x00 (0000ms, 0784ms total)
T0F14 001:107 JLINK_WriteReg(PSP, 0x20000800)  returns 0x00 (0000ms, 0784ms total)
T0F14 001:107 JLINK_WriteReg(CFBP, 0x00000000)  returns 0x00 (0000ms, 0784ms total)
T0F14 001:107 JLINK_SetBPEx(Addr = 0x20000000, Type = 0xFFFFFFF2)  returns 0x00000010 (0000ms, 0784ms total)
T0F14 001:107 JLINK_Go() -- CPU_ReadMem(4 bytes @ 0xE0001000) -- CPU_WriteMem(4 bytes @ 0xE0001000) (0002ms, 0786ms total)
T0F14 001:109 JLINK_IsHalted() -- CPU_ReadMem(2 bytes @ 0x20000000)  returns TRUE (0003ms, 0789ms total)
T0F14 001:112 JLINK_ReadReg(R15 (PC))  returns 0x20000000 (0000ms, 0786ms total)
T0F14 001:112 JLINK_ClrBPEx(BPHandle = 0x00000010)  returns 0x00 (0000ms, 0786ms total)
T0F14 001:112 JLINK_ReadReg(R0)  returns 0x00000400 (0000ms, 0786ms total)
T0F14 001:113 JLINK_WriteMem(0x20000110, 0x0200 Bytes, ...) - Data: AA 20 02 49 88 60 55 20 88 60 70 47 00 E0 00 40 ... -- CPU_WriteMem(512 bytes @ 0x20000110)  returns 0x200 (0003ms, 0789ms total)
T0F14 001:116 JLINK_WriteReg(R0, 0x00000400)  returns 0x00 (0000ms, 0789ms total)
T0F14 001:116 JLINK_WriteReg(R1, 0x000000F4)  returns 0x00 (0000ms, 0789ms total)
T0F14 001:116 JLINK_WriteReg(R2, 0x20000110)  returns 0x00 (0000ms, 0789ms total)
T0F14 001:116 JLINK_WriteReg(R3, 0x00000000)  returns 0x00 (0000ms, 0789ms total)
T0F14 001:116 JLINK_WriteReg(R4, 0x00000000)  returns 0x00 (0000ms, 0789ms total)
T0F14 001:116 JLINK_WriteReg(R5, 0x00000000)  returns 0x00 (0000ms, 0789ms total)
T0F14 001:116 JLINK_WriteReg(R6, 0x00000000)  returns 0x00 (0000ms, 0789ms total)
T0F14 001:116 JLINK_WriteReg(R7, 0x00000000)  returns 0x00 (0000ms, 0789ms total)
T0F14 001:116 JLINK_WriteReg(R8, 0x00000000)  returns 0x00 (0000ms, 0789ms total)
T0F14 001:116 JLINK_WriteReg(R9, 0x2000010C)  returns 0x00 (0000ms, 0789ms total)
T0F14 001:116 JLINK_WriteReg(R10, 0x00000000)  returns 0x00 (0000ms, 0789ms total)
T0F14 001:116 JLINK_WriteReg(R11, 0x00000000)  returns 0x00 (0000ms, 0789ms total)
T0F14 001:116 JLINK_WriteReg(R12, 0x00000000)  returns 0x00 (0000ms, 0789ms total)
T0F14 001:116 JLINK_WriteReg(R13 (SP), 0x20000800)  returns 0x00 (0000ms, 0789ms total)
T0F14 001:116 JLINK_WriteReg(R14, 0x20000001)  returns 0x00 (0000ms, 0789ms total)
T0F14 001:116 JLINK_WriteReg(R15 (PC), 0x200000D8)  returns 0x00 (0000ms, 0789ms total)
T0F14 001:116 JLINK_WriteReg(XPSR, 0x01000000)  returns 0x00 (0000ms, 0789ms total)
T0F14 001:116 JLINK_WriteReg(MSP, 0x20000800)  returns 0x00 (0000ms, 0789ms total)
T0F14 001:116 JLINK_WriteReg(PSP, 0x20000800)  returns 0x00 (0000ms, 0789ms total)
T0F14 001:116 JLINK_WriteReg(CFBP, 0x00000000)  returns 0x00 (0000ms, 0789ms total)
T0F14 001:116 JLINK_SetBPEx(Addr = 0x20000000, Type = 0xFFFFFFF2)  returns 0x00000011 (0000ms, 0789ms total)
T0F14 001:116 JLINK_Go() -- CPU_ReadMem(4 bytes @ 0xE0001000) -- CPU_WriteMem(4 bytes @ 0xE0001000) (0003ms, 0792ms total)
T0F14 001:119 JLINK_IsHalted() -- CPU_ReadMem(2 bytes @ 0x20000000)  returns TRUE (0003ms, 0795ms total)
T0F14 001:122 JLINK_ReadReg(R15 (PC))  returns 0x20000000 (0000ms, 0792ms total)
T0F14 001:122 JLINK_ClrBPEx(BPHandle = 0x00000011)  returns 0x00 (0000ms, 0792ms total)
T0F14 001:122 JLINK_ReadReg(R0)  returns 0x000004F4 (0000ms, 0792ms total)
T0F14 001:123 JLINK_WriteReg(R0, 0x00000003)  returns 0x00 (0000ms, 0792ms total)
T0F14 001:123 JLINK_WriteReg(R1, 0x000000F4)  returns 0x00 (0000ms, 0792ms total)
T0F14 001:123 JLINK_WriteReg(R2, 0x20000110)  returns 0x00 (0000ms, 0792ms total)
T0F14 001:123 JLINK_WriteReg(R3, 0x00000000)  returns 0x00 (0000ms, 0792ms total)
T0F14 001:123 JLINK_WriteReg(R4, 0x00000000)  returns 0x00 (0000ms, 0792ms total)
T0F14 001:123 JLINK_WriteReg(R5, 0x00000000)  returns 0x00 (0000ms, 0792ms total)
T0F14 001:123 JLINK_WriteReg(R6, 0x00000000)  returns 0x00 (0000ms, 0792ms total)
T0F14 001:123 JLINK_WriteReg(R7, 0x00000000)  returns 0x00 (0000ms, 0792ms total)
T0F14 001:123 JLINK_WriteReg(R8, 0x00000000)  returns 0x00 (0000ms, 0792ms total)
T0F14 001:123 JLINK_WriteReg(R9, 0x2000010C)  returns 0x00 (0000ms, 0792ms total)
T0F14 001:123 JLINK_WriteReg(R10, 0x00000000)  returns 0x00 (0000ms, 0792ms total)
T0F14 001:123 JLINK_WriteReg(R11, 0x00000000)  returns 0x00 (0000ms, 0792ms total)
T0F14 001:123 JLINK_WriteReg(R12, 0x00000000)  returns 0x00 (0000ms, 0792ms total)
T0F14 001:123 JLINK_WriteReg(R13 (SP), 0x20000800)  returns 0x00 (0000ms, 0792ms total)
T0F14 001:123 JLINK_WriteReg(R14, 0x20000001)  returns 0x00 (0000ms, 0792ms total)
T0F14 001:123 JLINK_WriteReg(R15 (PC), 0x2000005A)  returns 0x00 (0000ms, 0792ms total)
T0F14 001:123 JLINK_WriteReg(XPSR, 0x01000000)  returns 0x00 (0000ms, 0792ms total)
T0F14 001:123 JLINK_WriteReg(MSP, 0x20000800)  returns 0x00 (0000ms, 0792ms total)
T0F14 001:123 JLINK_WriteReg(PSP, 0x20000800)  returns 0x00 (0000ms, 0792ms total)
T0F14 001:123 JLINK_WriteReg(CFBP, 0x00000000)  returns 0x00 (0000ms, 0792ms total)
T0F14 001:123 JLINK_SetBPEx(Addr = 0x20000000, Type = 0xFFFFFFF2)  returns 0x00000012 (0000ms, 0792ms total)
T0F14 001:123 JLINK_Go() -- CPU_ReadMem(4 bytes @ 0xE0001000) -- CPU_WriteMem(4 bytes @ 0xE0001000) (0002ms, 0794ms total)
T0F14 001:125 JLINK_IsHalted() -- CPU_ReadMem(2 bytes @ 0x20000000)  returns TRUE (0003ms, 0797ms total)
T0F14 001:128 JLINK_ReadReg(R15 (PC))  returns 0x20000000 (0000ms, 0794ms total)
T0F14 001:128 JLINK_ClrBPEx(BPHandle = 0x00000012)  returns 0x00 (0000ms, 0794ms total)
T0F14 001:128 JLINK_ReadReg(R0)  returns 0x00000000 (0000ms, 0794ms total)
T0F14 001:185 JLINK_WriteMem(0x20000000, 0x0002 Bytes, ...) - Data: FE E7 -- CPU_WriteMem(2 bytes @ 0x20000000)  returns 0x02 (0001ms, 0795ms total)
T0F14 001:186 JLINK_SetResetType(JLINKARM_RESET_TYPE_NORMAL)  returns JLINKARM_RESET_TYPE_NORMAL (0000ms, 0795ms total)
T0F14 001:186 JLINK_Reset() -- CPU_ReadMem(4 bytes @ 0x20000110) -- CPU_WriteMem(4 bytes @ 0x20000110) -- CPU_WriteMem(4 bytes @ 0xE000EDF0) -- CPU_WriteMem(4 bytes @ 0xE000EDFC) >0x35 TIF> -- CPU_WriteMem(4 bytes @ 0xE000ED0C) -- CPU_ReadMem(4 bytes @ 0xE000EDF0) -- CPU_ReadMem(4 bytes @ 0xE000EDF0) -- CPU_WriteMem(4 bytes @ 0xE000EDF0) -- CPU_WriteMem(4 bytes @ 0xE000EDFC) -- CPU is running -- CPU_ReadMem(4 bytes @ 0xE000EDF0) -- CPU_WriteMem(4 bytes @ 0xE0002000) -- CPU_ReadMem(4 bytes @ 0xE000EDFC)
 -- CPU_ReadMem(4 bytes @ 0xE0001000) -- CPU_WriteMem(4 bytes @ 0xE0001000) (0017ms, 0812ms total)
T0F14 001:203 JLINK_Go() -- CPU_ReadMem(4 bytes @ 0xE0001000) -- CPU_WriteMem(4 bytes @ 0xE0001000) -- CPU_WriteMem(4 bytes @ 0xE0002008) -- CPU_WriteMem(4 bytes @ 0xE000200C) -- CPU_WriteMem(4 bytes @ 0xE0002010) -- CPU_WriteMem(4 bytes @ 0xE0002014) -- CPU_WriteMem(4 bytes @ 0xE0001004) (0002ms, 0814ms total)
T0F14 001:218 JLINK_Close() -- CPU is running -- CPU_WriteMem(4 bytes @ 0xE0002008) -- CPU is running -- CPU_WriteMem(4 bytes @ 0xE000200C) -- CPU is running -- CPU_WriteMem(4 bytes @ 0xE0002010) -- CPU is running -- CPU_WriteMem(4 bytes @ 0xE0002014) >0x42 TIF> >0x28 TIF> >0x0D TIF> >0x21 TIF> (0002ms, 0816ms total)
T0F14 001:218  (0003ms, 0817ms total)
T0F14 001:218 Closed (0003ms, 0817ms total)
