
T120C 000:279 SEGGER J-Link V5.12e Log File (0000ms, 0265ms total)
T120C 000:279 DLL Compiled: Apr 29 2016 15:03:58 (0000ms, 0265ms total)
T120C 000:279 Logging started @ 2023-10-09 11:15 (0000ms, 0265ms total)
T120C 000:279 JLINK_SetWarnOutHandler(...) (0000ms, 0265ms total)
T120C 000:279 JLINK_OpenEx(...)
Firmware: J-Link V9 compiled Jun  2 2222 22:22:22
Hardware: V9.40
S/N: 59401308
Feature(s): GDB, RDI, FlashBP, FlashDL, JFlash, RDDI  returns O.K. (0270ms, 0535ms total)
T120C 000:549 JLINK_SetErrorOutHandler(...) (0000ms, 0535ms total)
T120C 000:549 JLINK_ExecCommand("ProjectFile = "E:\0ProgramFile_Item\CompanyProducts\DG32F003xx_SDK\SDK\Exmaple\NVR_SNRead\USER\MDK-ARM\JLinkSettings.ini"", ...)  returns 0x00 (0000ms, 0535ms total)
T120C 000:549 JLINK_ExecCommand("Device = Cortex-M0+", ...)Device "CORTEX-M0+" selected.  returns 0x00 (0000ms, 0535ms total)
T120C 000:549 JLINK_ExecCommand("DisableConnectionTimeout", ...)  returns 0x01 (0000ms, 0535ms total)
T120C 000:549 JLINK_GetHardwareVersion()  returns 0x16F30 (0000ms, 0535ms total)
T120C 000:549 JLINK_GetDLLVersion()  returns 51205 (0000ms, 0535ms total)
T120C 000:549 JLINK_GetFirmwareString(...) (0000ms, 0535ms total)
T120C 000:549 JLINK_GetDLLVersion()  returns 51205 (0000ms, 0535ms total)
T120C 000:549 JLINK_GetCompileDateTime() (0000ms, 0535ms total)
T120C 000:549 JLINK_GetFirmwareString(...) (0000ms, 0535ms total)
T120C 000:549 JLINK_GetHardwareVersion()  returns 0x16F30 (0000ms, 0535ms total)
T120C 000:549 JLINK_TIF_Select(JLINKARM_TIF_SWD)  returns 0x00 (0001ms, 0536ms total)
T120C 000:550 JLINK_SetSpeed(5000) (0000ms, 0536ms total)
T120C 000:550 JLINK_GetId() >0x108 TIF>Found SWD-DP with ID 0x0BC11477 >0x0D TIF> >0x28 TIF> >0x0D TIF> >0x28 TIF> >0x0D TIF> >0x28 TIF> >0x0D TIF> >0x28 TIF> >0x0D TIF> >0x21 TIF> >0x0D TIF> >0x28 TIF> >0x0D TIF> >0x28 TIF> >0x0D TIF> >0x21 TIF> >0x0D TIF> >0x21 TIF> >0x0D TIF> >0x21 TIF> >0x0D TIF> >0x28 TIF> >0x0D TIF> >0x28 TIF> >0x0D TIF> >0x28 TIF> >0x0D TIF> >0x21 TIF> >0x0D TIF> >0x21 TIF> >0x0D TIF> >0x28 TIF> >0x0D TIF> >0x21 TIF> >0x0D TIF> >0x21 TIF>Found Cortex-M0 r0p1, Little endian.
 -- CPU_ReadMem(4 bytes @ 0xE000EDF0) -- CPU_WriteMem(4 bytes @ 0xE000EDF0) -- CPU_ReadMem(4 bytes @ 0xE0002000)FPUnit: 4 code (BP) slots and 0 literal slots -- CPU_ReadMem(4 bytes @ 0xE000EDFC) -- CPU_WriteMem(4 bytes @ 0xE000EDFC) -- CPU_ReadMem(4 bytes @ 0xE0001000) -- CPU_WriteMem(4 bytes @ 0xE0001000)CoreSight components:ROMTbl 0 @ E00FF000 -- CPU_ReadMem(16 bytes @ 0xE00FF000) -- CPU_ReadMem(16 bytes @ 0xE000EFF0) -- CPU_ReadMem(16 bytes @ 0xE000EFE0)
ROMTbl 0 [0]: FFF0F000, CID: B105E00D, PID: 000BB008 SCS -- CPU_ReadMem(16 bytes @ 0xE0001FF0) -- CPU_ReadMem(16 bytes @ 0xE0001FE0)ROMTbl 0 [1]: FFF02000, CID: B105E00D, PID: 000BB00A DWT -- CPU_ReadMem(16 bytes @ 0xE0002FF0) -- CPU_ReadMem(16 bytes @ 0xE0002FE0)ROMTbl 0 [2]: FFF03000, CID: B105E00D, PID: 000BB00B FPB >0x0D TIF> >0x21 TIF>  returns 0x0BC11477 (0009ms, 0545ms total)
T120C 000:559 JLINK_GetDLLVersion()  returns 51205 (0000ms, 0545ms total)
T120C 000:559 JLINK_CORE_GetFound()  returns 0x60000FF (0000ms, 0545ms total)
T120C 000:559 JLINK_GetDebugInfo(0x100) -- Value=0xE00FF000  returns 0x00 (0000ms, 0545ms total)
T120C 000:559 JLINK_GetDebugInfo(0x100) -- Value=0xE00FF000  returns 0x00 (0000ms, 0545ms total)
T120C 000:559 JLINK_GetDebugInfo(0x101) -- Value=0x00000000  returns 0x00 (0000ms, 0545ms total)
T120C 000:559 JLINK_ReadMem (0xE0041FF0, 0x0010 Bytes, ...) -- CPU is running -- CPU_ReadMem(16 bytes @ 0xE0041FF0) - Data: 00 00 00 00 00 00 00 00 00 00 00 00 00 00 00 00  returns 0x00 (0000ms, 0545ms total)
T120C 000:559 JLINK_GetDebugInfo(0x102) -- Value=0x00000000  returns 0x00 (0000ms, 0545ms total)
T120C 000:559 JLINK_GetDebugInfo(0x103) -- Value=0x00000000  returns 0x00 (0000ms, 0545ms total)
T120C 000:559 JLINK_ReadMem (0xE0040FF0, 0x0010 Bytes, ...) -- CPU is running -- CPU_ReadMem(16 bytes @ 0xE0040FF0) - Data: 00 00 00 00 00 00 00 00 00 00 00 00 00 00 00 00  returns 0x00 (0001ms, 0546ms total)
T120C 000:560 JLINK_GetDebugInfo(0x104) -- Value=0xE0000000  returns 0x00 (0000ms, 0546ms total)
T120C 000:560 JLINK_GetDebugInfo(0x105) -- Value=0xE0001000  returns 0x00 (0000ms, 0546ms total)
T120C 000:560 JLINK_GetDebugInfo(0x106) -- Value=0xE0002000  returns 0x00 (0000ms, 0546ms total)
T120C 000:560 JLINK_GetDebugInfo(0x107) -- Value=0xE000E000  returns 0x00 (0000ms, 0546ms total)
T120C 000:560 JLINK_GetDebugInfo(0x10C) -- Value=0xE000EDF0  returns 0x00 (0000ms, 0546ms total)
T120C 000:560 JLINK_ReadMemU32(0xE000ED00, 0x0001 Items, ...) -- CPU is running -- CPU_ReadMem(4 bytes @ 0xE000ED00) - Data: 01 C6 0C 41  returns 0x01 (0000ms, 0546ms total)
T120C 000:560 JLINK_SetResetType(JLINKARM_RESET_TYPE_NORMAL)  returns JLINKARM_RESET_TYPE_NORMAL (0000ms, 0546ms total)
T120C 000:560 JLINK_Reset() -- CPU is running -- CPU_WriteMem(4 bytes @ 0xE000EDF0) -- CPU is running -- CPU_WriteMem(4 bytes @ 0xE000EDFC) >0x35 TIF> -- CPU is running -- CPU_WriteMem(4 bytes @ 0xE000ED0C) -- CPU is running -- CPU_ReadMem(4 bytes @ 0xE000EDF0) -- CPU is running -- CPU_ReadMem(4 bytes @ 0xE000EDF0) -- CPU is running -- CPU_WriteMem(4 bytes @ 0xE000EDF0) -- CPU is running -- CPU_WriteMem(4 bytes @ 0xE000EDFC) -- CPU is running -- CPU_ReadMem(4 bytes @ 0xE000EDF0)
 -- CPU_WriteMem(4 bytes @ 0xE0002000) -- CPU_ReadMem(4 bytes @ 0xE000EDFC) -- CPU_ReadMem(4 bytes @ 0xE0001000) -- CPU_WriteMem(4 bytes @ 0xE0001000) (0015ms, 0561ms total)
T120C 000:575 JLINK_ReadReg(R15 (PC))  returns 0x00000084 (0000ms, 0561ms total)
T120C 000:575 JLINK_ReadReg(XPSR)  returns 0xF1000000 (0000ms, 0561ms total)
T120C 000:575 JLINK_Halt()  returns 0x00 (0000ms, 0561ms total)
T120C 000:575 JLINK_IsHalted()  returns TRUE (0000ms, 0561ms total)
T120C 000:575 JLINK_ReadMemU32(0xE000EDF0, 0x0001 Items, ...) -- CPU_ReadMem(4 bytes @ 0xE000EDF0) - Data: 03 00 03 00  returns 0x01 (0001ms, 0562ms total)
T120C 000:576 JLINK_WriteU32(0xE000EDF0, 0xA05F0003) -- CPU_WriteMem(4 bytes @ 0xE000EDF0)  returns 0x00 (0000ms, 0562ms total)
T120C 000:576 JLINK_WriteU32(0xE000EDFC, 0x01000000) -- CPU_WriteMem(4 bytes @ 0xE000EDFC)  returns 0x00 (0001ms, 0563ms total)
T120C 000:577 JLINK_GetHWStatus(...)  returns 0x00 (0000ms, 0563ms total)
T120C 000:577 JLINK_GetNumBPUnits(Type = 0xFFFFFF00)  returns 0x04 (0000ms, 0563ms total)
T120C 000:577 JLINK_GetNumBPUnits(Type = 0xF0)  returns 0x2000 (0000ms, 0563ms total)
T120C 000:577 JLINK_GetNumWPUnits()  returns 0x02 (0000ms, 0563ms total)
T120C 000:577 JLINK_GetSpeed()  returns 0xFA0 (0000ms, 0563ms total)
T120C 000:577 JLINK_ReadMemU32(0xE000E004, 0x0001 Items, ...) -- CPU_ReadMem(4 bytes @ 0xE000E004) - Data: 00 00 00 00  returns 0x01 (0000ms, 0563ms total)
T120C 000:577 JLINK_ReadReg(R15 (PC))  returns 0x00000084 (0000ms, 0563ms total)
T120C 000:577 JLINK_ReadReg(XPSR)  returns 0xF1000000 (0000ms, 0563ms total)
T120C 001:370 JLINK_ReadMem (0x0000000A, 0x0002 Bytes, ...) -- CPU_ReadMem(2 bytes @ 0x0000000A) - Data: 00 00  returns 0x00 (0001ms, 0564ms total)
T120C 001:371 JLINK_ReadMem (0x0000000C, 0x003C Bytes, ...) -- CPU_ReadMem(60 bytes @ 0x0000000C) - Data: 8F 00 00 00 00 00 00 00 00 00 00 00 00 00 00 00 ...  returns 0x00 (0000ms, 0564ms total)
T120C 001:573 JLINK_WriteMem(0x40000050, 0x0004 Bytes, ...) - Data: 02 00 00 00 -- CPU_WriteMem(4 bytes @ 0x40000050)  returns 0x04 (0000ms, 0564ms total)
T120C 001:573 JLINK_WriteMem(0x40000020, 0x0004 Bytes, ...) - Data: 01 00 00 80 -- CPU_WriteMem(4 bytes @ 0x40000020)  returns 0x04 (0001ms, 0565ms total)
T120C 001:741 JLINK_WriteReg(R13 (SP), 0x20000190)  returns 0x00 (0000ms, 0565ms total)
T120C 001:741 JLINK_ReadReg(R0)  returns 0xFFFFFFFF (0001ms, 0566ms total)
T120C 001:742 JLINK_ReadReg(R1)  returns 0xFFFFFFFF (0000ms, 0566ms total)
T120C 001:742 JLINK_ReadReg(R2)  returns 0xFFFFFFFF (0000ms, 0566ms total)
T120C 001:742 JLINK_ReadReg(R3)  returns 0xFFFFFFFF (0000ms, 0566ms total)
T120C 001:742 JLINK_ReadReg(R4)  returns 0xFFFFFFFF (0000ms, 0566ms total)
T120C 001:742 JLINK_ReadReg(R5)  returns 0xFFFFFFFF (0000ms, 0566ms total)
T120C 001:742 JLINK_ReadReg(R6)  returns 0xFFFFFFFF (0000ms, 0566ms total)
T120C 001:742 JLINK_ReadReg(R7)  returns 0xFFFFFFFF (0000ms, 0566ms total)
T120C 001:742 JLINK_ReadReg(R8)  returns 0xFFFFFFFF (0000ms, 0566ms total)
T120C 001:742 JLINK_ReadReg(R9)  returns 0xFFFFFFFF (0000ms, 0566ms total)
T120C 001:742 JLINK_ReadReg(R10)  returns 0xFFFFFFFF (0000ms, 0566ms total)
T120C 001:742 JLINK_ReadReg(R11)  returns 0xFFFFFFFF (0000ms, 0566ms total)
T120C 001:742 JLINK_ReadReg(R12)  returns 0xFFFFFFFF (0000ms, 0566ms total)
T120C 001:742 JLINK_ReadReg(R13 (SP))  returns 0x20000190 (0000ms, 0566ms total)
T120C 001:742 JLINK_ReadReg(R14)  returns 0xFFFFFFFF (0000ms, 0566ms total)
T120C 001:742 JLINK_ReadReg(R15 (PC))  returns 0x00000084 (0000ms, 0566ms total)
T120C 001:742 JLINK_ReadReg(XPSR)  returns 0xF1000000 (0000ms, 0566ms total)
T120C 001:742 JLINK_ReadReg(MSP)  returns 0x20000190 (0000ms, 0566ms total)
T120C 001:742 JLINK_ReadReg(PSP)  returns 0xFFFFFFFC (0000ms, 0566ms total)
T120C 001:742 JLINK_ReadReg(CFBP)  returns 0x00000000 (0000ms, 0566ms total)
T120C 001:742 JLINK_WriteReg(R15 (PC), 0x00000080)  returns 0x00 (0000ms, 0566ms total)
T120C 001:742 JLINK_ReadReg(R0)  returns 0xFFFFFFFF (0000ms, 0566ms total)
T120C 001:742 JLINK_ReadReg(R1)  returns 0xFFFFFFFF (0000ms, 0566ms total)
T120C 001:742 JLINK_ReadReg(R2)  returns 0xFFFFFFFF (0000ms, 0566ms total)
T120C 001:742 JLINK_ReadReg(R3)  returns 0xFFFFFFFF (0000ms, 0566ms total)
T120C 001:742 JLINK_ReadReg(R4)  returns 0xFFFFFFFF (0000ms, 0566ms total)
T120C 001:742 JLINK_ReadReg(R5)  returns 0xFFFFFFFF (0000ms, 0566ms total)
T120C 001:743 JLINK_ReadReg(R6)  returns 0xFFFFFFFF (0000ms, 0566ms total)
T120C 001:743 JLINK_ReadReg(R7)  returns 0xFFFFFFFF (0000ms, 0566ms total)
T120C 001:743 JLINK_ReadReg(R8)  returns 0xFFFFFFFF (0000ms, 0566ms total)
T120C 001:743 JLINK_ReadReg(R9)  returns 0xFFFFFFFF (0000ms, 0566ms total)
T120C 001:743 JLINK_ReadReg(R10)  returns 0xFFFFFFFF (0000ms, 0566ms total)
T120C 001:743 JLINK_ReadReg(R11)  returns 0xFFFFFFFF (0000ms, 0566ms total)
T120C 001:743 JLINK_ReadReg(R12)  returns 0xFFFFFFFF (0000ms, 0566ms total)
T120C 001:743 JLINK_ReadReg(R13 (SP))  returns 0x20000190 (0000ms, 0566ms total)
T120C 001:743 JLINK_ReadReg(R14)  returns 0xFFFFFFFF (0000ms, 0566ms total)
T120C 001:743 JLINK_ReadReg(R15 (PC))  returns 0x00000080 (0000ms, 0566ms total)
T120C 001:743 JLINK_ReadReg(XPSR)  returns 0xF1000000 (0000ms, 0566ms total)
T120C 001:743 JLINK_ReadReg(MSP)  returns 0x20000190 (0000ms, 0566ms total)
T120C 001:743 JLINK_ReadReg(PSP)  returns 0xFFFFFFFC (0000ms, 0566ms total)
T120C 001:743 JLINK_ReadReg(CFBP)  returns 0x00000000 (0000ms, 0566ms total)
T2140 001:748 JLINK_SetBPEx(Addr = 0x00000208, Type = 0xFFFFFFF2)  returns 0x00000001 (0000ms, 0566ms total)
T2140 001:748 JLINK_Go() -- CPU_WriteMem(4 bytes @ 0xE0002000) -- CPU_ReadMem(4 bytes @ 0xE0001000) -- CPU_WriteMem(4 bytes @ 0xE0001000) -- CPU_WriteMem(4 bytes @ 0xE0002008) -- CPU_WriteMem(4 bytes @ 0xE000200C) -- CPU_WriteMem(4 bytes @ 0xE0002010) -- CPU_WriteMem(4 bytes @ 0xE0002014) -- CPU_WriteMem(4 bytes @ 0xE0001004) (0003ms, 0569ms total)
T2140 001:852 JLINK_IsHalted()  returns TRUE (0001ms, 0570ms total)
T2140 001:853 JLINK_Halt()  returns 0x00 (0000ms, 0569ms total)
T2140 001:853 JLINK_IsHalted()  returns TRUE (0000ms, 0569ms total)
T2140 001:853 JLINK_IsHalted()  returns TRUE (0000ms, 0569ms total)
T2140 001:853 JLINK_IsHalted()  returns TRUE (0000ms, 0569ms total)
T2140 001:853 JLINK_ReadReg(R15 (PC))  returns 0x00000208 (0000ms, 0569ms total)
T2140 001:853 JLINK_ReadReg(XPSR)  returns 0x61000000 (0000ms, 0569ms total)
T2140 001:853 JLINK_ClrBPEx(BPHandle = 0x00000001)  returns 0x00 (0000ms, 0569ms total)
T2140 001:853 JLINK_ReadMemU32(0xE000ED30, 0x0001 Items, ...) -- CPU_ReadMem(4 bytes @ 0xE000ED30) - Data: 02 00 00 00  returns 0x01 (0001ms, 0570ms total)
T2140 001:854 JLINK_ReadMemU32(0xE0001028, 0x0001 Items, ...) -- CPU_ReadMem(4 bytes @ 0xE0001028) - Data: 00 00 00 00  returns 0x01 (0000ms, 0570ms total)
T2140 001:854 JLINK_ReadMemU32(0xE0001038, 0x0001 Items, ...) -- CPU_ReadMem(4 bytes @ 0xE0001038) - Data: 00 00 00 00  returns 0x01 (0000ms, 0570ms total)
T2140 001:855 JLINK_ReadReg(R0)  returns 0x00000209 (0000ms, 0570ms total)
T2140 001:855 JLINK_ReadReg(R1)  returns 0x20000190 (0000ms, 0570ms total)
T2140 001:855 JLINK_ReadReg(R2)  returns 0x00000000 (0000ms, 0570ms total)
T2140 001:855 JLINK_ReadReg(R3)  returns 0x000001AD (0000ms, 0570ms total)
T2140 001:855 JLINK_ReadReg(R4)  returns 0x0000022C (0000ms, 0570ms total)
T2140 001:855 JLINK_ReadReg(R5)  returns 0x00000001 (0000ms, 0570ms total)
T2140 001:855 JLINK_ReadReg(R6)  returns 0x0000022C (0000ms, 0570ms total)
T2140 001:855 JLINK_ReadReg(R7)  returns 0xFFFFFFFF (0000ms, 0570ms total)
T2140 001:855 JLINK_ReadReg(R8)  returns 0xFFFFFFFF (0000ms, 0570ms total)
T2140 001:855 JLINK_ReadReg(R9)  returns 0xFFFFFFFF (0000ms, 0570ms total)
T2140 001:855 JLINK_ReadReg(R10)  returns 0xFFFFFFFF (0000ms, 0570ms total)
T2140 001:855 JLINK_ReadReg(R11)  returns 0xFFFFFFFF (0000ms, 0570ms total)
T2140 001:855 JLINK_ReadReg(R12)  returns 0xFFFFFFFF (0000ms, 0570ms total)
T2140 001:855 JLINK_ReadReg(R13 (SP))  returns 0x20000190 (0000ms, 0570ms total)
T2140 001:855 JLINK_ReadReg(R14)  returns 0x000000B9 (0000ms, 0570ms total)
T2140 001:855 JLINK_ReadReg(R15 (PC))  returns 0x00000208 (0000ms, 0570ms total)
T2140 001:855 JLINK_ReadReg(XPSR)  returns 0x61000000 (0000ms, 0570ms total)
T2140 001:855 JLINK_ReadReg(MSP)  returns 0x20000190 (0000ms, 0570ms total)
T2140 001:855 JLINK_ReadReg(PSP)  returns 0xFFFFFFFC (0000ms, 0570ms total)
T2140 001:855 JLINK_ReadReg(CFBP)  returns 0x00000000 (0000ms, 0570ms total)
T120C 001:859 JLINK_ReadMem (0x0000020E, 0x0002 Bytes, ...) -- CPU_ReadMem(64 bytes @ 0x00000200) -- Updating DA cache (64 bytes @ 0x00000200) -- Read from DA cache (2 bytes @ 0x0000020E) - Data: 02 48  returns 0x00 (0001ms, 0571ms total)
T120C 001:860 JLINK_ReadMem (0x00000210, 0x003C Bytes, ...) -- CPU_ReadMem(64 bytes @ 0x00000240) -- Updating DA cache (64 bytes @ 0x00000240) -- Read from DA cache (60 bytes @ 0x00000210) - Data: FF F7 EA FF 00 BF FE E7 00 00 00 20 2C 02 00 00 ...  returns 0x00 (0000ms, 0571ms total)
T120C 001:885 JLINK_ReadMem (0x00000108, 0x003C Bytes, ...) -- CPU_ReadMem(128 bytes @ 0x00000100) -- Updating DA cache (128 bytes @ 0x00000100) -- Read from DA cache (60 bytes @ 0x00000108) - Data: 92 07 90 61 70 47 00 29 03 D0 01 22 92 07 50 60 ...  returns 0x00 (0000ms, 0571ms total)
T120C 001:885 JLINK_ReadMem (0x00000144, 0x003C Bytes, ...) -- Read from DA cache (60 bytes @ 0x00000144) - Data: 00 E0 00 E0 70 47 00 00 10 B5 00 24 02 20 10 49 ...  returns 0x00 (0000ms, 0571ms total)
T120C 001:886 JLINK_ReadMem (0x00000180, 0x003C Bytes, ...) -- CPU_ReadMem(64 bytes @ 0x00000180) -- Updating DA cache (64 bytes @ 0x00000180) -- Read from DA cache (60 bytes @ 0x00000180) - Data: C0 07 C0 0F 00 28 F1 D0 00 BF 00 20 02 49 08 62 ...  returns 0x00 (0000ms, 0571ms total)
T120C 001:886 JLINK_ReadMem (0x000001BC, 0x003C Bytes, ...) -- CPU_ReadMem(64 bytes @ 0x000001C0) -- Updating DA cache (64 bytes @ 0x000001C0) -- Read from DA cache (60 bytes @ 0x000001BC) - Data: 10 B5 04 46 06 48 44 61 06 48 07 49 48 61 00 20 ...  returns 0x00 (0001ms, 0572ms total)
T120C 001:887 JLINK_ReadMem (0x000001F8, 0x003C Bytes, ...) -- Read from DA cache (60 bytes @ 0x000001F8) - Data: 12 1D 40 1C 04 28 F8 DB 10 BD 00 00 00 02 02 00 ...  returns 0x00 (0000ms, 0572ms total)
T120C 001:905 JLINK_ReadMem (0x0000CA00, 0x0132 Bytes, ...) -- CPU_ReadMem(320 bytes @ 0x0000CA00) -- Updating DA cache (320 bytes @ 0x0000CA00) -- Read from DA cache (306 bytes @ 0x0000CA00) - Data: 00 20 01 21 02 22 03 23 04 24 05 25 06 26 07 27 ...  returns 0x00 (0001ms, 0573ms total)
T120C 002:974 JLINK_ReadMem (0x20000000, 0x0004 Bytes, ...) -- CPU_ReadMem(4 bytes @ 0x20000000) - Data: 00 00 00 00  returns 0x00 (0001ms, 0574ms total)
T120C 002:975 JLINK_ReadMem (0x20000004, 0x0004 Bytes, ...) -- CPU_ReadMem(4 bytes @ 0x20000004) - Data: 00 00 00 00  returns 0x00 (0000ms, 0574ms total)
T120C 002:975 JLINK_ReadMem (0x20000008, 0x0004 Bytes, ...) -- CPU_ReadMem(4 bytes @ 0x20000008) - Data: 00 00 00 00  returns 0x00 (0001ms, 0575ms total)
T120C 002:976 JLINK_ReadMem (0x2000000C, 0x0004 Bytes, ...) -- CPU_ReadMem(4 bytes @ 0x2000000C) - Data: 00 00 00 00  returns 0x00 (0000ms, 0575ms total)
T2140 010:737 JLINK_SetBPEx(Addr = 0x00000214, Type = 0xFFFFFFF2)  returns 0x00000002 (0000ms, 0575ms total)
T2140 010:737 JLINK_Go() -- CPU_WriteMem(4 bytes @ 0xE0002000) -- CPU_ReadMem(4 bytes @ 0xE0001000) -- CPU_WriteMem(4 bytes @ 0xE0001000) -- CPU_WriteMem(4 bytes @ 0xE0002008) (0002ms, 0577ms total)
T2140 010:840 JLINK_IsHalted()  returns TRUE (0001ms, 0578ms total)
T2140 010:841 JLINK_Halt()  returns 0x00 (0000ms, 0577ms total)
T2140 010:841 JLINK_IsHalted()  returns TRUE (0001ms, 0578ms total)
T2140 010:842 JLINK_IsHalted()  returns TRUE (0000ms, 0577ms total)
T2140 010:842 JLINK_IsHalted()  returns TRUE (0000ms, 0577ms total)
T2140 010:842 JLINK_ReadReg(R15 (PC))  returns 0x00000214 (0000ms, 0577ms total)
T2140 010:842 JLINK_ReadReg(XPSR)  returns 0x61000000 (0000ms, 0577ms total)
T2140 010:842 JLINK_ClrBPEx(BPHandle = 0x00000002)  returns 0x00 (0000ms, 0577ms total)
T2140 010:842 JLINK_ReadMemU32(0xE000ED30, 0x0001 Items, ...) -- CPU_ReadMem(4 bytes @ 0xE000ED30) - Data: 02 00 00 00  returns 0x01 (0001ms, 0578ms total)
T2140 010:843 JLINK_ReadMemU32(0xE0001028, 0x0001 Items, ...) -- CPU_ReadMem(4 bytes @ 0xE0001028) - Data: 00 00 00 00  returns 0x01 (0000ms, 0578ms total)
T2140 010:843 JLINK_ReadMemU32(0xE0001038, 0x0001 Items, ...) -- CPU_ReadMem(4 bytes @ 0xE0001038) - Data: 00 00 00 00  returns 0x01 (0001ms, 0579ms total)
T2140 010:844 JLINK_ReadReg(R0)  returns 0x00000004 (0000ms, 0579ms total)
T2140 010:844 JLINK_ReadReg(R1)  returns 0x20000000 (0000ms, 0579ms total)
T2140 010:844 JLINK_ReadReg(R2)  returns 0x00020210 (0000ms, 0579ms total)
T2140 010:844 JLINK_ReadReg(R3)  returns 0xC3836343 (0000ms, 0579ms total)
T2140 010:844 JLINK_ReadReg(R4)  returns 0x0000022C (0000ms, 0579ms total)
T2140 010:844 JLINK_ReadReg(R5)  returns 0x00000001 (0000ms, 0579ms total)
T2140 010:844 JLINK_ReadReg(R6)  returns 0x0000022C (0000ms, 0579ms total)
T2140 010:844 JLINK_ReadReg(R7)  returns 0xFFFFFFFF (0000ms, 0579ms total)
T2140 010:844 JLINK_ReadReg(R8)  returns 0xFFFFFFFF (0000ms, 0579ms total)
T2140 010:844 JLINK_ReadReg(R9)  returns 0xFFFFFFFF (0000ms, 0579ms total)
T2140 010:844 JLINK_ReadReg(R10)  returns 0xFFFFFFFF (0000ms, 0579ms total)
T2140 010:844 JLINK_ReadReg(R11)  returns 0xFFFFFFFF (0000ms, 0579ms total)
T2140 010:844 JLINK_ReadReg(R12)  returns 0xFFFFFFFF (0000ms, 0579ms total)
T2140 010:844 JLINK_ReadReg(R13 (SP))  returns 0x20000190 (0000ms, 0579ms total)
T2140 010:844 JLINK_ReadReg(R14)  returns 0x00000215 (0000ms, 0579ms total)
T2140 010:844 JLINK_ReadReg(R15 (PC))  returns 0x00000214 (0000ms, 0579ms total)
T2140 010:844 JLINK_ReadReg(XPSR)  returns 0x61000000 (0000ms, 0579ms total)
T2140 010:844 JLINK_ReadReg(MSP)  returns 0x20000190 (0000ms, 0579ms total)
T2140 010:844 JLINK_ReadReg(PSP)  returns 0xFFFFFFFC (0001ms, 0580ms total)
T2140 010:845 JLINK_ReadReg(CFBP)  returns 0x00000000 (0000ms, 0580ms total)
T120C 010:852 JLINK_ReadMem (0x20000000, 0x0004 Bytes, ...) -- CPU_ReadMem(4 bytes @ 0x20000000) - Data: 40 60 80 C0  returns 0x00 (0001ms, 0581ms total)
T120C 010:853 JLINK_ReadMem (0x20000004, 0x0004 Bytes, ...) -- CPU_ReadMem(4 bytes @ 0x20000004) - Data: 41 61 81 C1  returns 0x00 (0001ms, 0582ms total)
T120C 010:854 JLINK_ReadMem (0x20000008, 0x0004 Bytes, ...) -- CPU_ReadMem(4 bytes @ 0x20000008) - Data: 42 62 82 C2  returns 0x00 (0000ms, 0582ms total)
T120C 010:854 JLINK_ReadMem (0x2000000C, 0x0004 Bytes, ...) -- CPU_ReadMem(4 bytes @ 0x2000000C) - Data: 43 63 83 C3  returns 0x00 (0001ms, 0583ms total)
T120C 010:860 JLINK_ReadMem (0x0000020E, 0x0002 Bytes, ...) -- CPU_ReadMem(64 bytes @ 0x00000200) -- Updating DA cache (64 bytes @ 0x00000200) -- Read from DA cache (2 bytes @ 0x0000020E) - Data: 02 48  returns 0x00 (0001ms, 0584ms total)
T120C 010:861 JLINK_ReadMem (0x00000210, 0x003C Bytes, ...) -- CPU_ReadMem(64 bytes @ 0x00000240) -- Updating DA cache (64 bytes @ 0x00000240) -- Read from DA cache (60 bytes @ 0x00000210) - Data: FF F7 EA FF 00 BF FE E7 00 00 00 20 2C 02 00 00 ...  returns 0x00 (0000ms, 0584ms total)
T120C 015:150 JLINK_Close() -- CPU_WriteMem(4 bytes @ 0xE0002008) -- CPU_ReadMem(4 bytes @ 0xE0001000) -- CPU_WriteMem(4 bytes @ 0xE0001000) >0x42 TIF> >0x28 TIF> >0x0D TIF> >0x21 TIF> (0002ms, 0586ms total)
T120C 015:150  (0002ms, 0586ms total)
T120C 015:150 Closed (0002ms, 0586ms total)
