
T0760 000:302 SEGGER J-Link V5.12e Log File (0000ms, 0276ms total)
T0760 000:302 DLL Compiled: Apr 29 2016 15:03:58 (0000ms, 0276ms total)
T0760 000:302 Logging started @ 2023-10-19 17:23 (0000ms, 0276ms total)
T0760 000:302 JLINK_SetWarnOutHandler(...) (0000ms, 0276ms total)
T0760 000:302 JLINK_OpenEx(...)
Firmware: J-Link V9 compiled May  7 2021 16:26:12
Hardware: V9.40
S/N: 69405869
Feature(s): RDI, GDB, FlashDL, FlashBP, JFlash  returns O.K. (0272ms, 0548ms total)
T0760 000:574 JLINK_SetErrorOutHandler(...) (0000ms, 0548ms total)
T0760 000:574 JLINK_ExecCommand("ProjectFile = "E:\4ReferenceMaterial\0companySOC\A18003\DG32F003xx_SDK\SDK\Exmaple\GPIO_InputAndOut\USER\MDK-ARM\JLinkSettings.ini"", ...)  returns 0x00 (0000ms, 0548ms total)
T0760 000:577 JLINK_ExecCommand("Device = Cortex-M0+", ...)Device "CORTEX-M0+" selected.  returns 0x00 (0005ms, 0553ms total)
T0760 000:582 JLINK_ExecCommand("DisableConnectionTimeout", ...)  returns 0x01 (0000ms, 0553ms total)
T0760 000:582 JLINK_GetHardwareVersion()  returns 0x16F30 (0000ms, 0553ms total)
T0760 000:582 JLINK_GetDLLVersion()  returns 51205 (0000ms, 0553ms total)
T0760 000:582 JLINK_GetFirmwareString(...) (0000ms, 0553ms total)
T0760 000:597 JLINK_GetDLLVersion()  returns 51205 (0000ms, 0553ms total)
T0760 000:597 JLINK_GetCompileDateTime() (0000ms, 0553ms total)
T0760 000:600 JLINK_GetFirmwareString(...) (0000ms, 0553ms total)
T0760 000:602 JLINK_GetHardwareVersion()  returns 0x16F30 (0000ms, 0553ms total)
T0760 000:611 JLINK_TIF_Select(JLINKARM_TIF_SWD)  returns 0x00 (0002ms, 0555ms total)
T0760 000:613 JLINK_SetSpeed(5000) (0000ms, 0555ms total)
T0760 000:613 JLINK_GetId() >0x108 TIF>Found SWD-DP with ID 0x0BC11477 >0x0D TIF> >0x28 TIF> >0x0D TIF> >0x28 TIF> >0x0D TIF> >0x28 TIF> >0x0D TIF> >0x28 TIF> >0x0D TIF> >0x21 TIF> >0x0D TIF> >0x28 TIF> >0x0D TIF> >0x28 TIF> >0x0D TIF> >0x21 TIF> >0x0D TIF> >0x21 TIF> >0x0D TIF> >0x21 TIF> >0x0D TIF> >0x28 TIF> >0x0D TIF> >0x28 TIF> >0x0D TIF> >0x28 TIF> >0x0D TIF> >0x21 TIF> >0x0D TIF> >0x21 TIF> >0x0D TIF> >0x28 TIF> >0x0D TIF> >0x21 TIF> >0x0D TIF> >0x21 TIF>Found Cortex-M0 r0p1, Little endian.
 -- CPU_ReadMem(4 bytes @ 0xE000EDF0) -- CPU_ReadMem(4 bytes @ 0xE0002000)FPUnit: 4 code (BP) slots and 0 literal slots -- CPU_ReadMem(4 bytes @ 0xE000EDFC) -- CPU_ReadMem(4 bytes @ 0xE0001000) -- CPU_WriteMem(4 bytes @ 0xE0001000)CoreSight components:ROMTbl 0 @ E00FF000 -- CPU_ReadMem(16 bytes @ 0xE00FF000) -- CPU_ReadMem(16 bytes @ 0xE000EFF0) -- CPU_ReadMem(16 bytes @ 0xE000EFE0)ROMTbl 0 [0]: FFF0F000, CID: B105E00D, PID: 000BB008 SCS -- CPU_ReadMem(16 bytes @ 0xE0001FF0)
 -- CPU_ReadMem(16 bytes @ 0xE0001FE0)ROMTbl 0 [1]: FFF02000, CID: B105E00D, PID: 000BB00A DWT -- CPU_ReadMem(16 bytes @ 0xE0002FF0) -- CPU_ReadMem(16 bytes @ 0xE0002FE0)ROMTbl 0 [2]: FFF03000, CID: B105E00D, PID: 000BB00B FPB >0x0D TIF> >0x21 TIF>  returns 0x0BC11477 (0031ms, 0586ms total)
T0760 000:644 JLINK_GetDLLVersion()  returns 51205 (0000ms, 0586ms total)
T0760 000:644 JLINK_CORE_GetFound()  returns 0x60000FF (0000ms, 0586ms total)
T0760 000:644 JLINK_GetDebugInfo(0x100) -- Value=0xE00FF000  returns 0x00 (0000ms, 0586ms total)
T0760 000:646 JLINK_GetDebugInfo(0x100) -- Value=0xE00FF000  returns 0x00 (0000ms, 0586ms total)
T0760 000:646 JLINK_GetDebugInfo(0x101) -- Value=0x00000000  returns 0x00 (0000ms, 0586ms total)
T0760 000:646 JLINK_ReadMem (0xE0041FF0, 0x0010 Bytes, ...) -- CPU is running -- CPU_ReadMem(16 bytes @ 0xE0041FF0) - Data: 00 00 00 00 00 00 00 00 00 00 00 00 00 00 00 00  returns 0x00 (0001ms, 0587ms total)
T0760 000:647 JLINK_GetDebugInfo(0x102) -- Value=0x00000000  returns 0x00 (0000ms, 0587ms total)
T0760 000:647 JLINK_GetDebugInfo(0x103) -- Value=0x00000000  returns 0x00 (0000ms, 0587ms total)
T0760 000:647 JLINK_ReadMem (0xE0040FF0, 0x0010 Bytes, ...) -- CPU is running -- CPU_ReadMem(16 bytes @ 0xE0040FF0) - Data: 00 00 00 00 00 00 00 00 00 00 00 00 00 00 00 00  returns 0x00 (0001ms, 0588ms total)
T0760 000:648 JLINK_GetDebugInfo(0x104) -- Value=0xE0000000  returns 0x00 (0000ms, 0588ms total)
T0760 000:648 JLINK_GetDebugInfo(0x105) -- Value=0xE0001000  returns 0x00 (0000ms, 0588ms total)
T0760 000:648 JLINK_GetDebugInfo(0x106) -- Value=0xE0002000  returns 0x00 (0000ms, 0588ms total)
T0760 000:648 JLINK_GetDebugInfo(0x107) -- Value=0xE000E000  returns 0x00 (0000ms, 0588ms total)
T0760 000:648 JLINK_GetDebugInfo(0x10C) -- Value=0xE000EDF0  returns 0x00 (0000ms, 0588ms total)
T0760 000:648 JLINK_ReadMemU32(0xE000ED00, 0x0001 Items, ...) -- CPU is running -- CPU_ReadMem(4 bytes @ 0xE000ED00) - Data: 01 C6 0C 41  returns 0x01 (0001ms, 0589ms total)
T0760 000:649 JLINK_SetResetType(JLINKARM_RESET_TYPE_NORMAL)  returns JLINKARM_RESET_TYPE_NORMAL (0000ms, 0589ms total)
T0760 000:649 JLINK_Reset() -- CPU is running -- CPU_WriteMem(4 bytes @ 0xE000EDF0) -- CPU is running -- CPU_WriteMem(4 bytes @ 0xE000EDFC) >0x35 TIF> -- CPU is running -- CPU_WriteMem(4 bytes @ 0xE000ED0C) -- CPU is running -- CPU_ReadMem(4 bytes @ 0xE000EDF0) -- CPU is running -- CPU_ReadMem(4 bytes @ 0xE000EDF0) -- CPU is running -- CPU_WriteMem(4 bytes @ 0xE000EDF0) -- CPU is running -- CPU_WriteMem(4 bytes @ 0xE000EDFC) -- CPU is running -- CPU_ReadMem(4 bytes @ 0xE000EDF0)
 -- CPU_WriteMem(4 bytes @ 0xE0002000) -- CPU_ReadMem(4 bytes @ 0xE000EDFC) -- CPU_ReadMem(4 bytes @ 0xE0001000) -- CPU_WriteMem(4 bytes @ 0xE0001000) (0020ms, 0609ms total)
T0760 000:669 JLINK_Halt()  returns 0x00 (0000ms, 0609ms total)
T0760 000:669 JLINK_IsHalted()  returns TRUE (0000ms, 0609ms total)
T0760 000:669 JLINK_ReadMemU32(0xE000EDF0, 0x0001 Items, ...) -- CPU_ReadMem(4 bytes @ 0xE000EDF0) - Data: 03 00 03 00  returns 0x01 (0000ms, 0609ms total)
T0760 000:669 JLINK_WriteU32(0xE000EDF0, 0xA05F0003) -- CPU_WriteMem(4 bytes @ 0xE000EDF0)  returns 0x00 (0000ms, 0609ms total)
T0760 000:669 JLINK_WriteU32(0xE000EDFC, 0x01000000) -- CPU_WriteMem(4 bytes @ 0xE000EDFC)  returns 0x00 (0001ms, 0610ms total)
T0760 000:678 JLINK_GetHWStatus(...)  returns 0x00 (0001ms, 0611ms total)
T0760 000:685 JLINK_GetNumBPUnits(Type = 0xFFFFFF00)  returns 0x04 (0000ms, 0611ms total)
T0760 000:685 JLINK_GetNumBPUnits(Type = 0xF0)  returns 0x2000 (0000ms, 0611ms total)
T0760 000:685 JLINK_GetNumWPUnits()  returns 0x02 (0000ms, 0611ms total)
T0760 000:695 JLINK_GetSpeed()  returns 0xFA0 (0000ms, 0611ms total)
T0760 000:703 JLINK_ReadMemU32(0xE000E004, 0x0001 Items, ...) -- CPU_ReadMem(4 bytes @ 0xE000E004) - Data: 00 00 00 00  returns 0x01 (0000ms, 0611ms total)
T0760 000:703 JLINK_Halt()  returns 0x00 (0000ms, 0611ms total)
T0760 000:703 JLINK_IsHalted()  returns TRUE (0000ms, 0611ms total)
T0760 000:707 JLINK_WriteMem(0x20000000, 0x0180 Bytes, ...) - Data: 00 BE 0A E0 0D 78 2D 06 68 40 08 24 40 00 00 D3 ... -- CPU_WriteMem(384 bytes @ 0x20000000)  returns 0x180 (0002ms, 0613ms total)
T0760 000:709 JLINK_WriteReg(R0, 0x00000000)  returns 0x00 (0000ms, 0613ms total)
T0760 000:709 JLINK_WriteReg(R1, 0x00B71B00)  returns 0x00 (0000ms, 0613ms total)
T0760 000:709 JLINK_WriteReg(R2, 0x00000001)  returns 0x00 (0000ms, 0613ms total)
T0760 000:709 JLINK_WriteReg(R3, 0x00000000)  returns 0x00 (0000ms, 0613ms total)
T0760 000:709 JLINK_WriteReg(R4, 0x00000000)  returns 0x00 (0000ms, 0613ms total)
T0760 000:709 JLINK_WriteReg(R5, 0x00000000)  returns 0x00 (0000ms, 0613ms total)
T0760 000:709 JLINK_WriteReg(R6, 0x00000000)  returns 0x00 (0000ms, 0613ms total)
T0760 000:709 JLINK_WriteReg(R7, 0x00000000)  returns 0x00 (0000ms, 0613ms total)
T0760 000:709 JLINK_WriteReg(R8, 0x00000000)  returns 0x00 (0000ms, 0613ms total)
T0760 000:709 JLINK_WriteReg(R9, 0x2000017C)  returns 0x00 (0000ms, 0613ms total)
T0760 000:709 JLINK_WriteReg(R10, 0x00000000)  returns 0x00 (0000ms, 0613ms total)
T0760 000:709 JLINK_WriteReg(R11, 0x00000000)  returns 0x00 (0000ms, 0613ms total)
T0760 000:709 JLINK_WriteReg(R12, 0x00000000)  returns 0x00 (0000ms, 0613ms total)
T0760 000:709 JLINK_WriteReg(R13 (SP), 0x20000800)  returns 0x00 (0000ms, 0613ms total)
T0760 000:709 JLINK_WriteReg(R14, 0x20000001)  returns 0x00 (0000ms, 0613ms total)
T0760 000:709 JLINK_WriteReg(R15 (PC), 0x20000038)  returns 0x00 (0000ms, 0613ms total)
T0760 000:709 JLINK_WriteReg(XPSR, 0x01000000)  returns 0x00 (0001ms, 0614ms total)
T0760 000:710 JLINK_WriteReg(MSP, 0x20000800)  returns 0x00 (0000ms, 0614ms total)
T0760 000:710 JLINK_WriteReg(PSP, 0x20000800)  returns 0x00 (0000ms, 0614ms total)
T0760 000:710 JLINK_WriteReg(CFBP, 0x00000000)  returns 0x00 (0000ms, 0614ms total)
T0760 000:710 JLINK_SetBPEx(Addr = 0x20000000, Type = 0xFFFFFFF2) -- CPU_ReadMem(4 bytes @ 0x20000000) -- CPU_WriteMem(4 bytes @ 0x20000000) -- CPU_ReadMem(4 bytes @ 0x20000000) -- CPU_WriteMem(4 bytes @ 0x20000000) -- CPU_ReadMem(2 bytes @ 0x20000000)  returns 0x00000001 (0001ms, 0615ms total)
T0760 000:711 JLINK_Go() -- CPU_WriteMem(2 bytes @ 0x20000000) -- CPU_ReadMem(4 bytes @ 0xE0001000) -- CPU_WriteMem(4 bytes @ 0xE0001000) -- CPU_WriteMem(4 bytes @ 0xE0002008) -- CPU_WriteMem(4 bytes @ 0xE000200C) -- CPU_WriteMem(4 bytes @ 0xE0002010) -- CPU_WriteMem(4 bytes @ 0xE0002014) -- CPU_WriteMem(4 bytes @ 0xE0001004) (0005ms, 0620ms total)
T0760 000:716 JLINK_IsHalted() -- CPU_ReadMem(2 bytes @ 0x20000000)  returns TRUE (0002ms, 0622ms total)
T0760 000:718 JLINK_ReadReg(R15 (PC))  returns 0x20000000 (0000ms, 0620ms total)
T0760 000:718 JLINK_ClrBPEx(BPHandle = 0x00000001)  returns 0x00 (0000ms, 0620ms total)
T0760 000:718 JLINK_ReadReg(R0)  returns 0x00000000 (0000ms, 0620ms total)
T0760 000:719 JLINK_WriteReg(R0, 0x00000000)  returns 0x00 (0000ms, 0620ms total)
T0760 000:719 JLINK_WriteReg(R1, 0x00000200)  returns 0x00 (0000ms, 0620ms total)
T0760 000:719 JLINK_WriteReg(R2, 0x000000FF)  returns 0x00 (0000ms, 0620ms total)
T0760 000:719 JLINK_WriteReg(R3, 0x00000000)  returns 0x00 (0000ms, 0620ms total)
T0760 000:719 JLINK_WriteReg(R4, 0x00000000)  returns 0x00 (0000ms, 0620ms total)
T0760 000:719 JLINK_WriteReg(R5, 0x00000000)  returns 0x00 (0000ms, 0620ms total)
T0760 000:719 JLINK_WriteReg(R6, 0x00000000)  returns 0x00 (0000ms, 0620ms total)
T0760 000:719 JLINK_WriteReg(R7, 0x00000000)  returns 0x00 (0000ms, 0620ms total)
T0760 000:719 JLINK_WriteReg(R8, 0x00000000)  returns 0x00 (0000ms, 0620ms total)
T0760 000:719 JLINK_WriteReg(R9, 0x2000017C)  returns 0x00 (0000ms, 0620ms total)
T0760 000:719 JLINK_WriteReg(R10, 0x00000000)  returns 0x00 (0000ms, 0620ms total)
T0760 000:719 JLINK_WriteReg(R11, 0x00000000)  returns 0x00 (0000ms, 0620ms total)
T0760 000:719 JLINK_WriteReg(R12, 0x00000000)  returns 0x00 (0000ms, 0620ms total)
T0760 000:719 JLINK_WriteReg(R13 (SP), 0x20000800)  returns 0x00 (0001ms, 0621ms total)
T0760 000:720 JLINK_WriteReg(R14, 0x20000001)  returns 0x00 (0000ms, 0621ms total)
T0760 000:720 JLINK_WriteReg(R15 (PC), 0x20000020)  returns 0x00 (0000ms, 0621ms total)
T0760 000:720 JLINK_WriteReg(XPSR, 0x01000000)  returns 0x00 (0000ms, 0621ms total)
T0760 000:720 JLINK_WriteReg(MSP, 0x20000800)  returns 0x00 (0000ms, 0621ms total)
T0760 000:720 JLINK_WriteReg(PSP, 0x20000800)  returns 0x00 (0000ms, 0621ms total)
T0760 000:720 JLINK_WriteReg(CFBP, 0x00000000)  returns 0x00 (0000ms, 0621ms total)
T0760 000:720 JLINK_SetBPEx(Addr = 0x20000000, Type = 0xFFFFFFF2)  returns 0x00000002 (0000ms, 0621ms total)
T0760 000:720 JLINK_Go() -- CPU_ReadMem(4 bytes @ 0xE0001000) -- CPU_WriteMem(4 bytes @ 0xE0001000) (0001ms, 0622ms total)
T0760 000:721 JLINK_IsHalted() -- CPU_ReadMem(2 bytes @ 0x20000000)  returns TRUE (0003ms, 0625ms total)
T0760 000:724 JLINK_ReadReg(R15 (PC))  returns 0x20000000 (0000ms, 0622ms total)
T0760 000:724 JLINK_ClrBPEx(BPHandle = 0x00000002)  returns 0x00 (0000ms, 0622ms total)
T0760 000:724 JLINK_ReadReg(R0)  returns 0x00000001 (0000ms, 0622ms total)
T0760 000:724 JLINK_WriteReg(R0, 0x00000000)  returns 0x00 (0000ms, 0622ms total)
T0760 000:724 JLINK_WriteReg(R1, 0x00000200)  returns 0x00 (0000ms, 0622ms total)
T0760 000:724 JLINK_WriteReg(R2, 0x000000FF)  returns 0x00 (0000ms, 0622ms total)
T0760 000:724 JLINK_WriteReg(R3, 0x00000000)  returns 0x00 (0000ms, 0622ms total)
T0760 000:724 JLINK_WriteReg(R4, 0x00000000)  returns 0x00 (0000ms, 0622ms total)
T0760 000:724 JLINK_WriteReg(R5, 0x00000000)  returns 0x00 (0000ms, 0622ms total)
T0760 000:724 JLINK_WriteReg(R6, 0x00000000)  returns 0x00 (0000ms, 0622ms total)
T0760 000:724 JLINK_WriteReg(R7, 0x00000000)  returns 0x00 (0000ms, 0622ms total)
T0760 000:724 JLINK_WriteReg(R8, 0x00000000)  returns 0x00 (0000ms, 0622ms total)
T0760 000:724 JLINK_WriteReg(R9, 0x2000017C)  returns 0x00 (0000ms, 0622ms total)
T0760 000:725 JLINK_WriteReg(R10, 0x00000000)  returns 0x00 (0000ms, 0623ms total)
T0760 000:725 JLINK_WriteReg(R11, 0x00000000)  returns 0x00 (0000ms, 0623ms total)
T0760 000:725 JLINK_WriteReg(R12, 0x00000000)  returns 0x00 (0000ms, 0623ms total)
T0760 000:725 JLINK_WriteReg(R13 (SP), 0x20000800)  returns 0x00 (0000ms, 0623ms total)
T0760 000:725 JLINK_WriteReg(R14, 0x20000001)  returns 0x00 (0000ms, 0623ms total)
T0760 000:725 JLINK_WriteReg(R15 (PC), 0x200000CA)  returns 0x00 (0000ms, 0623ms total)
T0760 000:725 JLINK_WriteReg(XPSR, 0x01000000)  returns 0x00 (0000ms, 0623ms total)
T0760 000:725 JLINK_WriteReg(MSP, 0x20000800)  returns 0x00 (0000ms, 0623ms total)
T0760 000:725 JLINK_WriteReg(PSP, 0x20000800)  returns 0x00 (0000ms, 0623ms total)
T0760 000:725 JLINK_WriteReg(CFBP, 0x00000000)  returns 0x00 (0000ms, 0623ms total)
T0760 000:725 JLINK_SetBPEx(Addr = 0x20000000, Type = 0xFFFFFFF2)  returns 0x00000003 (0000ms, 0623ms total)
T0760 000:725 JLINK_Go() -- CPU_ReadMem(4 bytes @ 0xE0001000) -- CPU_WriteMem(4 bytes @ 0xE0001000) (0001ms, 0624ms total)
T0760 000:726 JLINK_IsHalted()  returns FALSE (0001ms, 0625ms total)
T0760 000:765 JLINK_IsHalted() -- CPU_ReadMem(2 bytes @ 0x20000000)  returns TRUE (0003ms, 0627ms total)
T0760 000:768 JLINK_ReadReg(R15 (PC))  returns 0x20000000 (0000ms, 0624ms total)
T0760 000:768 JLINK_ClrBPEx(BPHandle = 0x00000003)  returns 0x00 (0000ms, 0624ms total)
T0760 000:768 JLINK_ReadReg(R0)  returns 0x00000000 (0000ms, 0624ms total)
T0760 000:769 JLINK_WriteReg(R0, 0x00000200)  returns 0x00 (0000ms, 0624ms total)
T0760 000:769 JLINK_WriteReg(R1, 0x00000200)  returns 0x00 (0000ms, 0624ms total)
T0760 000:769 JLINK_WriteReg(R2, 0x000000FF)  returns 0x00 (0000ms, 0624ms total)
T0760 000:769 JLINK_WriteReg(R3, 0x00000000)  returns 0x00 (0000ms, 0624ms total)
T0760 000:769 JLINK_WriteReg(R4, 0x00000000)  returns 0x00 (0000ms, 0624ms total)
T0760 000:769 JLINK_WriteReg(R5, 0x00000000)  returns 0x00 (0000ms, 0624ms total)
T0760 000:769 JLINK_WriteReg(R6, 0x00000000)  returns 0x00 (0000ms, 0624ms total)
T0760 000:769 JLINK_WriteReg(R7, 0x00000000)  returns 0x00 (0000ms, 0624ms total)
T0760 000:769 JLINK_WriteReg(R8, 0x00000000)  returns 0x00 (0000ms, 0624ms total)
T0760 000:769 JLINK_WriteReg(R9, 0x2000017C)  returns 0x00 (0000ms, 0624ms total)
T0760 000:769 JLINK_WriteReg(R10, 0x00000000)  returns 0x00 (0000ms, 0624ms total)
T0760 000:769 JLINK_WriteReg(R11, 0x00000000)  returns 0x00 (0000ms, 0624ms total)
T0760 000:769 JLINK_WriteReg(R12, 0x00000000)  returns 0x00 (0000ms, 0624ms total)
T0760 000:769 JLINK_WriteReg(R13 (SP), 0x20000800)  returns 0x00 (0000ms, 0624ms total)
T0760 000:769 JLINK_WriteReg(R14, 0x20000001)  returns 0x00 (0000ms, 0624ms total)
T0760 000:769 JLINK_WriteReg(R15 (PC), 0x20000020)  returns 0x00 (0000ms, 0624ms total)
T0760 000:769 JLINK_WriteReg(XPSR, 0x01000000)  returns 0x00 (0000ms, 0624ms total)
T0760 000:769 JLINK_WriteReg(MSP, 0x20000800)  returns 0x00 (0000ms, 0624ms total)
T0760 000:769 JLINK_WriteReg(PSP, 0x20000800)  returns 0x00 (0000ms, 0624ms total)
T0760 000:769 JLINK_WriteReg(CFBP, 0x00000000)  returns 0x00 (0000ms, 0624ms total)
T0760 000:769 JLINK_SetBPEx(Addr = 0x20000000, Type = 0xFFFFFFF2)  returns 0x00000004 (0000ms, 0624ms total)
T0760 000:769 JLINK_Go() -- CPU_ReadMem(4 bytes @ 0xE0001000) -- CPU_WriteMem(4 bytes @ 0xE0001000) (0003ms, 0627ms total)
T0760 000:773 JLINK_IsHalted() -- CPU_ReadMem(2 bytes @ 0x20000000)  returns TRUE (0003ms, 0631ms total)
T0760 000:776 JLINK_ReadReg(R15 (PC))  returns 0x20000000 (0000ms, 0628ms total)
T0760 000:776 JLINK_ClrBPEx(BPHandle = 0x00000004)  returns 0x00 (0000ms, 0628ms total)
T0760 000:776 JLINK_ReadReg(R0)  returns 0x00000001 (0000ms, 0628ms total)
T0760 000:776 JLINK_WriteReg(R0, 0x00000200)  returns 0x00 (0000ms, 0628ms total)
T0760 000:776 JLINK_WriteReg(R1, 0x00000200)  returns 0x00 (0000ms, 0628ms total)
T0760 000:776 JLINK_WriteReg(R2, 0x000000FF)  returns 0x00 (0000ms, 0628ms total)
T0760 000:776 JLINK_WriteReg(R3, 0x00000000)  returns 0x00 (0000ms, 0628ms total)
T0760 000:776 JLINK_WriteReg(R4, 0x00000000)  returns 0x00 (0000ms, 0628ms total)
T0760 000:776 JLINK_WriteReg(R5, 0x00000000)  returns 0x00 (0000ms, 0628ms total)
T0760 000:776 JLINK_WriteReg(R6, 0x00000000)  returns 0x00 (0000ms, 0628ms total)
T0760 000:776 JLINK_WriteReg(R7, 0x00000000)  returns 0x00 (0000ms, 0628ms total)
T0760 000:776 JLINK_WriteReg(R8, 0x00000000)  returns 0x00 (0000ms, 0628ms total)
T0760 000:776 JLINK_WriteReg(R9, 0x2000017C)  returns 0x00 (0000ms, 0628ms total)
T0760 000:776 JLINK_WriteReg(R10, 0x00000000)  returns 0x00 (0000ms, 0628ms total)
T0760 000:776 JLINK_WriteReg(R11, 0x00000000)  returns 0x00 (0000ms, 0628ms total)
T0760 000:776 JLINK_WriteReg(R12, 0x00000000)  returns 0x00 (0000ms, 0628ms total)
T0760 000:776 JLINK_WriteReg(R13 (SP), 0x20000800)  returns 0x00 (0000ms, 0628ms total)
T0760 000:776 JLINK_WriteReg(R14, 0x20000001)  returns 0x00 (0000ms, 0628ms total)
T0760 000:776 JLINK_WriteReg(R15 (PC), 0x200000CA)  returns 0x00 (0000ms, 0628ms total)
T0760 000:776 JLINK_WriteReg(XPSR, 0x01000000)  returns 0x00 (0000ms, 0628ms total)
T0760 000:776 JLINK_WriteReg(MSP, 0x20000800)  returns 0x00 (0000ms, 0628ms total)
T0760 000:776 JLINK_WriteReg(PSP, 0x20000800)  returns 0x00 (0000ms, 0628ms total)
T0760 000:776 JLINK_WriteReg(CFBP, 0x00000000)  returns 0x00 (0000ms, 0628ms total)
T0760 000:776 JLINK_SetBPEx(Addr = 0x20000000, Type = 0xFFFFFFF2)  returns 0x00000005 (0000ms, 0628ms total)
T0760 000:776 JLINK_Go() -- CPU_ReadMem(4 bytes @ 0xE0001000) -- CPU_WriteMem(4 bytes @ 0xE0001000) (0003ms, 0631ms total)
T0760 000:779 JLINK_IsHalted()  returns FALSE (0001ms, 0632ms total)
T0760 000:781 JLINK_IsHalted()  returns FALSE (0000ms, 0631ms total)
T0760 000:783 JLINK_IsHalted() -- CPU_ReadMem(2 bytes @ 0x20000000)  returns TRUE (0003ms, 0634ms total)
T0760 000:786 JLINK_ReadReg(R15 (PC))  returns 0x20000000 (0000ms, 0631ms total)
T0760 000:786 JLINK_ClrBPEx(BPHandle = 0x00000005)  returns 0x00 (0000ms, 0631ms total)
T0760 000:786 JLINK_ReadReg(R0)  returns 0x00000000 (0000ms, 0631ms total)
T0760 000:786 JLINK_WriteReg(R0, 0x00000400)  returns 0x00 (0000ms, 0631ms total)
T0760 000:786 JLINK_WriteReg(R1, 0x00000200)  returns 0x00 (0000ms, 0631ms total)
T0760 000:786 JLINK_WriteReg(R2, 0x000000FF)  returns 0x00 (0000ms, 0631ms total)
T0760 000:786 JLINK_WriteReg(R3, 0x00000000)  returns 0x00 (0000ms, 0631ms total)
T0760 000:786 JLINK_WriteReg(R4, 0x00000000)  returns 0x00 (0000ms, 0631ms total)
T0760 000:786 JLINK_WriteReg(R5, 0x00000000)  returns 0x00 (0000ms, 0631ms total)
T0760 000:786 JLINK_WriteReg(R6, 0x00000000)  returns 0x00 (0000ms, 0631ms total)
T0760 000:786 JLINK_WriteReg(R7, 0x00000000)  returns 0x00 (0000ms, 0631ms total)
T0760 000:786 JLINK_WriteReg(R8, 0x00000000)  returns 0x00 (0000ms, 0631ms total)
T0760 000:786 JLINK_WriteReg(R9, 0x2000017C)  returns 0x00 (0000ms, 0631ms total)
T0760 000:786 JLINK_WriteReg(R10, 0x00000000)  returns 0x00 (0000ms, 0631ms total)
T0760 000:786 JLINK_WriteReg(R11, 0x00000000)  returns 0x00 (0000ms, 0631ms total)
T0760 000:786 JLINK_WriteReg(R12, 0x00000000)  returns 0x00 (0000ms, 0631ms total)
T0760 000:786 JLINK_WriteReg(R13 (SP), 0x20000800)  returns 0x00 (0000ms, 0631ms total)
T0760 000:786 JLINK_WriteReg(R14, 0x20000001)  returns 0x00 (0000ms, 0631ms total)
T0760 000:786 JLINK_WriteReg(R15 (PC), 0x20000020)  returns 0x00 (0000ms, 0631ms total)
T0760 000:786 JLINK_WriteReg(XPSR, 0x01000000)  returns 0x00 (0000ms, 0631ms total)
T0760 000:786 JLINK_WriteReg(MSP, 0x20000800)  returns 0x00 (0001ms, 0632ms total)
T0760 000:787 JLINK_WriteReg(PSP, 0x20000800)  returns 0x00 (0000ms, 0632ms total)
T0760 000:787 JLINK_WriteReg(CFBP, 0x00000000)  returns 0x00 (0000ms, 0632ms total)
T0760 000:787 JLINK_SetBPEx(Addr = 0x20000000, Type = 0xFFFFFFF2)  returns 0x00000006 (0000ms, 0632ms total)
T0760 000:787 JLINK_Go() -- CPU_ReadMem(4 bytes @ 0xE0001000) -- CPU_WriteMem(4 bytes @ 0xE0001000) (0002ms, 0634ms total)
T0760 000:789 JLINK_IsHalted() -- CPU_ReadMem(2 bytes @ 0x20000000)  returns TRUE (0004ms, 0638ms total)
T0760 000:793 JLINK_ReadReg(R15 (PC))  returns 0x20000000 (0000ms, 0634ms total)
T0760 000:793 JLINK_ClrBPEx(BPHandle = 0x00000006)  returns 0x00 (0000ms, 0634ms total)
T0760 000:793 JLINK_ReadReg(R0)  returns 0x00000001 (0000ms, 0634ms total)
T0760 000:793 JLINK_WriteReg(R0, 0x00000400)  returns 0x00 (0000ms, 0634ms total)
T0760 000:793 JLINK_WriteReg(R1, 0x00000200)  returns 0x00 (0000ms, 0634ms total)
T0760 000:793 JLINK_WriteReg(R2, 0x000000FF)  returns 0x00 (0000ms, 0634ms total)
T0760 000:793 JLINK_WriteReg(R3, 0x00000000)  returns 0x00 (0000ms, 0634ms total)
T0760 000:793 JLINK_WriteReg(R4, 0x00000000)  returns 0x00 (0000ms, 0634ms total)
T0760 000:793 JLINK_WriteReg(R5, 0x00000000)  returns 0x00 (0000ms, 0634ms total)
T0760 000:793 JLINK_WriteReg(R6, 0x00000000)  returns 0x00 (0000ms, 0634ms total)
T0760 000:793 JLINK_WriteReg(R7, 0x00000000)  returns 0x00 (0000ms, 0634ms total)
T0760 000:793 JLINK_WriteReg(R8, 0x00000000)  returns 0x00 (0000ms, 0634ms total)
T0760 000:793 JLINK_WriteReg(R9, 0x2000017C)  returns 0x00 (0000ms, 0634ms total)
T0760 000:793 JLINK_WriteReg(R10, 0x00000000)  returns 0x00 (0000ms, 0634ms total)
T0760 000:793 JLINK_WriteReg(R11, 0x00000000)  returns 0x00 (0000ms, 0634ms total)
T0760 000:793 JLINK_WriteReg(R12, 0x00000000)  returns 0x00 (0000ms, 0634ms total)
T0760 000:793 JLINK_WriteReg(R13 (SP), 0x20000800)  returns 0x00 (0000ms, 0634ms total)
T0760 000:793 JLINK_WriteReg(R14, 0x20000001)  returns 0x00 (0000ms, 0634ms total)
T0760 000:793 JLINK_WriteReg(R15 (PC), 0x200000CA)  returns 0x00 (0000ms, 0634ms total)
T0760 000:793 JLINK_WriteReg(XPSR, 0x01000000)  returns 0x00 (0000ms, 0634ms total)
T0760 000:793 JLINK_WriteReg(MSP, 0x20000800)  returns 0x00 (0000ms, 0634ms total)
T0760 000:793 JLINK_WriteReg(PSP, 0x20000800)  returns 0x00 (0000ms, 0634ms total)
T0760 000:793 JLINK_WriteReg(CFBP, 0x00000000)  returns 0x00 (0000ms, 0634ms total)
T0760 000:793 JLINK_SetBPEx(Addr = 0x20000000, Type = 0xFFFFFFF2)  returns 0x00000007 (0000ms, 0634ms total)
T0760 000:793 JLINK_Go() -- CPU_ReadMem(4 bytes @ 0xE0001000) -- CPU_WriteMem(4 bytes @ 0xE0001000) (0002ms, 0636ms total)
T0760 000:795 JLINK_IsHalted()  returns FALSE (0000ms, 0636ms total)
T0760 000:797 JLINK_IsHalted()  returns FALSE (0000ms, 0636ms total)
T0760 000:799 JLINK_IsHalted() -- CPU_ReadMem(2 bytes @ 0x20000000)  returns TRUE (0003ms, 0639ms total)
T0760 000:802 JLINK_ReadReg(R15 (PC))  returns 0x20000000 (0000ms, 0636ms total)
T0760 000:802 JLINK_ClrBPEx(BPHandle = 0x00000007)  returns 0x00 (0000ms, 0636ms total)
T0760 000:802 JLINK_ReadReg(R0)  returns 0x00000000 (0000ms, 0636ms total)
T0760 000:803 JLINK_WriteReg(R0, 0x00000001)  returns 0x00 (0000ms, 0636ms total)
T0760 000:803 JLINK_WriteReg(R1, 0x00000200)  returns 0x00 (0000ms, 0636ms total)
T0760 000:803 JLINK_WriteReg(R2, 0x000000FF)  returns 0x00 (0000ms, 0636ms total)
T0760 000:803 JLINK_WriteReg(R3, 0x00000000)  returns 0x00 (0000ms, 0636ms total)
T0760 000:803 JLINK_WriteReg(R4, 0x00000000)  returns 0x00 (0000ms, 0636ms total)
T0760 000:803 JLINK_WriteReg(R5, 0x00000000)  returns 0x00 (0000ms, 0636ms total)
T0760 000:803 JLINK_WriteReg(R6, 0x00000000)  returns 0x00 (0000ms, 0636ms total)
T0760 000:803 JLINK_WriteReg(R7, 0x00000000)  returns 0x00 (0000ms, 0636ms total)
T0760 000:803 JLINK_WriteReg(R8, 0x00000000)  returns 0x00 (0000ms, 0636ms total)
T0760 000:803 JLINK_WriteReg(R9, 0x2000017C)  returns 0x00 (0000ms, 0636ms total)
T0760 000:803 JLINK_WriteReg(R10, 0x00000000)  returns 0x00 (0000ms, 0636ms total)
T0760 000:803 JLINK_WriteReg(R11, 0x00000000)  returns 0x00 (0000ms, 0636ms total)
T0760 000:803 JLINK_WriteReg(R12, 0x00000000)  returns 0x00 (0000ms, 0636ms total)
T0760 000:803 JLINK_WriteReg(R13 (SP), 0x20000800)  returns 0x00 (0000ms, 0636ms total)
T0760 000:803 JLINK_WriteReg(R14, 0x20000001)  returns 0x00 (0000ms, 0636ms total)
T0760 000:803 JLINK_WriteReg(R15 (PC), 0x2000005A)  returns 0x00 (0000ms, 0636ms total)
T0760 000:803 JLINK_WriteReg(XPSR, 0x01000000)  returns 0x00 (0000ms, 0636ms total)
T0760 000:803 JLINK_WriteReg(MSP, 0x20000800)  returns 0x00 (0000ms, 0636ms total)
T0760 000:803 JLINK_WriteReg(PSP, 0x20000800)  returns 0x00 (0000ms, 0636ms total)
T0760 000:803 JLINK_WriteReg(CFBP, 0x00000000)  returns 0x00 (0000ms, 0636ms total)
T0760 000:804 JLINK_SetBPEx(Addr = 0x20000000, Type = 0xFFFFFFF2)  returns 0x00000008 (0000ms, 0636ms total)
T0760 000:804 JLINK_Go() -- CPU_ReadMem(4 bytes @ 0xE0001000) -- CPU_WriteMem(4 bytes @ 0xE0001000) (0003ms, 0639ms total)
T0760 000:807 JLINK_IsHalted() -- CPU_ReadMem(2 bytes @ 0x20000000)  returns TRUE (0002ms, 0641ms total)
T0760 000:809 JLINK_ReadReg(R15 (PC))  returns 0x20000000 (0001ms, 0640ms total)
T0760 000:810 JLINK_ClrBPEx(BPHandle = 0x00000008)  returns 0x00 (0000ms, 0640ms total)
T0760 000:810 JLINK_ReadReg(R0)  returns 0x00000000 (0000ms, 0640ms total)
T0760 000:870 JLINK_WriteMem(0x20000000, 0x0180 Bytes, ...) - Data: 00 BE 0A E0 0D 78 2D 06 68 40 08 24 40 00 00 D3 ... -- CPU_WriteMem(384 bytes @ 0x20000000)  returns 0x180 (0003ms, 0643ms total)
T0760 000:873 JLINK_WriteReg(R0, 0x00000000)  returns 0x00 (0000ms, 0643ms total)
T0760 000:873 JLINK_WriteReg(R1, 0x00B71B00)  returns 0x00 (0000ms, 0643ms total)
T0760 000:873 JLINK_WriteReg(R2, 0x00000002)  returns 0x00 (0000ms, 0643ms total)
T0760 000:873 JLINK_WriteReg(R3, 0x00000000)  returns 0x00 (0000ms, 0643ms total)
T0760 000:873 JLINK_WriteReg(R4, 0x00000000)  returns 0x00 (0000ms, 0643ms total)
T0760 000:873 JLINK_WriteReg(R5, 0x00000000)  returns 0x00 (0000ms, 0643ms total)
T0760 000:873 JLINK_WriteReg(R6, 0x00000000)  returns 0x00 (0000ms, 0643ms total)
T0760 000:873 JLINK_WriteReg(R7, 0x00000000)  returns 0x00 (0000ms, 0643ms total)
T0760 000:873 JLINK_WriteReg(R8, 0x00000000)  returns 0x00 (0000ms, 0643ms total)
T0760 000:873 JLINK_WriteReg(R9, 0x2000017C)  returns 0x00 (0000ms, 0643ms total)
T0760 000:873 JLINK_WriteReg(R10, 0x00000000)  returns 0x00 (0000ms, 0643ms total)
T0760 000:873 JLINK_WriteReg(R11, 0x00000000)  returns 0x00 (0000ms, 0643ms total)
T0760 000:873 JLINK_WriteReg(R12, 0x00000000)  returns 0x00 (0000ms, 0643ms total)
T0760 000:873 JLINK_WriteReg(R13 (SP), 0x20000800)  returns 0x00 (0000ms, 0643ms total)
T0760 000:873 JLINK_WriteReg(R14, 0x20000001)  returns 0x00 (0000ms, 0643ms total)
T0760 000:873 JLINK_WriteReg(R15 (PC), 0x20000038)  returns 0x00 (0000ms, 0643ms total)
T0760 000:873 JLINK_WriteReg(XPSR, 0x01000000)  returns 0x00 (0000ms, 0643ms total)
T0760 000:873 JLINK_WriteReg(MSP, 0x20000800)  returns 0x00 (0000ms, 0643ms total)
T0760 000:873 JLINK_WriteReg(PSP, 0x20000800)  returns 0x00 (0000ms, 0643ms total)
T0760 000:873 JLINK_WriteReg(CFBP, 0x00000000)  returns 0x00 (0000ms, 0643ms total)
T0760 000:873 JLINK_SetBPEx(Addr = 0x20000000, Type = 0xFFFFFFF2) -- CPU_ReadMem(4 bytes @ 0x20000000) -- CPU_WriteMem(4 bytes @ 0x20000000) -- CPU_ReadMem(4 bytes @ 0x20000000) -- CPU_WriteMem(4 bytes @ 0x20000000) -- CPU_ReadMem(2 bytes @ 0x20000000)  returns 0x00000009 (0003ms, 0646ms total)
T0760 000:876 JLINK_Go() -- CPU_WriteMem(2 bytes @ 0x20000000) -- CPU_ReadMem(4 bytes @ 0xE0001000) -- CPU_WriteMem(4 bytes @ 0xE0001000) (0002ms, 0648ms total)
T0760 000:878 JLINK_IsHalted() -- CPU_ReadMem(2 bytes @ 0x20000000)  returns TRUE (0003ms, 0651ms total)
T0760 000:881 JLINK_ReadReg(R15 (PC))  returns 0x20000000 (0000ms, 0648ms total)
T0760 000:881 JLINK_ClrBPEx(BPHandle = 0x00000009)  returns 0x00 (0000ms, 0648ms total)
T0760 000:881 JLINK_ReadReg(R0)  returns 0x00000000 (0000ms, 0648ms total)
T0760 000:882 JLINK_WriteMem(0x20000180, 0x0200 Bytes, ...) - Data: 88 01 00 20 81 00 00 00 89 00 00 00 59 02 00 00 ... -- CPU_WriteMem(512 bytes @ 0x20000180)  returns 0x200 (0002ms, 0650ms total)
T0760 000:884 JLINK_WriteReg(R0, 0x00000000)  returns 0x00 (0000ms, 0650ms total)
T0760 000:884 JLINK_WriteReg(R1, 0x00000200)  returns 0x00 (0000ms, 0650ms total)
T0760 000:884 JLINK_WriteReg(R2, 0x20000180)  returns 0x00 (0000ms, 0650ms total)
T0760 000:884 JLINK_WriteReg(R3, 0x00000000)  returns 0x00 (0000ms, 0650ms total)
T0760 000:884 JLINK_WriteReg(R4, 0x00000000)  returns 0x00 (0000ms, 0650ms total)
T0760 000:884 JLINK_WriteReg(R5, 0x00000000)  returns 0x00 (0000ms, 0650ms total)
T0760 000:884 JLINK_WriteReg(R6, 0x00000000)  returns 0x00 (0000ms, 0650ms total)
T0760 000:884 JLINK_WriteReg(R7, 0x00000000)  returns 0x00 (0000ms, 0650ms total)
T0760 000:884 JLINK_WriteReg(R8, 0x00000000)  returns 0x00 (0000ms, 0650ms total)
T0760 000:884 JLINK_WriteReg(R9, 0x2000017C)  returns 0x00 (0001ms, 0651ms total)
T0760 000:885 JLINK_WriteReg(R10, 0x00000000)  returns 0x00 (0000ms, 0651ms total)
T0760 000:885 JLINK_WriteReg(R11, 0x00000000)  returns 0x00 (0000ms, 0651ms total)
T0760 000:885 JLINK_WriteReg(R12, 0x00000000)  returns 0x00 (0000ms, 0651ms total)
T0760 000:885 JLINK_WriteReg(R13 (SP), 0x20000800)  returns 0x00 (0000ms, 0651ms total)
T0760 000:885 JLINK_WriteReg(R14, 0x20000001)  returns 0x00 (0000ms, 0651ms total)
T0760 000:885 JLINK_WriteReg(R15 (PC), 0x20000132)  returns 0x00 (0000ms, 0651ms total)
T0760 000:885 JLINK_WriteReg(XPSR, 0x01000000)  returns 0x00 (0000ms, 0651ms total)
T0760 000:885 JLINK_WriteReg(MSP, 0x20000800)  returns 0x00 (0000ms, 0651ms total)
T0760 000:885 JLINK_WriteReg(PSP, 0x20000800)  returns 0x00 (0000ms, 0651ms total)
T0760 000:885 JLINK_WriteReg(CFBP, 0x00000000)  returns 0x00 (0000ms, 0651ms total)
T0760 000:885 JLINK_SetBPEx(Addr = 0x20000000, Type = 0xFFFFFFF2)  returns 0x0000000A (0000ms, 0651ms total)
T0760 000:885 JLINK_Go() -- CPU_ReadMem(4 bytes @ 0xE0001000) -- CPU_WriteMem(4 bytes @ 0xE0001000) (0002ms, 0653ms total)
T0760 000:887 JLINK_IsHalted()  returns FALSE (0001ms, 0654ms total)
T0760 000:891 JLINK_IsHalted() -- CPU_ReadMem(2 bytes @ 0x20000000)  returns TRUE (0003ms, 0656ms total)
T0760 000:894 JLINK_ReadReg(R15 (PC))  returns 0x20000000 (0000ms, 0653ms total)
T0760 000:894 JLINK_ClrBPEx(BPHandle = 0x0000000A)  returns 0x00 (0000ms, 0653ms total)
T0760 000:894 JLINK_ReadReg(R0)  returns 0x00000000 (0000ms, 0653ms total)
T0760 000:894 JLINK_WriteMem(0x20000180, 0x0200 Bytes, ...) - Data: 70 B5 02 46 0B 46 0F 4D 2D 68 95 43 0D 4E 35 60 ... -- CPU_WriteMem(512 bytes @ 0x20000180)  returns 0x200 (0004ms, 0657ms total)
T0760 000:898 JLINK_WriteReg(R0, 0x00000200)  returns 0x00 (0000ms, 0657ms total)
T0760 000:898 JLINK_WriteReg(R1, 0x00000200)  returns 0x00 (0000ms, 0657ms total)
T0760 000:898 JLINK_WriteReg(R2, 0x20000180)  returns 0x00 (0000ms, 0657ms total)
T0760 000:898 JLINK_WriteReg(R3, 0x00000000)  returns 0x00 (0000ms, 0657ms total)
T0760 000:898 JLINK_WriteReg(R4, 0x00000000)  returns 0x00 (0000ms, 0657ms total)
T0760 000:898 JLINK_WriteReg(R5, 0x00000000)  returns 0x00 (0000ms, 0657ms total)
T0760 000:898 JLINK_WriteReg(R6, 0x00000000)  returns 0x00 (0000ms, 0657ms total)
T0760 000:898 JLINK_WriteReg(R7, 0x00000000)  returns 0x00 (0000ms, 0657ms total)
T0760 000:898 JLINK_WriteReg(R8, 0x00000000)  returns 0x00 (0000ms, 0657ms total)
T0760 000:898 JLINK_WriteReg(R9, 0x2000017C)  returns 0x00 (0000ms, 0657ms total)
T0760 000:898 JLINK_WriteReg(R10, 0x00000000)  returns 0x00 (0000ms, 0657ms total)
T0760 000:898 JLINK_WriteReg(R11, 0x00000000)  returns 0x00 (0000ms, 0657ms total)
T0760 000:898 JLINK_WriteReg(R12, 0x00000000)  returns 0x00 (0000ms, 0657ms total)
T0760 000:898 JLINK_WriteReg(R13 (SP), 0x20000800)  returns 0x00 (0000ms, 0657ms total)
T0760 000:898 JLINK_WriteReg(R14, 0x20000001)  returns 0x00 (0000ms, 0657ms total)
T0760 000:898 JLINK_WriteReg(R15 (PC), 0x20000132)  returns 0x00 (0000ms, 0657ms total)
T0760 000:898 JLINK_WriteReg(XPSR, 0x01000000)  returns 0x00 (0000ms, 0657ms total)
T0760 000:898 JLINK_WriteReg(MSP, 0x20000800)  returns 0x00 (0000ms, 0657ms total)
T0760 000:898 JLINK_WriteReg(PSP, 0x20000800)  returns 0x00 (0000ms, 0657ms total)
T0760 000:898 JLINK_WriteReg(CFBP, 0x00000000)  returns 0x00 (0000ms, 0657ms total)
T0760 000:898 JLINK_SetBPEx(Addr = 0x20000000, Type = 0xFFFFFFF2)  returns 0x0000000B (0000ms, 0657ms total)
T0760 000:898 JLINK_Go() -- CPU_ReadMem(4 bytes @ 0xE0001000) -- CPU_WriteMem(4 bytes @ 0xE0001000) (0003ms, 0660ms total)
T0760 000:901 JLINK_IsHalted()  returns FALSE (0002ms, 0662ms total)
T0760 000:904 JLINK_IsHalted() -- CPU_ReadMem(2 bytes @ 0x20000000)  returns TRUE (0003ms, 0663ms total)
T0760 000:907 JLINK_ReadReg(R15 (PC))  returns 0x20000000 (0000ms, 0660ms total)
T0760 000:907 JLINK_ClrBPEx(BPHandle = 0x0000000B)  returns 0x00 (0000ms, 0660ms total)
T0760 000:907 JLINK_ReadReg(R0)  returns 0x00000000 (0000ms, 0660ms total)
T0760 000:908 JLINK_WriteMem(0x20000180, 0x0200 Bytes, ...) - Data: 80 02 FF F7 9F FE 03 E0 01 20 80 02 FF F7 E6 FE ... -- CPU_WriteMem(512 bytes @ 0x20000180)  returns 0x200 (0004ms, 0664ms total)
T0760 000:912 JLINK_WriteReg(R0, 0x00000400)  returns 0x00 (0000ms, 0664ms total)
T0760 000:912 JLINK_WriteReg(R1, 0x00000040)  returns 0x00 (0000ms, 0664ms total)
T0760 000:912 JLINK_WriteReg(R2, 0x20000180)  returns 0x00 (0000ms, 0664ms total)
T0760 000:912 JLINK_WriteReg(R3, 0x00000000)  returns 0x00 (0000ms, 0664ms total)
T0760 000:912 JLINK_WriteReg(R4, 0x00000000)  returns 0x00 (0000ms, 0664ms total)
T0760 000:912 JLINK_WriteReg(R5, 0x00000000)  returns 0x00 (0000ms, 0664ms total)
T0760 000:912 JLINK_WriteReg(R6, 0x00000000)  returns 0x00 (0000ms, 0664ms total)
T0760 000:912 JLINK_WriteReg(R7, 0x00000000)  returns 0x00 (0000ms, 0664ms total)
T0760 000:912 JLINK_WriteReg(R8, 0x00000000)  returns 0x00 (0000ms, 0664ms total)
T0760 000:912 JLINK_WriteReg(R9, 0x2000017C)  returns 0x00 (0000ms, 0664ms total)
T0760 000:912 JLINK_WriteReg(R10, 0x00000000)  returns 0x00 (0000ms, 0664ms total)
T0760 000:912 JLINK_WriteReg(R11, 0x00000000)  returns 0x00 (0000ms, 0664ms total)
T0760 000:912 JLINK_WriteReg(R12, 0x00000000)  returns 0x00 (0000ms, 0664ms total)
T0760 000:912 JLINK_WriteReg(R13 (SP), 0x20000800)  returns 0x00 (0000ms, 0664ms total)
T0760 000:912 JLINK_WriteReg(R14, 0x20000001)  returns 0x00 (0000ms, 0664ms total)
T0760 000:912 JLINK_WriteReg(R15 (PC), 0x20000132)  returns 0x00 (0000ms, 0664ms total)
T0760 000:912 JLINK_WriteReg(XPSR, 0x01000000)  returns 0x00 (0000ms, 0664ms total)
T0760 000:912 JLINK_WriteReg(MSP, 0x20000800)  returns 0x00 (0000ms, 0664ms total)
T0760 000:912 JLINK_WriteReg(PSP, 0x20000800)  returns 0x00 (0000ms, 0664ms total)
T0760 000:912 JLINK_WriteReg(CFBP, 0x00000000)  returns 0x00 (0000ms, 0664ms total)
T0760 000:912 JLINK_SetBPEx(Addr = 0x20000000, Type = 0xFFFFFFF2)  returns 0x0000000C (0000ms, 0664ms total)
T0760 000:912 JLINK_Go() -- CPU_ReadMem(4 bytes @ 0xE0001000) -- CPU_WriteMem(4 bytes @ 0xE0001000) (0003ms, 0667ms total)
T0760 000:915 JLINK_IsHalted() -- CPU_ReadMem(2 bytes @ 0x20000000)  returns TRUE (0002ms, 0669ms total)
T0760 000:917 JLINK_ReadReg(R15 (PC))  returns 0x20000000 (0000ms, 0667ms total)
T0760 000:917 JLINK_ClrBPEx(BPHandle = 0x0000000C)  returns 0x00 (0000ms, 0667ms total)
T0760 000:917 JLINK_ReadReg(R0)  returns 0x00000000 (0000ms, 0667ms total)
T0760 000:917 JLINK_WriteReg(R0, 0x00000002)  returns 0x00 (0000ms, 0667ms total)
T0760 000:917 JLINK_WriteReg(R1, 0x00000040)  returns 0x00 (0000ms, 0667ms total)
T0760 000:917 JLINK_WriteReg(R2, 0x20000180)  returns 0x00 (0000ms, 0667ms total)
T0760 000:918 JLINK_WriteReg(R3, 0x00000000)  returns 0x00 (0000ms, 0667ms total)
T0760 000:918 JLINK_WriteReg(R4, 0x00000000)  returns 0x00 (0000ms, 0667ms total)
T0760 000:918 JLINK_WriteReg(R5, 0x00000000)  returns 0x00 (0000ms, 0667ms total)
T0760 000:918 JLINK_WriteReg(R6, 0x00000000)  returns 0x00 (0000ms, 0667ms total)
T0760 000:918 JLINK_WriteReg(R7, 0x00000000)  returns 0x00 (0000ms, 0667ms total)
T0760 000:918 JLINK_WriteReg(R8, 0x00000000)  returns 0x00 (0000ms, 0667ms total)
T0760 000:918 JLINK_WriteReg(R9, 0x2000017C)  returns 0x00 (0000ms, 0667ms total)
T0760 000:918 JLINK_WriteReg(R10, 0x00000000)  returns 0x00 (0000ms, 0667ms total)
T0760 000:918 JLINK_WriteReg(R11, 0x00000000)  returns 0x00 (0000ms, 0667ms total)
T0760 000:918 JLINK_WriteReg(R12, 0x00000000)  returns 0x00 (0000ms, 0667ms total)
T0760 000:918 JLINK_WriteReg(R13 (SP), 0x20000800)  returns 0x00 (0000ms, 0667ms total)
T0760 000:918 JLINK_WriteReg(R14, 0x20000001)  returns 0x00 (0000ms, 0667ms total)
T0760 000:918 JLINK_WriteReg(R15 (PC), 0x2000005A)  returns 0x00 (0000ms, 0667ms total)
T0760 000:918 JLINK_WriteReg(XPSR, 0x01000000)  returns 0x00 (0000ms, 0667ms total)
T0760 000:918 JLINK_WriteReg(MSP, 0x20000800)  returns 0x00 (0000ms, 0667ms total)
T0760 000:918 JLINK_WriteReg(PSP, 0x20000800)  returns 0x00 (0000ms, 0667ms total)
T0760 000:918 JLINK_WriteReg(CFBP, 0x00000000)  returns 0x00 (0000ms, 0667ms total)
T0760 000:918 JLINK_SetBPEx(Addr = 0x20000000, Type = 0xFFFFFFF2)  returns 0x0000000D (0000ms, 0667ms total)
T0760 000:918 JLINK_Go() -- CPU_ReadMem(4 bytes @ 0xE0001000) -- CPU_WriteMem(4 bytes @ 0xE0001000) (0003ms, 0670ms total)
T0760 000:921 JLINK_IsHalted() -- CPU_ReadMem(2 bytes @ 0x20000000)  returns TRUE (0003ms, 0673ms total)
T0760 000:924 JLINK_ReadReg(R15 (PC))  returns 0x20000000 (0000ms, 0670ms total)
T0760 000:924 JLINK_ClrBPEx(BPHandle = 0x0000000D)  returns 0x00 (0000ms, 0670ms total)
T0760 000:924 JLINK_ReadReg(R0)  returns 0x00000000 (0000ms, 0670ms total)
T0760 000:985 JLINK_WriteMem(0x20000000, 0x0180 Bytes, ...) - Data: 00 BE 0A E0 0D 78 2D 06 68 40 08 24 40 00 00 D3 ... -- CPU_WriteMem(384 bytes @ 0x20000000)  returns 0x180 (0003ms, 0673ms total)
T0760 000:988 JLINK_WriteReg(R0, 0x00000000)  returns 0x00 (0000ms, 0673ms total)
T0760 000:988 JLINK_WriteReg(R1, 0x00B71B00)  returns 0x00 (0000ms, 0673ms total)
T0760 000:988 JLINK_WriteReg(R2, 0x00000003)  returns 0x00 (0000ms, 0673ms total)
T0760 000:988 JLINK_WriteReg(R3, 0x00000000)  returns 0x00 (0000ms, 0673ms total)
T0760 000:988 JLINK_WriteReg(R4, 0x00000000)  returns 0x00 (0000ms, 0673ms total)
T0760 000:988 JLINK_WriteReg(R5, 0x00000000)  returns 0x00 (0000ms, 0673ms total)
T0760 000:988 JLINK_WriteReg(R6, 0x00000000)  returns 0x00 (0000ms, 0673ms total)
T0760 000:988 JLINK_WriteReg(R7, 0x00000000)  returns 0x00 (0000ms, 0673ms total)
T0760 000:989 JLINK_WriteReg(R8, 0x00000000)  returns 0x00 (0000ms, 0673ms total)
T0760 000:989 JLINK_WriteReg(R9, 0x2000017C)  returns 0x00 (0000ms, 0673ms total)
T0760 000:989 JLINK_WriteReg(R10, 0x00000000)  returns 0x00 (0000ms, 0673ms total)
T0760 000:989 JLINK_WriteReg(R11, 0x00000000)  returns 0x00 (0000ms, 0673ms total)
T0760 000:989 JLINK_WriteReg(R12, 0x00000000)  returns 0x00 (0000ms, 0673ms total)
T0760 000:989 JLINK_WriteReg(R13 (SP), 0x20000800)  returns 0x00 (0000ms, 0673ms total)
T0760 000:989 JLINK_WriteReg(R14, 0x20000001)  returns 0x00 (0000ms, 0673ms total)
T0760 000:989 JLINK_WriteReg(R15 (PC), 0x20000038)  returns 0x00 (0000ms, 0673ms total)
T0760 000:989 JLINK_WriteReg(XPSR, 0x01000000)  returns 0x00 (0000ms, 0673ms total)
T0760 000:989 JLINK_WriteReg(MSP, 0x20000800)  returns 0x00 (0000ms, 0673ms total)
T0760 000:989 JLINK_WriteReg(PSP, 0x20000800)  returns 0x00 (0000ms, 0673ms total)
T0760 000:989 JLINK_WriteReg(CFBP, 0x00000000)  returns 0x00 (0000ms, 0673ms total)
T0760 000:989 JLINK_SetBPEx(Addr = 0x20000000, Type = 0xFFFFFFF2) -- CPU_ReadMem(4 bytes @ 0x20000000) -- CPU_WriteMem(4 bytes @ 0x20000000) -- CPU_ReadMem(4 bytes @ 0x20000000) -- CPU_WriteMem(4 bytes @ 0x20000000) -- CPU_ReadMem(2 bytes @ 0x20000000)  returns 0x0000000E (0002ms, 0675ms total)
T0760 000:991 JLINK_Go() -- CPU_WriteMem(2 bytes @ 0x20000000) -- CPU_ReadMem(4 bytes @ 0xE0001000) -- CPU_WriteMem(4 bytes @ 0xE0001000) (0004ms, 0679ms total)
T0760 000:995 JLINK_IsHalted() -- CPU_ReadMem(2 bytes @ 0x20000000)  returns TRUE (0002ms, 0681ms total)
T0760 000:997 JLINK_ReadReg(R15 (PC))  returns 0x20000000 (0000ms, 0679ms total)
T0760 000:997 JLINK_ClrBPEx(BPHandle = 0x0000000E)  returns 0x00 (0001ms, 0680ms total)
T0760 000:998 JLINK_ReadReg(R0)  returns 0x00000000 (0000ms, 0680ms total)
T0760 000:998 JLINK_WriteMem(0x20000180, 0x0200 Bytes, ...) - Data: 88 01 00 20 81 00 00 00 89 00 00 00 59 02 00 00 ... -- CPU_WriteMem(512 bytes @ 0x20000180)  returns 0x200 (0002ms, 0682ms total)
T0760 001:000 JLINK_WriteReg(R0, 0x00000000)  returns 0x00 (0000ms, 0682ms total)
T0760 001:000 JLINK_WriteReg(R1, 0x00000200)  returns 0x00 (0000ms, 0682ms total)
T0760 001:000 JLINK_WriteReg(R2, 0x20000180)  returns 0x00 (0000ms, 0682ms total)
T0760 001:000 JLINK_WriteReg(R3, 0x00000000)  returns 0x00 (0000ms, 0682ms total)
T0760 001:000 JLINK_WriteReg(R4, 0x00000000)  returns 0x00 (0000ms, 0682ms total)
T0760 001:000 JLINK_WriteReg(R5, 0x00000000)  returns 0x00 (0000ms, 0682ms total)
T0760 001:000 JLINK_WriteReg(R6, 0x00000000)  returns 0x00 (0000ms, 0682ms total)
T0760 001:000 JLINK_WriteReg(R7, 0x00000000)  returns 0x00 (0000ms, 0682ms total)
T0760 001:000 JLINK_WriteReg(R8, 0x00000000)  returns 0x00 (0000ms, 0682ms total)
T0760 001:000 JLINK_WriteReg(R9, 0x2000017C)  returns 0x00 (0000ms, 0682ms total)
T0760 001:000 JLINK_WriteReg(R10, 0x00000000)  returns 0x00 (0000ms, 0682ms total)
T0760 001:000 JLINK_WriteReg(R11, 0x00000000)  returns 0x00 (0000ms, 0682ms total)
T0760 001:000 JLINK_WriteReg(R12, 0x00000000)  returns 0x00 (0000ms, 0682ms total)
T0760 001:000 JLINK_WriteReg(R13 (SP), 0x20000800)  returns 0x00 (0001ms, 0683ms total)
T0760 001:001 JLINK_WriteReg(R14, 0x20000001)  returns 0x00 (0000ms, 0683ms total)
T0760 001:001 JLINK_WriteReg(R15 (PC), 0x20000148)  returns 0x00 (0000ms, 0683ms total)
T0760 001:001 JLINK_WriteReg(XPSR, 0x01000000)  returns 0x00 (0000ms, 0683ms total)
T0760 001:001 JLINK_WriteReg(MSP, 0x20000800)  returns 0x00 (0000ms, 0683ms total)
T0760 001:001 JLINK_WriteReg(PSP, 0x20000800)  returns 0x00 (0000ms, 0683ms total)
T0760 001:001 JLINK_WriteReg(CFBP, 0x00000000)  returns 0x00 (0000ms, 0683ms total)
T0760 001:001 JLINK_SetBPEx(Addr = 0x20000000, Type = 0xFFFFFFF2)  returns 0x0000000F (0000ms, 0683ms total)
T0760 001:001 JLINK_Go() -- CPU_ReadMem(4 bytes @ 0xE0001000) -- CPU_WriteMem(4 bytes @ 0xE0001000) (0003ms, 0686ms total)
T0760 001:004 JLINK_IsHalted() -- CPU_ReadMem(2 bytes @ 0x20000000)  returns TRUE (0004ms, 0690ms total)
T0760 001:008 JLINK_ReadReg(R15 (PC))  returns 0x20000000 (0000ms, 0686ms total)
T0760 001:008 JLINK_ClrBPEx(BPHandle = 0x0000000F)  returns 0x00 (0000ms, 0686ms total)
T0760 001:008 JLINK_ReadReg(R0)  returns 0x00000200 (0000ms, 0686ms total)
T0760 001:009 JLINK_WriteMem(0x20000180, 0x0200 Bytes, ...) - Data: 70 B5 02 46 0B 46 0F 4D 2D 68 95 43 0D 4E 35 60 ... -- CPU_WriteMem(512 bytes @ 0x20000180)  returns 0x200 (0003ms, 0689ms total)
T0760 001:012 JLINK_WriteReg(R0, 0x00000200)  returns 0x00 (0000ms, 0689ms total)
T0760 001:012 JLINK_WriteReg(R1, 0x00000200)  returns 0x00 (0000ms, 0689ms total)
T0760 001:012 JLINK_WriteReg(R2, 0x20000180)  returns 0x00 (0000ms, 0689ms total)
T0760 001:012 JLINK_WriteReg(R3, 0x00000000)  returns 0x00 (0000ms, 0689ms total)
T0760 001:012 JLINK_WriteReg(R4, 0x00000000)  returns 0x00 (0000ms, 0689ms total)
T0760 001:012 JLINK_WriteReg(R5, 0x00000000)  returns 0x00 (0000ms, 0689ms total)
T0760 001:012 JLINK_WriteReg(R6, 0x00000000)  returns 0x00 (0000ms, 0689ms total)
T0760 001:012 JLINK_WriteReg(R7, 0x00000000)  returns 0x00 (0000ms, 0689ms total)
T0760 001:012 JLINK_WriteReg(R8, 0x00000000)  returns 0x00 (0000ms, 0689ms total)
T0760 001:012 JLINK_WriteReg(R9, 0x2000017C)  returns 0x00 (0000ms, 0689ms total)
T0760 001:012 JLINK_WriteReg(R10, 0x00000000)  returns 0x00 (0000ms, 0689ms total)
T0760 001:012 JLINK_WriteReg(R11, 0x00000000)  returns 0x00 (0000ms, 0689ms total)
T0760 001:012 JLINK_WriteReg(R12, 0x00000000)  returns 0x00 (0000ms, 0689ms total)
T0760 001:012 JLINK_WriteReg(R13 (SP), 0x20000800)  returns 0x00 (0000ms, 0689ms total)
T0760 001:012 JLINK_WriteReg(R14, 0x20000001)  returns 0x00 (0000ms, 0689ms total)
T0760 001:012 JLINK_WriteReg(R15 (PC), 0x20000148)  returns 0x00 (0000ms, 0689ms total)
T0760 001:012 JLINK_WriteReg(XPSR, 0x01000000)  returns 0x00 (0000ms, 0689ms total)
T0760 001:012 JLINK_WriteReg(MSP, 0x20000800)  returns 0x00 (0000ms, 0689ms total)
T0760 001:012 JLINK_WriteReg(PSP, 0x20000800)  returns 0x00 (0000ms, 0689ms total)
T0760 001:012 JLINK_WriteReg(CFBP, 0x00000000)  returns 0x00 (0000ms, 0689ms total)
T0760 001:012 JLINK_SetBPEx(Addr = 0x20000000, Type = 0xFFFFFFF2)  returns 0x00000010 (0000ms, 0689ms total)
T0760 001:012 JLINK_Go() -- CPU_ReadMem(4 bytes @ 0xE0001000) -- CPU_WriteMem(4 bytes @ 0xE0001000) (0004ms, 0693ms total)
T0760 001:016 JLINK_IsHalted() -- CPU_ReadMem(2 bytes @ 0x20000000)  returns TRUE (0004ms, 0697ms total)
T0760 001:020 JLINK_ReadReg(R15 (PC))  returns 0x20000000 (0000ms, 0693ms total)
T0760 001:020 JLINK_ClrBPEx(BPHandle = 0x00000010)  returns 0x00 (0000ms, 0693ms total)
T0760 001:020 JLINK_ReadReg(R0)  returns 0x00000400 (0000ms, 0693ms total)
T0760 001:021 JLINK_WriteMem(0x20000180, 0x0200 Bytes, ...) - Data: 80 02 FF F7 9F FE 03 E0 01 20 80 02 FF F7 E6 FE ... -- CPU_WriteMem(512 bytes @ 0x20000180)  returns 0x200 (0003ms, 0696ms total)
T0760 001:024 JLINK_WriteReg(R0, 0x00000400)  returns 0x00 (0000ms, 0696ms total)
T0760 001:024 JLINK_WriteReg(R1, 0x00000040)  returns 0x00 (0000ms, 0696ms total)
T0760 001:024 JLINK_WriteReg(R2, 0x20000180)  returns 0x00 (0000ms, 0696ms total)
T0760 001:024 JLINK_WriteReg(R3, 0x00000000)  returns 0x00 (0000ms, 0696ms total)
T0760 001:024 JLINK_WriteReg(R4, 0x00000000)  returns 0x00 (0000ms, 0696ms total)
T0760 001:024 JLINK_WriteReg(R5, 0x00000000)  returns 0x00 (0000ms, 0696ms total)
T0760 001:024 JLINK_WriteReg(R6, 0x00000000)  returns 0x00 (0000ms, 0696ms total)
T0760 001:024 JLINK_WriteReg(R7, 0x00000000)  returns 0x00 (0000ms, 0696ms total)
T0760 001:024 JLINK_WriteReg(R8, 0x00000000)  returns 0x00 (0000ms, 0696ms total)
T0760 001:024 JLINK_WriteReg(R9, 0x2000017C)  returns 0x00 (0000ms, 0696ms total)
T0760 001:024 JLINK_WriteReg(R10, 0x00000000)  returns 0x00 (0000ms, 0696ms total)
T0760 001:024 JLINK_WriteReg(R11, 0x00000000)  returns 0x00 (0000ms, 0696ms total)
T0760 001:024 JLINK_WriteReg(R12, 0x00000000)  returns 0x00 (0000ms, 0696ms total)
T0760 001:024 JLINK_WriteReg(R13 (SP), 0x20000800)  returns 0x00 (0000ms, 0696ms total)
T0760 001:024 JLINK_WriteReg(R14, 0x20000001)  returns 0x00 (0000ms, 0696ms total)
T0760 001:024 JLINK_WriteReg(R15 (PC), 0x20000148)  returns 0x00 (0000ms, 0696ms total)
T0760 001:024 JLINK_WriteReg(XPSR, 0x01000000)  returns 0x00 (0000ms, 0696ms total)
T0760 001:024 JLINK_WriteReg(MSP, 0x20000800)  returns 0x00 (0000ms, 0696ms total)
T0760 001:024 JLINK_WriteReg(PSP, 0x20000800)  returns 0x00 (0000ms, 0696ms total)
T0760 001:024 JLINK_WriteReg(CFBP, 0x00000000)  returns 0x00 (0000ms, 0696ms total)
T0760 001:024 JLINK_SetBPEx(Addr = 0x20000000, Type = 0xFFFFFFF2)  returns 0x00000011 (0000ms, 0696ms total)
T0760 001:024 JLINK_Go() -- CPU_ReadMem(4 bytes @ 0xE0001000) -- CPU_WriteMem(4 bytes @ 0xE0001000) (0003ms, 0699ms total)
T0760 001:027 JLINK_IsHalted() -- CPU_ReadMem(2 bytes @ 0x20000000)  returns TRUE (0003ms, 0702ms total)
T0760 001:030 JLINK_ReadReg(R15 (PC))  returns 0x20000000 (0000ms, 0699ms total)
T0760 001:030 JLINK_ClrBPEx(BPHandle = 0x00000011)  returns 0x00 (0000ms, 0699ms total)
T0760 001:030 JLINK_ReadReg(R0)  returns 0x00000440 (0000ms, 0699ms total)
T0760 001:034 JLINK_WriteReg(R0, 0x00000003)  returns 0x00 (0000ms, 0699ms total)
T0760 001:034 JLINK_WriteReg(R1, 0x00000040)  returns 0x00 (0000ms, 0699ms total)
T0760 001:034 JLINK_WriteReg(R2, 0x20000180)  returns 0x00 (0000ms, 0699ms total)
T0760 001:034 JLINK_WriteReg(R3, 0x00000000)  returns 0x00 (0000ms, 0699ms total)
T0760 001:034 JLINK_WriteReg(R4, 0x00000000)  returns 0x00 (0000ms, 0699ms total)
T0760 001:034 JLINK_WriteReg(R5, 0x00000000)  returns 0x00 (0000ms, 0699ms total)
T0760 001:034 JLINK_WriteReg(R6, 0x00000000)  returns 0x00 (0000ms, 0699ms total)
T0760 001:034 JLINK_WriteReg(R7, 0x00000000)  returns 0x00 (0000ms, 0699ms total)
T0760 001:034 JLINK_WriteReg(R8, 0x00000000)  returns 0x00 (0000ms, 0699ms total)
T0760 001:034 JLINK_WriteReg(R9, 0x2000017C)  returns 0x00 (0000ms, 0699ms total)
T0760 001:034 JLINK_WriteReg(R10, 0x00000000)  returns 0x00 (0000ms, 0699ms total)
T0760 001:034 JLINK_WriteReg(R11, 0x00000000)  returns 0x00 (0000ms, 0699ms total)
T0760 001:034 JLINK_WriteReg(R12, 0x00000000)  returns 0x00 (0000ms, 0699ms total)
T0760 001:034 JLINK_WriteReg(R13 (SP), 0x20000800)  returns 0x00 (0000ms, 0699ms total)
T0760 001:034 JLINK_WriteReg(R14, 0x20000001)  returns 0x00 (0000ms, 0699ms total)
T0760 001:034 JLINK_WriteReg(R15 (PC), 0x2000005A)  returns 0x00 (0000ms, 0699ms total)
T0760 001:034 JLINK_WriteReg(XPSR, 0x01000000)  returns 0x00 (0000ms, 0699ms total)
T0760 001:034 JLINK_WriteReg(MSP, 0x20000800)  returns 0x00 (0000ms, 0699ms total)
T0760 001:034 JLINK_WriteReg(PSP, 0x20000800)  returns 0x00 (0000ms, 0699ms total)
T0760 001:034 JLINK_WriteReg(CFBP, 0x00000000)  returns 0x00 (0000ms, 0699ms total)
T0760 001:034 JLINK_SetBPEx(Addr = 0x20000000, Type = 0xFFFFFFF2)  returns 0x00000012 (0000ms, 0699ms total)
T0760 001:034 JLINK_Go() -- CPU_ReadMem(4 bytes @ 0xE0001000) -- CPU_WriteMem(4 bytes @ 0xE0001000) (0002ms, 0701ms total)
T0760 001:036 JLINK_IsHalted() -- CPU_ReadMem(2 bytes @ 0x20000000)  returns TRUE (0004ms, 0705ms total)
T0760 001:040 JLINK_ReadReg(R15 (PC))  returns 0x20000000 (0000ms, 0701ms total)
T0760 001:040 JLINK_ClrBPEx(BPHandle = 0x00000012)  returns 0x00 (0000ms, 0701ms total)
T0760 001:040 JLINK_ReadReg(R0)  returns 0x00000000 (0000ms, 0701ms total)
T0760 001:096 JLINK_WriteMem(0x20000000, 0x0002 Bytes, ...) - Data: FE E7 -- CPU_WriteMem(2 bytes @ 0x20000000)  returns 0x02 (0001ms, 0702ms total)
T0760 001:097 JLINK_SetResetType(JLINKARM_RESET_TYPE_NORMAL)  returns JLINKARM_RESET_TYPE_NORMAL (0000ms, 0702ms total)
T0760 001:097 JLINK_Reset() -- CPU_ReadMem(4 bytes @ 0x20000180) -- CPU_WriteMem(4 bytes @ 0x20000180) -- CPU_WriteMem(4 bytes @ 0xE000EDF0) -- CPU_WriteMem(4 bytes @ 0xE000EDFC) >0x35 TIF> -- CPU_WriteMem(4 bytes @ 0xE000ED0C) -- CPU_ReadMem(4 bytes @ 0xE000EDF0) -- CPU_ReadMem(4 bytes @ 0xE000EDF0) -- CPU_WriteMem(4 bytes @ 0xE000EDF0) -- CPU_WriteMem(4 bytes @ 0xE000EDFC) -- CPU is running -- CPU_ReadMem(4 bytes @ 0xE000EDF0) -- CPU_WriteMem(4 bytes @ 0xE0002000) -- CPU_ReadMem(4 bytes @ 0xE000EDFC)
 -- CPU_ReadMem(4 bytes @ 0xE0001000) -- CPU_WriteMem(4 bytes @ 0xE0001000) (0019ms, 0721ms total)
T0760 001:116 JLINK_Go() -- CPU_ReadMem(4 bytes @ 0xE0001000) -- CPU_WriteMem(4 bytes @ 0xE0001000) -- CPU_WriteMem(4 bytes @ 0xE0002008) -- CPU_WriteMem(4 bytes @ 0xE000200C) -- CPU_WriteMem(4 bytes @ 0xE0002010) -- CPU_WriteMem(4 bytes @ 0xE0002014) -- CPU_WriteMem(4 bytes @ 0xE0001004) (0002ms, 0723ms total)
T0760 001:133 JLINK_Close() -- CPU is running -- CPU_WriteMem(4 bytes @ 0xE0002008) -- CPU is running -- CPU_WriteMem(4 bytes @ 0xE000200C) -- CPU is running -- CPU_WriteMem(4 bytes @ 0xE0002010) -- CPU is running -- CPU_WriteMem(4 bytes @ 0xE0002014) >0x42 TIF> >0x28 TIF> >0x0D TIF> >0x21 TIF> (0002ms, 0725ms total)
T0760 001:133  (0002ms, 0725ms total)
T0760 001:133 Closed (0002ms, 0725ms total)
