
T1BE0 000:283 SEGGER J-Link V5.12e Log File (0000ms, 0268ms total)
T1BE0 000:283 DLL Compiled: Apr 29 2016 15:03:58 (0000ms, 0268ms total)
T1BE0 000:283 Logging started @ 2023-10-09 15:12 (0000ms, 0268ms total)
T1BE0 000:284 JLINK_SetWarnOutHandler(...) (0000ms, 0269ms total)
T1BE0 000:284 JLINK_OpenEx(...)
Firmware: J-Link V9 compiled Jun  2 2222 22:22:22
Hardware: V9.40
S/N: 59401308
Feature(s): GDB, RDI, FlashBP, FlashDL, JFlash, RDDI  returns O.K. (0268ms, 0537ms total)
T1BE0 000:552 JLINK_SetErrorOutHandler(...) (0000ms, 0537ms total)
T1BE0 000:552 JLINK_ExecCommand("ProjectFile = "E:\0ProgramFile_Item\CompanyProducts\DG32F003xx_SDK\SDK\Exmaple\UART1\UART1_TxRx_Fifo\USER\MDK-ARM\JLinkSettings.ini"", ...)  returns 0x00 (0001ms, 0538ms total)
T1BE0 000:556 JLINK_ExecCommand("Device = Cortex-M0+", ...)Device "CORTEX-M0+" selected.  returns 0x00 (0001ms, 0539ms total)
T1BE0 000:557 JLINK_ExecCommand("DisableConnectionTimeout", ...)  returns 0x01 (0000ms, 0539ms total)
T1BE0 000:557 JLINK_GetHardwareVersion()  returns 0x16F30 (0000ms, 0539ms total)
T1BE0 000:557 JLINK_GetDLLVersion()  returns 51205 (0000ms, 0539ms total)
T1BE0 000:557 JLINK_GetFirmwareString(...) (0000ms, 0539ms total)
T1BE0 000:563 JLINK_GetDLLVersion()  returns 51205 (0000ms, 0539ms total)
T1BE0 000:563 JLINK_GetCompileDateTime() (0000ms, 0539ms total)
T1BE0 000:568 JLINK_GetFirmwareString(...) (0000ms, 0539ms total)
T1BE0 000:571 JLINK_GetHardwareVersion()  returns 0x16F30 (0000ms, 0539ms total)
T1BE0 000:578 JLINK_TIF_Select(JLINKARM_TIF_SWD)  returns 0x00 (0000ms, 0539ms total)
T1BE0 000:578 JLINK_SetSpeed(5000) (0000ms, 0539ms total)
T1BE0 000:578 JLINK_GetId() >0x108 TIF>Found SWD-DP with ID 0x0BC11477 >0x0D TIF> >0x28 TIF> >0x0D TIF> >0x28 TIF> >0x0D TIF> >0x28 TIF> >0x0D TIF> >0x28 TIF> >0x0D TIF> >0x21 TIF> >0x0D TIF> >0x28 TIF> >0x0D TIF> >0x28 TIF> >0x0D TIF> >0x21 TIF> >0x0D TIF> >0x21 TIF> >0x0D TIF> >0x21 TIF> >0x0D TIF> >0x28 TIF> >0x0D TIF> >0x28 TIF> >0x0D TIF> >0x28 TIF> >0x0D TIF> >0x21 TIF> >0x0D TIF> >0x21 TIF> >0x0D TIF> >0x28 TIF> >0x0D TIF> >0x21 TIF> >0x0D TIF> >0x21 TIF>Found Cortex-M0 r0p1, Little endian.
 -- CPU_ReadMem(4 bytes @ 0xE000EDF0) -- CPU_WriteMem(4 bytes @ 0xE000EDF0) -- CPU_ReadMem(4 bytes @ 0xE0002000)FPUnit: 4 code (BP) slots and 0 literal slots -- CPU_ReadMem(4 bytes @ 0xE000EDFC) -- CPU_WriteMem(4 bytes @ 0xE000EDFC) -- CPU_ReadMem(4 bytes @ 0xE0001000) -- CPU_WriteMem(4 bytes @ 0xE0001000)CoreSight components:ROMTbl 0 @ E00FF000 -- CPU_ReadMem(16 bytes @ 0xE00FF000) -- CPU_ReadMem(16 bytes @ 0xE000EFF0) -- CPU_ReadMem(16 bytes @ 0xE000EFE0)
ROMTbl 0 [0]: FFF0F000, CID: B105E00D, PID: 000BB008 SCS -- CPU_ReadMem(16 bytes @ 0xE0001FF0) -- CPU_ReadMem(16 bytes @ 0xE0001FE0)ROMTbl 0 [1]: FFF02000, CID: B105E00D, PID: 000BB00A DWT -- CPU_ReadMem(16 bytes @ 0xE0002FF0) -- CPU_ReadMem(16 bytes @ 0xE0002FE0)ROMTbl 0 [2]: FFF03000, CID: B105E00D, PID: 000BB00B FPB >0x0D TIF> >0x21 TIF>  returns 0x0BC11477 (0025ms, 0564ms total)
T1BE0 000:603 JLINK_GetDLLVersion()  returns 51205 (0000ms, 0564ms total)
T1BE0 000:603 JLINK_CORE_GetFound()  returns 0x60000FF (0000ms, 0564ms total)
T1BE0 000:603 JLINK_GetDebugInfo(0x100) -- Value=0xE00FF000  returns 0x00 (0000ms, 0564ms total)
T1BE0 000:604 JLINK_GetDebugInfo(0x100) -- Value=0xE00FF000  returns 0x00 (0001ms, 0565ms total)
T1BE0 000:605 JLINK_GetDebugInfo(0x101) -- Value=0x00000000  returns 0x00 (0000ms, 0565ms total)
T1BE0 000:605 JLINK_ReadMem (0xE0041FF0, 0x0010 Bytes, ...) -- CPU is running -- CPU_ReadMem(16 bytes @ 0xE0041FF0) - Data: 00 00 00 00 00 00 00 00 00 00 00 00 00 00 00 00  returns 0x00 (0000ms, 0565ms total)
T1BE0 000:605 JLINK_GetDebugInfo(0x102) -- Value=0x00000000  returns 0x00 (0000ms, 0565ms total)
T1BE0 000:605 JLINK_GetDebugInfo(0x103) -- Value=0x00000000  returns 0x00 (0000ms, 0565ms total)
T1BE0 000:605 JLINK_ReadMem (0xE0040FF0, 0x0010 Bytes, ...) -- CPU is running -- CPU_ReadMem(16 bytes @ 0xE0040FF0) - Data: 00 00 00 00 00 00 00 00 00 00 00 00 00 00 00 00  returns 0x00 (0000ms, 0565ms total)
T1BE0 000:605 JLINK_GetDebugInfo(0x104) -- Value=0xE0000000  returns 0x00 (0000ms, 0565ms total)
T1BE0 000:605 JLINK_GetDebugInfo(0x105) -- Value=0xE0001000  returns 0x00 (0000ms, 0565ms total)
T1BE0 000:605 JLINK_GetDebugInfo(0x106) -- Value=0xE0002000  returns 0x00 (0000ms, 0565ms total)
T1BE0 000:605 JLINK_GetDebugInfo(0x107) -- Value=0xE000E000  returns 0x00 (0000ms, 0565ms total)
T1BE0 000:605 JLINK_GetDebugInfo(0x10C) -- Value=0xE000EDF0  returns 0x00 (0000ms, 0565ms total)
T1BE0 000:605 JLINK_ReadMemU32(0xE000ED00, 0x0001 Items, ...) -- CPU is running -- CPU_ReadMem(4 bytes @ 0xE000ED00) - Data: 01 C6 0C 41  returns 0x01 (0001ms, 0566ms total)
T1BE0 000:606 JLINK_SetResetType(JLINKARM_RESET_TYPE_NORMAL)  returns JLINKARM_RESET_TYPE_NORMAL (0000ms, 0566ms total)
T1BE0 000:606 JLINK_Reset() -- CPU is running -- CPU_WriteMem(4 bytes @ 0xE000EDF0) -- CPU is running -- CPU_WriteMem(4 bytes @ 0xE000EDFC) >0x35 TIF> -- CPU is running -- CPU_WriteMem(4 bytes @ 0xE000ED0C) -- CPU is running -- CPU_ReadMem(4 bytes @ 0xE000EDF0) -- CPU is running -- CPU_ReadMem(4 bytes @ 0xE000EDF0) -- CPU is running -- CPU_WriteMem(4 bytes @ 0xE000EDF0) -- CPU is running -- CPU_WriteMem(4 bytes @ 0xE000EDFC) -- CPU is running -- CPU_ReadMem(4 bytes @ 0xE000EDF0)
 -- CPU_WriteMem(4 bytes @ 0xE0002000) -- CPU_ReadMem(4 bytes @ 0xE000EDFC) -- CPU_ReadMem(4 bytes @ 0xE0001000) -- CPU_WriteMem(4 bytes @ 0xE0001000) (0015ms, 0581ms total)
T1BE0 000:621 JLINK_Halt()  returns 0x00 (0000ms, 0581ms total)
T1BE0 000:621 JLINK_IsHalted()  returns TRUE (0000ms, 0581ms total)
T1BE0 000:621 JLINK_ReadMemU32(0xE000EDF0, 0x0001 Items, ...) -- CPU_ReadMem(4 bytes @ 0xE000EDF0) - Data: 03 00 03 00  returns 0x01 (0000ms, 0581ms total)
T1BE0 000:621 JLINK_WriteU32(0xE000EDF0, 0xA05F0003) -- CPU_WriteMem(4 bytes @ 0xE000EDF0)  returns 0x00 (0000ms, 0581ms total)
T1BE0 000:621 JLINK_WriteU32(0xE000EDFC, 0x01000000) -- CPU_WriteMem(4 bytes @ 0xE000EDFC)  returns 0x00 (0001ms, 0582ms total)
T1BE0 000:627 JLINK_GetHWStatus(...)  returns 0x00 (0000ms, 0582ms total)
T1BE0 000:633 JLINK_GetNumBPUnits(Type = 0xFFFFFF00)  returns 0x04 (0000ms, 0582ms total)
T1BE0 000:633 JLINK_GetNumBPUnits(Type = 0xF0)  returns 0x2000 (0000ms, 0582ms total)
T1BE0 000:633 JLINK_GetNumWPUnits()  returns 0x02 (0000ms, 0582ms total)
T1BE0 000:638 JLINK_GetSpeed()  returns 0xFA0 (0000ms, 0582ms total)
T1BE0 000:641 JLINK_ReadMemU32(0xE000E004, 0x0001 Items, ...) -- CPU_ReadMem(4 bytes @ 0xE000E004) - Data: 00 00 00 00  returns 0x01 (0000ms, 0582ms total)
T1BE0 000:641 JLINK_Halt()  returns 0x00 (0000ms, 0582ms total)
T1BE0 000:641 JLINK_IsHalted()  returns TRUE (0000ms, 0582ms total)
T1BE0 000:643 JLINK_WriteMem(0x20000000, 0x0110 Bytes, ...) - Data: 00 BE 0A E0 0D 78 2D 06 68 40 08 24 40 00 00 D3 ... -- CPU_WriteMem(272 bytes @ 0x20000000)  returns 0x110 (0002ms, 0584ms total)
T1BE0 000:645 JLINK_WriteReg(R0, 0x00000000)  returns 0x00 (0000ms, 0584ms total)
T1BE0 000:645 JLINK_WriteReg(R1, 0x00B71B00)  returns 0x00 (0000ms, 0584ms total)
T1BE0 000:645 JLINK_WriteReg(R2, 0x00000001)  returns 0x00 (0000ms, 0584ms total)
T1BE0 000:645 JLINK_WriteReg(R3, 0x00000000)  returns 0x00 (0000ms, 0584ms total)
T1BE0 000:645 JLINK_WriteReg(R4, 0x00000000)  returns 0x00 (0000ms, 0584ms total)
T1BE0 000:645 JLINK_WriteReg(R5, 0x00000000)  returns 0x00 (0000ms, 0584ms total)
T1BE0 000:645 JLINK_WriteReg(R6, 0x00000000)  returns 0x00 (0000ms, 0584ms total)
T1BE0 000:645 JLINK_WriteReg(R7, 0x00000000)  returns 0x00 (0000ms, 0584ms total)
T1BE0 000:645 JLINK_WriteReg(R8, 0x00000000)  returns 0x00 (0000ms, 0584ms total)
T1BE0 000:645 JLINK_WriteReg(R9, 0x2000010C)  returns 0x00 (0000ms, 0584ms total)
T1BE0 000:645 JLINK_WriteReg(R10, 0x00000000)  returns 0x00 (0000ms, 0584ms total)
T1BE0 000:645 JLINK_WriteReg(R11, 0x00000000)  returns 0x00 (0000ms, 0584ms total)
T1BE0 000:645 JLINK_WriteReg(R12, 0x00000000)  returns 0x00 (0000ms, 0584ms total)
T1BE0 000:645 JLINK_WriteReg(R13 (SP), 0x20000800)  returns 0x00 (0000ms, 0584ms total)
T1BE0 000:645 JLINK_WriteReg(R14, 0x20000001)  returns 0x00 (0000ms, 0584ms total)
T1BE0 000:645 JLINK_WriteReg(R15 (PC), 0x20000038)  returns 0x00 (0000ms, 0584ms total)
T1BE0 000:645 JLINK_WriteReg(XPSR, 0x01000000)  returns 0x00 (0000ms, 0584ms total)
T1BE0 000:645 JLINK_WriteReg(MSP, 0x20000800)  returns 0x00 (0000ms, 0584ms total)
T1BE0 000:645 JLINK_WriteReg(PSP, 0x20000800)  returns 0x00 (0000ms, 0584ms total)
T1BE0 000:645 JLINK_WriteReg(CFBP, 0x00000000)  returns 0x00 (0000ms, 0584ms total)
T1BE0 000:645 JLINK_SetBPEx(Addr = 0x20000000, Type = 0xFFFFFFF2) -- CPU_ReadMem(4 bytes @ 0x20000000) -- CPU_WriteMem(4 bytes @ 0x20000000) -- CPU_ReadMem(4 bytes @ 0x20000000) -- CPU_WriteMem(4 bytes @ 0x20000000) -- CPU_ReadMem(2 bytes @ 0x20000000)  returns 0x00000001 (0002ms, 0586ms total)
T1BE0 000:647 JLINK_Go() -- CPU_WriteMem(2 bytes @ 0x20000000) -- CPU_ReadMem(4 bytes @ 0xE0001000) -- CPU_WriteMem(4 bytes @ 0xE0001000) -- CPU_WriteMem(4 bytes @ 0xE0002008) -- CPU_WriteMem(4 bytes @ 0xE000200C) -- CPU_WriteMem(4 bytes @ 0xE0002010) -- CPU_WriteMem(4 bytes @ 0xE0002014) -- CPU_WriteMem(4 bytes @ 0xE0001004) (0004ms, 0590ms total)
T1BE0 000:651 JLINK_IsHalted() -- CPU_ReadMem(2 bytes @ 0x20000000)  returns TRUE (0001ms, 0591ms total)
T1BE0 000:652 JLINK_ReadReg(R15 (PC))  returns 0x20000000 (0000ms, 0590ms total)
T1BE0 000:652 JLINK_ClrBPEx(BPHandle = 0x00000001)  returns 0x00 (0000ms, 0590ms total)
T1BE0 000:652 JLINK_ReadReg(R0)  returns 0x00000000 (0000ms, 0590ms total)
T1BE0 000:653 JLINK_WriteReg(R0, 0x00000000)  returns 0x00 (0000ms, 0590ms total)
T1BE0 000:653 JLINK_WriteReg(R1, 0x00000200)  returns 0x00 (0000ms, 0590ms total)
T1BE0 000:653 JLINK_WriteReg(R2, 0x000000FF)  returns 0x00 (0000ms, 0590ms total)
T1BE0 000:653 JLINK_WriteReg(R3, 0x00000000)  returns 0x00 (0000ms, 0590ms total)
T1BE0 000:653 JLINK_WriteReg(R4, 0x00000000)  returns 0x00 (0000ms, 0590ms total)
T1BE0 000:653 JLINK_WriteReg(R5, 0x00000000)  returns 0x00 (0000ms, 0590ms total)
T1BE0 000:653 JLINK_WriteReg(R6, 0x00000000)  returns 0x00 (0000ms, 0590ms total)
T1BE0 000:653 JLINK_WriteReg(R7, 0x00000000)  returns 0x00 (0000ms, 0590ms total)
T1BE0 000:653 JLINK_WriteReg(R8, 0x00000000)  returns 0x00 (0000ms, 0590ms total)
T1BE0 000:653 JLINK_WriteReg(R9, 0x2000010C)  returns 0x00 (0000ms, 0590ms total)
T1BE0 000:653 JLINK_WriteReg(R10, 0x00000000)  returns 0x00 (0000ms, 0590ms total)
T1BE0 000:653 JLINK_WriteReg(R11, 0x00000000)  returns 0x00 (0000ms, 0590ms total)
T1BE0 000:653 JLINK_WriteReg(R12, 0x00000000)  returns 0x00 (0000ms, 0590ms total)
T1BE0 000:653 JLINK_WriteReg(R13 (SP), 0x20000800)  returns 0x00 (0000ms, 0590ms total)
T1BE0 000:653 JLINK_WriteReg(R14, 0x20000001)  returns 0x00 (0000ms, 0590ms total)
T1BE0 000:653 JLINK_WriteReg(R15 (PC), 0x20000020)  returns 0x00 (0000ms, 0590ms total)
T1BE0 000:653 JLINK_WriteReg(XPSR, 0x01000000)  returns 0x00 (0000ms, 0590ms total)
T1BE0 000:653 JLINK_WriteReg(MSP, 0x20000800)  returns 0x00 (0000ms, 0590ms total)
T1BE0 000:653 JLINK_WriteReg(PSP, 0x20000800)  returns 0x00 (0000ms, 0590ms total)
T1BE0 000:653 JLINK_WriteReg(CFBP, 0x00000000)  returns 0x00 (0000ms, 0590ms total)
T1BE0 000:653 JLINK_SetBPEx(Addr = 0x20000000, Type = 0xFFFFFFF2)  returns 0x00000002 (0000ms, 0590ms total)
T1BE0 000:653 JLINK_Go() -- CPU_ReadMem(4 bytes @ 0xE0001000) -- CPU_WriteMem(4 bytes @ 0xE0001000) (0002ms, 0592ms total)
T1BE0 000:655 JLINK_IsHalted() -- CPU_ReadMem(2 bytes @ 0x20000000)  returns TRUE (0002ms, 0594ms total)
T1BE0 000:657 JLINK_ReadReg(R15 (PC))  returns 0x20000000 (0000ms, 0592ms total)
T1BE0 000:657 JLINK_ClrBPEx(BPHandle = 0x00000002)  returns 0x00 (0000ms, 0592ms total)
T1BE0 000:657 JLINK_ReadReg(R0)  returns 0x00000001 (0000ms, 0592ms total)
T1BE0 000:657 JLINK_WriteReg(R0, 0x00000000)  returns 0x00 (0000ms, 0592ms total)
T1BE0 000:657 JLINK_WriteReg(R1, 0x00000200)  returns 0x00 (0000ms, 0592ms total)
T1BE0 000:657 JLINK_WriteReg(R2, 0x000000FF)  returns 0x00 (0000ms, 0592ms total)
T1BE0 000:657 JLINK_WriteReg(R3, 0x00000000)  returns 0x00 (0000ms, 0592ms total)
T1BE0 000:657 JLINK_WriteReg(R4, 0x00000000)  returns 0x00 (0000ms, 0592ms total)
T1BE0 000:657 JLINK_WriteReg(R5, 0x00000000)  returns 0x00 (0000ms, 0592ms total)
T1BE0 000:657 JLINK_WriteReg(R6, 0x00000000)  returns 0x00 (0000ms, 0592ms total)
T1BE0 000:657 JLINK_WriteReg(R7, 0x00000000)  returns 0x00 (0000ms, 0592ms total)
T1BE0 000:657 JLINK_WriteReg(R8, 0x00000000)  returns 0x00 (0000ms, 0592ms total)
T1BE0 000:657 JLINK_WriteReg(R9, 0x2000010C)  returns 0x00 (0000ms, 0592ms total)
T1BE0 000:657 JLINK_WriteReg(R10, 0x00000000)  returns 0x00 (0000ms, 0592ms total)
T1BE0 000:657 JLINK_WriteReg(R11, 0x00000000)  returns 0x00 (0000ms, 0592ms total)
T1BE0 000:657 JLINK_WriteReg(R12, 0x00000000)  returns 0x00 (0000ms, 0592ms total)
T1BE0 000:657 JLINK_WriteReg(R13 (SP), 0x20000800)  returns 0x00 (0000ms, 0592ms total)
T1BE0 000:657 JLINK_WriteReg(R14, 0x20000001)  returns 0x00 (0000ms, 0592ms total)
T1BE0 000:657 JLINK_WriteReg(R15 (PC), 0x20000092)  returns 0x00 (0000ms, 0592ms total)
T1BE0 000:657 JLINK_WriteReg(XPSR, 0x01000000)  returns 0x00 (0000ms, 0592ms total)
T1BE0 000:657 JLINK_WriteReg(MSP, 0x20000800)  returns 0x00 (0000ms, 0592ms total)
T1BE0 000:657 JLINK_WriteReg(PSP, 0x20000800)  returns 0x00 (0000ms, 0592ms total)
T1BE0 000:657 JLINK_WriteReg(CFBP, 0x00000000)  returns 0x00 (0000ms, 0592ms total)
T1BE0 000:657 JLINK_SetBPEx(Addr = 0x20000000, Type = 0xFFFFFFF2)  returns 0x00000003 (0000ms, 0592ms total)
T1BE0 000:657 JLINK_Go() -- CPU_ReadMem(4 bytes @ 0xE0001000) -- CPU_WriteMem(4 bytes @ 0xE0001000) (0003ms, 0595ms total)
T1BE0 000:660 JLINK_IsHalted()  returns FALSE (0000ms, 0595ms total)
T1BE0 000:702 JLINK_IsHalted() -- CPU_ReadMem(2 bytes @ 0x20000000)  returns TRUE (0002ms, 0597ms total)
T1BE0 000:704 JLINK_ReadReg(R15 (PC))  returns 0x20000000 (0000ms, 0595ms total)
T1BE0 000:704 JLINK_ClrBPEx(BPHandle = 0x00000003)  returns 0x00 (0000ms, 0595ms total)
T1BE0 000:704 JLINK_ReadReg(R0)  returns 0x00000000 (0000ms, 0595ms total)
T1BE0 000:704 JLINK_WriteReg(R0, 0x00000200)  returns 0x00 (0000ms, 0595ms total)
T1BE0 000:704 JLINK_WriteReg(R1, 0x00000200)  returns 0x00 (0000ms, 0595ms total)
T1BE0 000:704 JLINK_WriteReg(R2, 0x000000FF)  returns 0x00 (0000ms, 0595ms total)
T1BE0 000:704 JLINK_WriteReg(R3, 0x00000000)  returns 0x00 (0000ms, 0595ms total)
T1BE0 000:704 JLINK_WriteReg(R4, 0x00000000)  returns 0x00 (0000ms, 0595ms total)
T1BE0 000:704 JLINK_WriteReg(R5, 0x00000000)  returns 0x00 (0000ms, 0595ms total)
T1BE0 000:704 JLINK_WriteReg(R6, 0x00000000)  returns 0x00 (0000ms, 0595ms total)
T1BE0 000:704 JLINK_WriteReg(R7, 0x00000000)  returns 0x00 (0000ms, 0595ms total)
T1BE0 000:704 JLINK_WriteReg(R8, 0x00000000)  returns 0x00 (0000ms, 0595ms total)
T1BE0 000:704 JLINK_WriteReg(R9, 0x2000010C)  returns 0x00 (0000ms, 0595ms total)
T1BE0 000:704 JLINK_WriteReg(R10, 0x00000000)  returns 0x00 (0000ms, 0595ms total)
T1BE0 000:704 JLINK_WriteReg(R11, 0x00000000)  returns 0x00 (0000ms, 0595ms total)
T1BE0 000:704 JLINK_WriteReg(R12, 0x00000000)  returns 0x00 (0000ms, 0595ms total)
T1BE0 000:704 JLINK_WriteReg(R13 (SP), 0x20000800)  returns 0x00 (0000ms, 0595ms total)
T1BE0 000:704 JLINK_WriteReg(R14, 0x20000001)  returns 0x00 (0000ms, 0595ms total)
T1BE0 000:704 JLINK_WriteReg(R15 (PC), 0x20000020)  returns 0x00 (0000ms, 0595ms total)
T1BE0 000:704 JLINK_WriteReg(XPSR, 0x01000000)  returns 0x00 (0000ms, 0595ms total)
T1BE0 000:704 JLINK_WriteReg(MSP, 0x20000800)  returns 0x00 (0000ms, 0595ms total)
T1BE0 000:704 JLINK_WriteReg(PSP, 0x20000800)  returns 0x00 (0000ms, 0595ms total)
T1BE0 000:704 JLINK_WriteReg(CFBP, 0x00000000)  returns 0x00 (0000ms, 0595ms total)
T1BE0 000:704 JLINK_SetBPEx(Addr = 0x20000000, Type = 0xFFFFFFF2)  returns 0x00000004 (0000ms, 0595ms total)
T1BE0 000:704 JLINK_Go() -- CPU_ReadMem(4 bytes @ 0xE0001000) -- CPU_WriteMem(4 bytes @ 0xE0001000) (0002ms, 0597ms total)
T1BE0 000:706 JLINK_IsHalted() -- CPU_ReadMem(2 bytes @ 0x20000000)  returns TRUE (0003ms, 0600ms total)
T1BE0 000:709 JLINK_ReadReg(R15 (PC))  returns 0x20000000 (0000ms, 0597ms total)
T1BE0 000:709 JLINK_ClrBPEx(BPHandle = 0x00000004)  returns 0x00 (0000ms, 0597ms total)
T1BE0 000:709 JLINK_ReadReg(R0)  returns 0x00000001 (0000ms, 0597ms total)
T1BE0 000:709 JLINK_WriteReg(R0, 0x00000200)  returns 0x00 (0000ms, 0597ms total)
T1BE0 000:709 JLINK_WriteReg(R1, 0x00000200)  returns 0x00 (0000ms, 0597ms total)
T1BE0 000:709 JLINK_WriteReg(R2, 0x000000FF)  returns 0x00 (0000ms, 0597ms total)
T1BE0 000:709 JLINK_WriteReg(R3, 0x00000000)  returns 0x00 (0000ms, 0597ms total)
T1BE0 000:709 JLINK_WriteReg(R4, 0x00000000)  returns 0x00 (0000ms, 0597ms total)
T1BE0 000:709 JLINK_WriteReg(R5, 0x00000000)  returns 0x00 (0000ms, 0597ms total)
T1BE0 000:709 JLINK_WriteReg(R6, 0x00000000)  returns 0x00 (0000ms, 0597ms total)
T1BE0 000:709 JLINK_WriteReg(R7, 0x00000000)  returns 0x00 (0000ms, 0597ms total)
T1BE0 000:709 JLINK_WriteReg(R8, 0x00000000)  returns 0x00 (0000ms, 0597ms total)
T1BE0 000:709 JLINK_WriteReg(R9, 0x2000010C)  returns 0x00 (0000ms, 0597ms total)
T1BE0 000:709 JLINK_WriteReg(R10, 0x00000000)  returns 0x00 (0000ms, 0597ms total)
T1BE0 000:709 JLINK_WriteReg(R11, 0x00000000)  returns 0x00 (0000ms, 0597ms total)
T1BE0 000:709 JLINK_WriteReg(R12, 0x00000000)  returns 0x00 (0000ms, 0597ms total)
T1BE0 000:709 JLINK_WriteReg(R13 (SP), 0x20000800)  returns 0x00 (0000ms, 0597ms total)
T1BE0 000:709 JLINK_WriteReg(R14, 0x20000001)  returns 0x00 (0000ms, 0597ms total)
T1BE0 000:709 JLINK_WriteReg(R15 (PC), 0x20000092)  returns 0x00 (0000ms, 0597ms total)
T1BE0 000:709 JLINK_WriteReg(XPSR, 0x01000000)  returns 0x00 (0000ms, 0597ms total)
T1BE0 000:709 JLINK_WriteReg(MSP, 0x20000800)  returns 0x00 (0000ms, 0597ms total)
T1BE0 000:709 JLINK_WriteReg(PSP, 0x20000800)  returns 0x00 (0000ms, 0597ms total)
T1BE0 000:709 JLINK_WriteReg(CFBP, 0x00000000)  returns 0x00 (0000ms, 0597ms total)
T1BE0 000:709 JLINK_SetBPEx(Addr = 0x20000000, Type = 0xFFFFFFF2)  returns 0x00000005 (0000ms, 0597ms total)
T1BE0 000:709 JLINK_Go() -- CPU_ReadMem(4 bytes @ 0xE0001000) -- CPU_WriteMem(4 bytes @ 0xE0001000) (0002ms, 0599ms total)
T1BE0 000:711 JLINK_IsHalted()  returns FALSE (0000ms, 0599ms total)
T1BE0 000:717 JLINK_IsHalted() -- CPU_ReadMem(2 bytes @ 0x20000000)  returns TRUE (0002ms, 0601ms total)
T1BE0 000:719 JLINK_ReadReg(R15 (PC))  returns 0x20000000 (0000ms, 0599ms total)
T1BE0 000:719 JLINK_ClrBPEx(BPHandle = 0x00000005)  returns 0x00 (0000ms, 0599ms total)
T1BE0 000:719 JLINK_ReadReg(R0)  returns 0x00000000 (0000ms, 0599ms total)
T1BE0 000:719 JLINK_WriteReg(R0, 0x00000400)  returns 0x00 (0000ms, 0599ms total)
T1BE0 000:719 JLINK_WriteReg(R1, 0x00000200)  returns 0x00 (0000ms, 0599ms total)
T1BE0 000:719 JLINK_WriteReg(R2, 0x000000FF)  returns 0x00 (0000ms, 0599ms total)
T1BE0 000:719 JLINK_WriteReg(R3, 0x00000000)  returns 0x00 (0000ms, 0599ms total)
T1BE0 000:719 JLINK_WriteReg(R4, 0x00000000)  returns 0x00 (0000ms, 0599ms total)
T1BE0 000:719 JLINK_WriteReg(R5, 0x00000000)  returns 0x00 (0000ms, 0599ms total)
T1BE0 000:719 JLINK_WriteReg(R6, 0x00000000)  returns 0x00 (0000ms, 0599ms total)
T1BE0 000:719 JLINK_WriteReg(R7, 0x00000000)  returns 0x00 (0000ms, 0599ms total)
T1BE0 000:719 JLINK_WriteReg(R8, 0x00000000)  returns 0x00 (0000ms, 0599ms total)
T1BE0 000:719 JLINK_WriteReg(R9, 0x2000010C)  returns 0x00 (0000ms, 0599ms total)
T1BE0 000:719 JLINK_WriteReg(R10, 0x00000000)  returns 0x00 (0000ms, 0599ms total)
T1BE0 000:719 JLINK_WriteReg(R11, 0x00000000)  returns 0x00 (0000ms, 0599ms total)
T1BE0 000:719 JLINK_WriteReg(R12, 0x00000000)  returns 0x00 (0000ms, 0599ms total)
T1BE0 000:719 JLINK_WriteReg(R13 (SP), 0x20000800)  returns 0x00 (0000ms, 0599ms total)
T1BE0 000:719 JLINK_WriteReg(R14, 0x20000001)  returns 0x00 (0000ms, 0599ms total)
T1BE0 000:719 JLINK_WriteReg(R15 (PC), 0x20000020)  returns 0x00 (0000ms, 0599ms total)
T1BE0 000:719 JLINK_WriteReg(XPSR, 0x01000000)  returns 0x00 (0000ms, 0599ms total)
T1BE0 000:719 JLINK_WriteReg(MSP, 0x20000800)  returns 0x00 (0000ms, 0599ms total)
T1BE0 000:719 JLINK_WriteReg(PSP, 0x20000800)  returns 0x00 (0000ms, 0599ms total)
T1BE0 000:719 JLINK_WriteReg(CFBP, 0x00000000)  returns 0x00 (0000ms, 0599ms total)
T1BE0 000:719 JLINK_SetBPEx(Addr = 0x20000000, Type = 0xFFFFFFF2)  returns 0x00000006 (0000ms, 0599ms total)
T1BE0 000:719 JLINK_Go() -- CPU_ReadMem(4 bytes @ 0xE0001000) -- CPU_WriteMem(4 bytes @ 0xE0001000) (0003ms, 0602ms total)
T1BE0 000:722 JLINK_IsHalted() -- CPU_ReadMem(2 bytes @ 0x20000000)  returns TRUE (0002ms, 0604ms total)
T1BE0 000:724 JLINK_ReadReg(R15 (PC))  returns 0x20000000 (0000ms, 0602ms total)
T1BE0 000:724 JLINK_ClrBPEx(BPHandle = 0x00000006)  returns 0x00 (0000ms, 0602ms total)
T1BE0 000:724 JLINK_ReadReg(R0)  returns 0x00000001 (0000ms, 0602ms total)
T1BE0 000:724 JLINK_WriteReg(R0, 0x00000400)  returns 0x00 (0000ms, 0602ms total)
T1BE0 000:724 JLINK_WriteReg(R1, 0x00000200)  returns 0x00 (0000ms, 0602ms total)
T1BE0 000:724 JLINK_WriteReg(R2, 0x000000FF)  returns 0x00 (0000ms, 0602ms total)
T1BE0 000:724 JLINK_WriteReg(R3, 0x00000000)  returns 0x00 (0000ms, 0602ms total)
T1BE0 000:724 JLINK_WriteReg(R4, 0x00000000)  returns 0x00 (0000ms, 0602ms total)
T1BE0 000:724 JLINK_WriteReg(R5, 0x00000000)  returns 0x00 (0000ms, 0602ms total)
T1BE0 000:724 JLINK_WriteReg(R6, 0x00000000)  returns 0x00 (0000ms, 0602ms total)
T1BE0 000:724 JLINK_WriteReg(R7, 0x00000000)  returns 0x00 (0000ms, 0602ms total)
T1BE0 000:724 JLINK_WriteReg(R8, 0x00000000)  returns 0x00 (0000ms, 0602ms total)
T1BE0 000:724 JLINK_WriteReg(R9, 0x2000010C)  returns 0x00 (0000ms, 0602ms total)
T1BE0 000:724 JLINK_WriteReg(R10, 0x00000000)  returns 0x00 (0000ms, 0602ms total)
T1BE0 000:724 JLINK_WriteReg(R11, 0x00000000)  returns 0x00 (0000ms, 0602ms total)
T1BE0 000:724 JLINK_WriteReg(R12, 0x00000000)  returns 0x00 (0000ms, 0602ms total)
T1BE0 000:724 JLINK_WriteReg(R13 (SP), 0x20000800)  returns 0x00 (0000ms, 0602ms total)
T1BE0 000:724 JLINK_WriteReg(R14, 0x20000001)  returns 0x00 (0000ms, 0602ms total)
T1BE0 000:724 JLINK_WriteReg(R15 (PC), 0x20000092)  returns 0x00 (0000ms, 0602ms total)
T1BE0 000:724 JLINK_WriteReg(XPSR, 0x01000000)  returns 0x00 (0000ms, 0602ms total)
T1BE0 000:724 JLINK_WriteReg(MSP, 0x20000800)  returns 0x00 (0000ms, 0602ms total)
T1BE0 000:724 JLINK_WriteReg(PSP, 0x20000800)  returns 0x00 (0000ms, 0602ms total)
T1BE0 000:724 JLINK_WriteReg(CFBP, 0x00000000)  returns 0x00 (0000ms, 0602ms total)
T1BE0 000:724 JLINK_SetBPEx(Addr = 0x20000000, Type = 0xFFFFFFF2)  returns 0x00000007 (0000ms, 0602ms total)
T1BE0 000:724 JLINK_Go() -- CPU_ReadMem(4 bytes @ 0xE0001000) -- CPU_WriteMem(4 bytes @ 0xE0001000) (0002ms, 0604ms total)
T1BE0 000:726 JLINK_IsHalted()  returns FALSE (0000ms, 0604ms total)
T1BE0 000:732 JLINK_IsHalted() -- CPU_ReadMem(2 bytes @ 0x20000000)  returns TRUE (0002ms, 0606ms total)
T1BE0 000:734 JLINK_ReadReg(R15 (PC))  returns 0x20000000 (0000ms, 0604ms total)
T1BE0 000:734 JLINK_ClrBPEx(BPHandle = 0x00000007)  returns 0x00 (0000ms, 0604ms total)
T1BE0 000:734 JLINK_ReadReg(R0)  returns 0x00000000 (0000ms, 0604ms total)
T1BE0 000:734 JLINK_WriteReg(R0, 0x00000600)  returns 0x00 (0000ms, 0604ms total)
T1BE0 000:734 JLINK_WriteReg(R1, 0x00000200)  returns 0x00 (0000ms, 0604ms total)
T1BE0 000:734 JLINK_WriteReg(R2, 0x000000FF)  returns 0x00 (0000ms, 0604ms total)
T1BE0 000:734 JLINK_WriteReg(R3, 0x00000000)  returns 0x00 (0000ms, 0604ms total)
T1BE0 000:734 JLINK_WriteReg(R4, 0x00000000)  returns 0x00 (0000ms, 0604ms total)
T1BE0 000:734 JLINK_WriteReg(R5, 0x00000000)  returns 0x00 (0000ms, 0604ms total)
T1BE0 000:734 JLINK_WriteReg(R6, 0x00000000)  returns 0x00 (0000ms, 0604ms total)
T1BE0 000:734 JLINK_WriteReg(R7, 0x00000000)  returns 0x00 (0000ms, 0604ms total)
T1BE0 000:734 JLINK_WriteReg(R8, 0x00000000)  returns 0x00 (0000ms, 0604ms total)
T1BE0 000:734 JLINK_WriteReg(R9, 0x2000010C)  returns 0x00 (0000ms, 0604ms total)
T1BE0 000:734 JLINK_WriteReg(R10, 0x00000000)  returns 0x00 (0000ms, 0604ms total)
T1BE0 000:734 JLINK_WriteReg(R11, 0x00000000)  returns 0x00 (0000ms, 0604ms total)
T1BE0 000:734 JLINK_WriteReg(R12, 0x00000000)  returns 0x00 (0000ms, 0604ms total)
T1BE0 000:734 JLINK_WriteReg(R13 (SP), 0x20000800)  returns 0x00 (0000ms, 0604ms total)
T1BE0 000:734 JLINK_WriteReg(R14, 0x20000001)  returns 0x00 (0000ms, 0604ms total)
T1BE0 000:734 JLINK_WriteReg(R15 (PC), 0x20000020)  returns 0x00 (0000ms, 0604ms total)
T1BE0 000:734 JLINK_WriteReg(XPSR, 0x01000000)  returns 0x00 (0000ms, 0604ms total)
T1BE0 000:734 JLINK_WriteReg(MSP, 0x20000800)  returns 0x00 (0000ms, 0604ms total)
T1BE0 000:734 JLINK_WriteReg(PSP, 0x20000800)  returns 0x00 (0000ms, 0604ms total)
T1BE0 000:734 JLINK_WriteReg(CFBP, 0x00000000)  returns 0x00 (0000ms, 0604ms total)
T1BE0 000:734 JLINK_SetBPEx(Addr = 0x20000000, Type = 0xFFFFFFF2)  returns 0x00000008 (0000ms, 0604ms total)
T1BE0 000:734 JLINK_Go() -- CPU_ReadMem(4 bytes @ 0xE0001000) -- CPU_WriteMem(4 bytes @ 0xE0001000) (0002ms, 0606ms total)
T1BE0 000:736 JLINK_IsHalted() -- CPU_ReadMem(2 bytes @ 0x20000000)  returns TRUE (0003ms, 0609ms total)
T1BE0 000:739 JLINK_ReadReg(R15 (PC))  returns 0x20000000 (0000ms, 0606ms total)
T1BE0 000:739 JLINK_ClrBPEx(BPHandle = 0x00000008)  returns 0x00 (0000ms, 0606ms total)
T1BE0 000:739 JLINK_ReadReg(R0)  returns 0x00000001 (0000ms, 0606ms total)
T1BE0 000:739 JLINK_WriteReg(R0, 0x00000600)  returns 0x00 (0000ms, 0606ms total)
T1BE0 000:739 JLINK_WriteReg(R1, 0x00000200)  returns 0x00 (0000ms, 0606ms total)
T1BE0 000:739 JLINK_WriteReg(R2, 0x000000FF)  returns 0x00 (0000ms, 0606ms total)
T1BE0 000:739 JLINK_WriteReg(R3, 0x00000000)  returns 0x00 (0000ms, 0606ms total)
T1BE0 000:739 JLINK_WriteReg(R4, 0x00000000)  returns 0x00 (0000ms, 0606ms total)
T1BE0 000:739 JLINK_WriteReg(R5, 0x00000000)  returns 0x00 (0000ms, 0606ms total)
T1BE0 000:739 JLINK_WriteReg(R6, 0x00000000)  returns 0x00 (0000ms, 0606ms total)
T1BE0 000:739 JLINK_WriteReg(R7, 0x00000000)  returns 0x00 (0000ms, 0606ms total)
T1BE0 000:739 JLINK_WriteReg(R8, 0x00000000)  returns 0x00 (0000ms, 0606ms total)
T1BE0 000:739 JLINK_WriteReg(R9, 0x2000010C)  returns 0x00 (0000ms, 0606ms total)
T1BE0 000:739 JLINK_WriteReg(R10, 0x00000000)  returns 0x00 (0000ms, 0606ms total)
T1BE0 000:739 JLINK_WriteReg(R11, 0x00000000)  returns 0x00 (0000ms, 0606ms total)
T1BE0 000:739 JLINK_WriteReg(R12, 0x00000000)  returns 0x00 (0000ms, 0606ms total)
T1BE0 000:739 JLINK_WriteReg(R13 (SP), 0x20000800)  returns 0x00 (0000ms, 0606ms total)
T1BE0 000:739 JLINK_WriteReg(R14, 0x20000001)  returns 0x00 (0000ms, 0606ms total)
T1BE0 000:739 JLINK_WriteReg(R15 (PC), 0x20000092)  returns 0x00 (0000ms, 0606ms total)
T1BE0 000:739 JLINK_WriteReg(XPSR, 0x01000000)  returns 0x00 (0000ms, 0606ms total)
T1BE0 000:739 JLINK_WriteReg(MSP, 0x20000800)  returns 0x00 (0000ms, 0606ms total)
T1BE0 000:739 JLINK_WriteReg(PSP, 0x20000800)  returns 0x00 (0000ms, 0606ms total)
T1BE0 000:739 JLINK_WriteReg(CFBP, 0x00000000)  returns 0x00 (0000ms, 0606ms total)
T1BE0 000:739 JLINK_SetBPEx(Addr = 0x20000000, Type = 0xFFFFFFF2)  returns 0x00000009 (0000ms, 0606ms total)
T1BE0 000:739 JLINK_Go() -- CPU_ReadMem(4 bytes @ 0xE0001000) -- CPU_WriteMem(4 bytes @ 0xE0001000) (0002ms, 0608ms total)
T1BE0 000:741 JLINK_IsHalted()  returns FALSE (0000ms, 0608ms total)
T1BE0 000:746 JLINK_IsHalted() -- CPU_ReadMem(2 bytes @ 0x20000000)  returns TRUE (0003ms, 0611ms total)
T1BE0 000:749 JLINK_ReadReg(R15 (PC))  returns 0x20000000 (0000ms, 0608ms total)
T1BE0 000:749 JLINK_ClrBPEx(BPHandle = 0x00000009)  returns 0x00 (0000ms, 0608ms total)
T1BE0 000:749 JLINK_ReadReg(R0)  returns 0x00000000 (0000ms, 0608ms total)
T1BE0 000:749 JLINK_WriteReg(R0, 0x00000001)  returns 0x00 (0000ms, 0608ms total)
T1BE0 000:749 JLINK_WriteReg(R1, 0x00000200)  returns 0x00 (0000ms, 0608ms total)
T1BE0 000:749 JLINK_WriteReg(R2, 0x000000FF)  returns 0x00 (0000ms, 0608ms total)
T1BE0 000:749 JLINK_WriteReg(R3, 0x00000000)  returns 0x00 (0000ms, 0608ms total)
T1BE0 000:749 JLINK_WriteReg(R4, 0x00000000)  returns 0x00 (0000ms, 0608ms total)
T1BE0 000:749 JLINK_WriteReg(R5, 0x00000000)  returns 0x00 (0000ms, 0608ms total)
T1BE0 000:749 JLINK_WriteReg(R6, 0x00000000)  returns 0x00 (0000ms, 0608ms total)
T1BE0 000:749 JLINK_WriteReg(R7, 0x00000000)  returns 0x00 (0000ms, 0608ms total)
T1BE0 000:749 JLINK_WriteReg(R8, 0x00000000)  returns 0x00 (0000ms, 0608ms total)
T1BE0 000:749 JLINK_WriteReg(R9, 0x2000010C)  returns 0x00 (0000ms, 0608ms total)
T1BE0 000:749 JLINK_WriteReg(R10, 0x00000000)  returns 0x00 (0000ms, 0608ms total)
T1BE0 000:749 JLINK_WriteReg(R11, 0x00000000)  returns 0x00 (0000ms, 0608ms total)
T1BE0 000:749 JLINK_WriteReg(R12, 0x00000000)  returns 0x00 (0000ms, 0608ms total)
T1BE0 000:749 JLINK_WriteReg(R13 (SP), 0x20000800)  returns 0x00 (0000ms, 0608ms total)
T1BE0 000:749 JLINK_WriteReg(R14, 0x20000001)  returns 0x00 (0000ms, 0608ms total)
T1BE0 000:749 JLINK_WriteReg(R15 (PC), 0x2000005A)  returns 0x00 (0000ms, 0608ms total)
T1BE0 000:749 JLINK_WriteReg(XPSR, 0x01000000)  returns 0x00 (0000ms, 0608ms total)
T1BE0 000:749 JLINK_WriteReg(MSP, 0x20000800)  returns 0x00 (0000ms, 0608ms total)
T1BE0 000:749 JLINK_WriteReg(PSP, 0x20000800)  returns 0x00 (0000ms, 0608ms total)
T1BE0 000:749 JLINK_WriteReg(CFBP, 0x00000000)  returns 0x00 (0000ms, 0608ms total)
T1BE0 000:749 JLINK_SetBPEx(Addr = 0x20000000, Type = 0xFFFFFFF2)  returns 0x0000000A (0000ms, 0608ms total)
T1BE0 000:749 JLINK_Go() -- CPU_ReadMem(4 bytes @ 0xE0001000) -- CPU_WriteMem(4 bytes @ 0xE0001000) (0001ms, 0609ms total)
T1BE0 000:750 JLINK_IsHalted() -- CPU_ReadMem(2 bytes @ 0x20000000)  returns TRUE (0002ms, 0611ms total)
T1BE0 000:752 JLINK_ReadReg(R15 (PC))  returns 0x20000000 (0000ms, 0609ms total)
T1BE0 000:752 JLINK_ClrBPEx(BPHandle = 0x0000000A)  returns 0x00 (0000ms, 0609ms total)
T1BE0 000:752 JLINK_ReadReg(R0)  returns 0x00000000 (0000ms, 0609ms total)
T1BE0 000:812 JLINK_WriteMem(0x20000000, 0x0110 Bytes, ...) - Data: 00 BE 0A E0 0D 78 2D 06 68 40 08 24 40 00 00 D3 ... -- CPU_WriteMem(272 bytes @ 0x20000000)  returns 0x110 (0001ms, 0610ms total)
T1BE0 000:814 JLINK_WriteReg(R0, 0x00000000)  returns 0x00 (0000ms, 0610ms total)
T1BE0 000:814 JLINK_WriteReg(R1, 0x00B71B00)  returns 0x00 (0000ms, 0610ms total)
T1BE0 000:814 JLINK_WriteReg(R2, 0x00000002)  returns 0x00 (0000ms, 0610ms total)
T1BE0 000:814 JLINK_WriteReg(R3, 0x00000000)  returns 0x00 (0000ms, 0610ms total)
T1BE0 000:814 JLINK_WriteReg(R4, 0x00000000)  returns 0x00 (0000ms, 0610ms total)
T1BE0 000:814 JLINK_WriteReg(R5, 0x00000000)  returns 0x00 (0000ms, 0610ms total)
T1BE0 000:814 JLINK_WriteReg(R6, 0x00000000)  returns 0x00 (0000ms, 0610ms total)
T1BE0 000:814 JLINK_WriteReg(R7, 0x00000000)  returns 0x00 (0000ms, 0610ms total)
T1BE0 000:814 JLINK_WriteReg(R8, 0x00000000)  returns 0x00 (0000ms, 0610ms total)
T1BE0 000:814 JLINK_WriteReg(R9, 0x2000010C)  returns 0x00 (0000ms, 0610ms total)
T1BE0 000:814 JLINK_WriteReg(R10, 0x00000000)  returns 0x00 (0000ms, 0610ms total)
T1BE0 000:814 JLINK_WriteReg(R11, 0x00000000)  returns 0x00 (0000ms, 0610ms total)
T1BE0 000:814 JLINK_WriteReg(R12, 0x00000000)  returns 0x00 (0000ms, 0610ms total)
T1BE0 000:814 JLINK_WriteReg(R13 (SP), 0x20000800)  returns 0x00 (0000ms, 0610ms total)
T1BE0 000:814 JLINK_WriteReg(R14, 0x20000001)  returns 0x00 (0000ms, 0610ms total)
T1BE0 000:814 JLINK_WriteReg(R15 (PC), 0x20000038)  returns 0x00 (0000ms, 0610ms total)
T1BE0 000:814 JLINK_WriteReg(XPSR, 0x01000000)  returns 0x00 (0000ms, 0610ms total)
T1BE0 000:814 JLINK_WriteReg(MSP, 0x20000800)  returns 0x00 (0000ms, 0610ms total)
T1BE0 000:814 JLINK_WriteReg(PSP, 0x20000800)  returns 0x00 (0000ms, 0610ms total)
T1BE0 000:814 JLINK_WriteReg(CFBP, 0x00000000)  returns 0x00 (0000ms, 0610ms total)
T1BE0 000:814 JLINK_SetBPEx(Addr = 0x20000000, Type = 0xFFFFFFF2) -- CPU_ReadMem(4 bytes @ 0x20000000) -- CPU_WriteMem(4 bytes @ 0x20000000) -- CPU_ReadMem(4 bytes @ 0x20000000) -- CPU_WriteMem(4 bytes @ 0x20000000) -- CPU_ReadMem(2 bytes @ 0x20000000)  returns 0x0000000B (0002ms, 0612ms total)
T1BE0 000:816 JLINK_Go() -- CPU_WriteMem(2 bytes @ 0x20000000) -- CPU_ReadMem(4 bytes @ 0xE0001000) -- CPU_WriteMem(4 bytes @ 0xE0001000) (0002ms, 0614ms total)
T1BE0 000:818 JLINK_IsHalted() -- CPU_ReadMem(2 bytes @ 0x20000000)  returns TRUE (0003ms, 0617ms total)
T1BE0 000:821 JLINK_ReadReg(R15 (PC))  returns 0x20000000 (0000ms, 0614ms total)
T1BE0 000:821 JLINK_ClrBPEx(BPHandle = 0x0000000B)  returns 0x00 (0000ms, 0614ms total)
T1BE0 000:821 JLINK_ReadReg(R0)  returns 0x00000000 (0000ms, 0614ms total)
T1BE0 000:821 JLINK_WriteMem(0x20000110, 0x0200 Bytes, ...) - Data: D0 01 00 20 81 00 00 00 89 00 00 00 8D 01 00 00 ... -- CPU_WriteMem(512 bytes @ 0x20000110)  returns 0x200 (0002ms, 0616ms total)
T1BE0 000:823 JLINK_WriteReg(R0, 0x00000000)  returns 0x00 (0000ms, 0616ms total)
T1BE0 000:823 JLINK_WriteReg(R1, 0x00000200)  returns 0x00 (0000ms, 0616ms total)
T1BE0 000:823 JLINK_WriteReg(R2, 0x20000110)  returns 0x00 (0000ms, 0616ms total)
T1BE0 000:823 JLINK_WriteReg(R3, 0x00000000)  returns 0x00 (0000ms, 0616ms total)
T1BE0 000:823 JLINK_WriteReg(R4, 0x00000000)  returns 0x00 (0000ms, 0616ms total)
T1BE0 000:823 JLINK_WriteReg(R5, 0x00000000)  returns 0x00 (0000ms, 0616ms total)
T1BE0 000:823 JLINK_WriteReg(R6, 0x00000000)  returns 0x00 (0000ms, 0616ms total)
T1BE0 000:823 JLINK_WriteReg(R7, 0x00000000)  returns 0x00 (0000ms, 0616ms total)
T1BE0 000:823 JLINK_WriteReg(R8, 0x00000000)  returns 0x00 (0000ms, 0616ms total)
T1BE0 000:823 JLINK_WriteReg(R9, 0x2000010C)  returns 0x00 (0000ms, 0616ms total)
T1BE0 000:823 JLINK_WriteReg(R10, 0x00000000)  returns 0x00 (0000ms, 0616ms total)
T1BE0 000:823 JLINK_WriteReg(R11, 0x00000000)  returns 0x00 (0000ms, 0616ms total)
T1BE0 000:823 JLINK_WriteReg(R12, 0x00000000)  returns 0x00 (0000ms, 0616ms total)
T1BE0 000:823 JLINK_WriteReg(R13 (SP), 0x20000800)  returns 0x00 (0000ms, 0616ms total)
T1BE0 000:823 JLINK_WriteReg(R14, 0x20000001)  returns 0x00 (0000ms, 0616ms total)
T1BE0 000:823 JLINK_WriteReg(R15 (PC), 0x200000C2)  returns 0x00 (0000ms, 0616ms total)
T1BE0 000:823 JLINK_WriteReg(XPSR, 0x01000000)  returns 0x00 (0000ms, 0616ms total)
T1BE0 000:823 JLINK_WriteReg(MSP, 0x20000800)  returns 0x00 (0000ms, 0616ms total)
T1BE0 000:823 JLINK_WriteReg(PSP, 0x20000800)  returns 0x00 (0000ms, 0616ms total)
T1BE0 000:823 JLINK_WriteReg(CFBP, 0x00000000)  returns 0x00 (0000ms, 0616ms total)
T1BE0 000:823 JLINK_SetBPEx(Addr = 0x20000000, Type = 0xFFFFFFF2)  returns 0x0000000C (0000ms, 0616ms total)
T1BE0 000:823 JLINK_Go() -- CPU_ReadMem(4 bytes @ 0xE0001000) -- CPU_WriteMem(4 bytes @ 0xE0001000) (0001ms, 0617ms total)
T1BE0 000:824 JLINK_IsHalted()  returns FALSE (0000ms, 0617ms total)
T1BE0 000:840 JLINK_IsHalted() -- CPU_ReadMem(2 bytes @ 0x20000000)  returns TRUE (0002ms, 0619ms total)
T1BE0 000:842 JLINK_ReadReg(R15 (PC))  returns 0x20000000 (0000ms, 0617ms total)
T1BE0 000:842 JLINK_ClrBPEx(BPHandle = 0x0000000C)  returns 0x00 (0000ms, 0617ms total)
T1BE0 000:842 JLINK_ReadReg(R0)  returns 0x00000000 (0000ms, 0617ms total)
T1BE0 000:842 JLINK_WriteMem(0x20000110, 0x0200 Bytes, ...) - Data: 70 47 00 00 FE B5 05 46 30 48 00 68 C0 B2 01 90 ... -- CPU_WriteMem(512 bytes @ 0x20000110)  returns 0x200 (0003ms, 0620ms total)
T1BE0 000:845 JLINK_WriteReg(R0, 0x00000200)  returns 0x00 (0000ms, 0620ms total)
T1BE0 000:845 JLINK_WriteReg(R1, 0x00000200)  returns 0x00 (0000ms, 0620ms total)
T1BE0 000:845 JLINK_WriteReg(R2, 0x20000110)  returns 0x00 (0000ms, 0620ms total)
T1BE0 000:845 JLINK_WriteReg(R3, 0x00000000)  returns 0x00 (0000ms, 0620ms total)
T1BE0 000:845 JLINK_WriteReg(R4, 0x00000000)  returns 0x00 (0000ms, 0620ms total)
T1BE0 000:845 JLINK_WriteReg(R5, 0x00000000)  returns 0x00 (0000ms, 0620ms total)
T1BE0 000:845 JLINK_WriteReg(R6, 0x00000000)  returns 0x00 (0000ms, 0620ms total)
T1BE0 000:845 JLINK_WriteReg(R7, 0x00000000)  returns 0x00 (0000ms, 0620ms total)
T1BE0 000:845 JLINK_WriteReg(R8, 0x00000000)  returns 0x00 (0000ms, 0620ms total)
T1BE0 000:845 JLINK_WriteReg(R9, 0x2000010C)  returns 0x00 (0000ms, 0620ms total)
T1BE0 000:845 JLINK_WriteReg(R10, 0x00000000)  returns 0x00 (0000ms, 0620ms total)
T1BE0 000:845 JLINK_WriteReg(R11, 0x00000000)  returns 0x00 (0000ms, 0620ms total)
T1BE0 000:845 JLINK_WriteReg(R12, 0x00000000)  returns 0x00 (0000ms, 0620ms total)
T1BE0 000:845 JLINK_WriteReg(R13 (SP), 0x20000800)  returns 0x00 (0000ms, 0620ms total)
T1BE0 000:845 JLINK_WriteReg(R14, 0x20000001)  returns 0x00 (0000ms, 0620ms total)
T1BE0 000:845 JLINK_WriteReg(R15 (PC), 0x200000C2)  returns 0x00 (0000ms, 0620ms total)
T1BE0 000:845 JLINK_WriteReg(XPSR, 0x01000000)  returns 0x00 (0000ms, 0620ms total)
T1BE0 000:845 JLINK_WriteReg(MSP, 0x20000800)  returns 0x00 (0000ms, 0620ms total)
T1BE0 000:845 JLINK_WriteReg(PSP, 0x20000800)  returns 0x00 (0000ms, 0620ms total)
T1BE0 000:845 JLINK_WriteReg(CFBP, 0x00000000)  returns 0x00 (0000ms, 0620ms total)
T1BE0 000:845 JLINK_SetBPEx(Addr = 0x20000000, Type = 0xFFFFFFF2)  returns 0x0000000D (0000ms, 0620ms total)
T1BE0 000:845 JLINK_Go() -- CPU_ReadMem(4 bytes @ 0xE0001000) -- CPU_WriteMem(4 bytes @ 0xE0001000) (0001ms, 0621ms total)
T1BE0 000:846 JLINK_IsHalted()  returns FALSE (0001ms, 0622ms total)
T1BE0 000:853 JLINK_IsHalted() -- CPU_ReadMem(2 bytes @ 0x20000000)  returns TRUE (0002ms, 0623ms total)
T1BE0 000:855 JLINK_ReadReg(R15 (PC))  returns 0x20000000 (0000ms, 0621ms total)
T1BE0 000:855 JLINK_ClrBPEx(BPHandle = 0x0000000D)  returns 0x00 (0000ms, 0621ms total)
T1BE0 000:855 JLINK_ReadReg(R0)  returns 0x00000000 (0000ms, 0621ms total)
T1BE0 000:855 JLINK_WriteMem(0x20000110, 0x0200 Bytes, ...) - Data: 09 48 00 F0 AD F8 00 28 EC D0 08 48 00 68 09 49 ... -- CPU_WriteMem(512 bytes @ 0x20000110)  returns 0x200 (0002ms, 0623ms total)
T1BE0 000:857 JLINK_WriteReg(R0, 0x00000400)  returns 0x00 (0000ms, 0623ms total)
T1BE0 000:857 JLINK_WriteReg(R1, 0x00000200)  returns 0x00 (0000ms, 0623ms total)
T1BE0 000:857 JLINK_WriteReg(R2, 0x20000110)  returns 0x00 (0000ms, 0623ms total)
T1BE0 000:857 JLINK_WriteReg(R3, 0x00000000)  returns 0x00 (0000ms, 0623ms total)
T1BE0 000:857 JLINK_WriteReg(R4, 0x00000000)  returns 0x00 (0000ms, 0623ms total)
T1BE0 000:857 JLINK_WriteReg(R5, 0x00000000)  returns 0x00 (0000ms, 0623ms total)
T1BE0 000:857 JLINK_WriteReg(R6, 0x00000000)  returns 0x00 (0000ms, 0623ms total)
T1BE0 000:857 JLINK_WriteReg(R7, 0x00000000)  returns 0x00 (0000ms, 0623ms total)
T1BE0 000:857 JLINK_WriteReg(R8, 0x00000000)  returns 0x00 (0000ms, 0623ms total)
T1BE0 000:857 JLINK_WriteReg(R9, 0x2000010C)  returns 0x00 (0000ms, 0623ms total)
T1BE0 000:857 JLINK_WriteReg(R10, 0x00000000)  returns 0x00 (0000ms, 0623ms total)
T1BE0 000:857 JLINK_WriteReg(R11, 0x00000000)  returns 0x00 (0000ms, 0623ms total)
T1BE0 000:857 JLINK_WriteReg(R12, 0x00000000)  returns 0x00 (0000ms, 0623ms total)
T1BE0 000:857 JLINK_WriteReg(R13 (SP), 0x20000800)  returns 0x00 (0000ms, 0623ms total)
T1BE0 000:857 JLINK_WriteReg(R14, 0x20000001)  returns 0x00 (0000ms, 0623ms total)
T1BE0 000:857 JLINK_WriteReg(R15 (PC), 0x200000C2)  returns 0x00 (0000ms, 0623ms total)
T1BE0 000:857 JLINK_WriteReg(XPSR, 0x01000000)  returns 0x00 (0000ms, 0623ms total)
T1BE0 000:857 JLINK_WriteReg(MSP, 0x20000800)  returns 0x00 (0000ms, 0623ms total)
T1BE0 000:857 JLINK_WriteReg(PSP, 0x20000800)  returns 0x00 (0000ms, 0623ms total)
T1BE0 000:857 JLINK_WriteReg(CFBP, 0x00000000)  returns 0x00 (0000ms, 0623ms total)
T1BE0 000:857 JLINK_SetBPEx(Addr = 0x20000000, Type = 0xFFFFFFF2)  returns 0x0000000E (0000ms, 0623ms total)
T1BE0 000:857 JLINK_Go() -- CPU_ReadMem(4 bytes @ 0xE0001000) -- CPU_WriteMem(4 bytes @ 0xE0001000) (0002ms, 0625ms total)
T1BE0 000:859 JLINK_IsHalted()  returns FALSE (0001ms, 0626ms total)
T1BE0 000:870 JLINK_IsHalted() -- CPU_ReadMem(2 bytes @ 0x20000000)  returns TRUE (0002ms, 0627ms total)
T1BE0 000:872 JLINK_ReadReg(R15 (PC))  returns 0x20000000 (0000ms, 0625ms total)
T1BE0 000:872 JLINK_ClrBPEx(BPHandle = 0x0000000E)  returns 0x00 (0000ms, 0625ms total)
T1BE0 000:872 JLINK_ReadReg(R0)  returns 0x00000000 (0000ms, 0625ms total)
T1BE0 000:873 JLINK_WriteMem(0x20000110, 0x0200 Bytes, ...) - Data: B8 06 81 0C 01 91 38 46 3F 21 C9 43 08 40 80 09 ... -- CPU_WriteMem(512 bytes @ 0x20000110)  returns 0x200 (0003ms, 0628ms total)
T1BE0 000:876 JLINK_WriteReg(R0, 0x00000600)  returns 0x00 (0000ms, 0628ms total)
T1BE0 000:876 JLINK_WriteReg(R1, 0x0000017C)  returns 0x00 (0000ms, 0628ms total)
T1BE0 000:876 JLINK_WriteReg(R2, 0x20000110)  returns 0x00 (0000ms, 0628ms total)
T1BE0 000:876 JLINK_WriteReg(R3, 0x00000000)  returns 0x00 (0000ms, 0628ms total)
T1BE0 000:876 JLINK_WriteReg(R4, 0x00000000)  returns 0x00 (0000ms, 0628ms total)
T1BE0 000:876 JLINK_WriteReg(R5, 0x00000000)  returns 0x00 (0000ms, 0628ms total)
T1BE0 000:876 JLINK_WriteReg(R6, 0x00000000)  returns 0x00 (0000ms, 0628ms total)
T1BE0 000:876 JLINK_WriteReg(R7, 0x00000000)  returns 0x00 (0000ms, 0628ms total)
T1BE0 000:876 JLINK_WriteReg(R8, 0x00000000)  returns 0x00 (0000ms, 0628ms total)
T1BE0 000:876 JLINK_WriteReg(R9, 0x2000010C)  returns 0x00 (0000ms, 0628ms total)
T1BE0 000:876 JLINK_WriteReg(R10, 0x00000000)  returns 0x00 (0000ms, 0628ms total)
T1BE0 000:876 JLINK_WriteReg(R11, 0x00000000)  returns 0x00 (0000ms, 0628ms total)
T1BE0 000:876 JLINK_WriteReg(R12, 0x00000000)  returns 0x00 (0000ms, 0628ms total)
T1BE0 000:876 JLINK_WriteReg(R13 (SP), 0x20000800)  returns 0x00 (0000ms, 0628ms total)
T1BE0 000:876 JLINK_WriteReg(R14, 0x20000001)  returns 0x00 (0000ms, 0628ms total)
T1BE0 000:876 JLINK_WriteReg(R15 (PC), 0x200000C2)  returns 0x00 (0000ms, 0628ms total)
T1BE0 000:876 JLINK_WriteReg(XPSR, 0x01000000)  returns 0x00 (0000ms, 0628ms total)
T1BE0 000:876 JLINK_WriteReg(MSP, 0x20000800)  returns 0x00 (0000ms, 0628ms total)
T1BE0 000:876 JLINK_WriteReg(PSP, 0x20000800)  returns 0x00 (0000ms, 0628ms total)
T1BE0 000:876 JLINK_WriteReg(CFBP, 0x00000000)  returns 0x00 (0000ms, 0628ms total)
T1BE0 000:876 JLINK_SetBPEx(Addr = 0x20000000, Type = 0xFFFFFFF2)  returns 0x0000000F (0000ms, 0628ms total)
T1BE0 000:876 JLINK_Go() -- CPU_ReadMem(4 bytes @ 0xE0001000) -- CPU_WriteMem(4 bytes @ 0xE0001000) (0002ms, 0630ms total)
T1BE0 000:878 JLINK_IsHalted()  returns FALSE (0001ms, 0631ms total)
T1BE0 000:895 JLINK_IsHalted() -- CPU_ReadMem(2 bytes @ 0x20000000)  returns TRUE (0003ms, 0633ms total)
T1BE0 000:898 JLINK_ReadReg(R15 (PC))  returns 0x20000000 (0000ms, 0630ms total)
T1BE0 000:898 JLINK_ClrBPEx(BPHandle = 0x0000000F)  returns 0x00 (0000ms, 0630ms total)
T1BE0 000:898 JLINK_ReadReg(R0)  returns 0x00000000 (0000ms, 0630ms total)
T1BE0 000:898 JLINK_WriteReg(R0, 0x00000002)  returns 0x00 (0000ms, 0630ms total)
T1BE0 000:898 JLINK_WriteReg(R1, 0x0000017C)  returns 0x00 (0000ms, 0630ms total)
T1BE0 000:898 JLINK_WriteReg(R2, 0x20000110)  returns 0x00 (0000ms, 0630ms total)
T1BE0 000:898 JLINK_WriteReg(R3, 0x00000000)  returns 0x00 (0000ms, 0630ms total)
T1BE0 000:898 JLINK_WriteReg(R4, 0x00000000)  returns 0x00 (0000ms, 0630ms total)
T1BE0 000:898 JLINK_WriteReg(R5, 0x00000000)  returns 0x00 (0000ms, 0630ms total)
T1BE0 000:898 JLINK_WriteReg(R6, 0x00000000)  returns 0x00 (0000ms, 0630ms total)
T1BE0 000:898 JLINK_WriteReg(R7, 0x00000000)  returns 0x00 (0000ms, 0630ms total)
T1BE0 000:898 JLINK_WriteReg(R8, 0x00000000)  returns 0x00 (0000ms, 0630ms total)
T1BE0 000:898 JLINK_WriteReg(R9, 0x2000010C)  returns 0x00 (0000ms, 0630ms total)
T1BE0 000:898 JLINK_WriteReg(R10, 0x00000000)  returns 0x00 (0000ms, 0630ms total)
T1BE0 000:898 JLINK_WriteReg(R11, 0x00000000)  returns 0x00 (0000ms, 0630ms total)
T1BE0 000:898 JLINK_WriteReg(R12, 0x00000000)  returns 0x00 (0000ms, 0630ms total)
T1BE0 000:898 JLINK_WriteReg(R13 (SP), 0x20000800)  returns 0x00 (0000ms, 0630ms total)
T1BE0 000:898 JLINK_WriteReg(R14, 0x20000001)  returns 0x00 (0000ms, 0630ms total)
T1BE0 000:898 JLINK_WriteReg(R15 (PC), 0x2000005A)  returns 0x00 (0000ms, 0630ms total)
T1BE0 000:898 JLINK_WriteReg(XPSR, 0x01000000)  returns 0x00 (0000ms, 0630ms total)
T1BE0 000:898 JLINK_WriteReg(MSP, 0x20000800)  returns 0x00 (0000ms, 0630ms total)
T1BE0 000:898 JLINK_WriteReg(PSP, 0x20000800)  returns 0x00 (0000ms, 0630ms total)
T1BE0 000:898 JLINK_WriteReg(CFBP, 0x00000000)  returns 0x00 (0000ms, 0630ms total)
T1BE0 000:898 JLINK_SetBPEx(Addr = 0x20000000, Type = 0xFFFFFFF2)  returns 0x00000010 (0000ms, 0630ms total)
T1BE0 000:898 JLINK_Go() -- CPU_ReadMem(4 bytes @ 0xE0001000) -- CPU_WriteMem(4 bytes @ 0xE0001000) (0002ms, 0632ms total)
T1BE0 000:900 JLINK_IsHalted() -- CPU_ReadMem(2 bytes @ 0x20000000)  returns TRUE (0002ms, 0634ms total)
T1BE0 000:902 JLINK_ReadReg(R15 (PC))  returns 0x20000000 (0000ms, 0632ms total)
T1BE0 000:902 JLINK_ClrBPEx(BPHandle = 0x00000010)  returns 0x00 (0000ms, 0632ms total)
T1BE0 000:902 JLINK_ReadReg(R0)  returns 0x00000000 (0000ms, 0632ms total)
T1BE0 000:961 JLINK_WriteMem(0x20000000, 0x0110 Bytes, ...) - Data: 00 BE 0A E0 0D 78 2D 06 68 40 08 24 40 00 00 D3 ... -- CPU_WriteMem(272 bytes @ 0x20000000)  returns 0x110 (0001ms, 0633ms total)
T1BE0 000:963 JLINK_WriteReg(R0, 0x00000000)  returns 0x00 (0000ms, 0634ms total)
T1BE0 000:963 JLINK_WriteReg(R1, 0x00B71B00)  returns 0x00 (0000ms, 0634ms total)
T1BE0 000:963 JLINK_WriteReg(R2, 0x00000003)  returns 0x00 (0000ms, 0634ms total)
T1BE0 000:963 JLINK_WriteReg(R3, 0x00000000)  returns 0x00 (0000ms, 0634ms total)
T1BE0 000:963 JLINK_WriteReg(R4, 0x00000000)  returns 0x00 (0000ms, 0634ms total)
T1BE0 000:963 JLINK_WriteReg(R5, 0x00000000)  returns 0x00 (0000ms, 0634ms total)
T1BE0 000:963 JLINK_WriteReg(R6, 0x00000000)  returns 0x00 (0000ms, 0634ms total)
T1BE0 000:963 JLINK_WriteReg(R7, 0x00000000)  returns 0x00 (0000ms, 0634ms total)
T1BE0 000:963 JLINK_WriteReg(R8, 0x00000000)  returns 0x00 (0000ms, 0634ms total)
T1BE0 000:963 JLINK_WriteReg(R9, 0x2000010C)  returns 0x00 (0000ms, 0634ms total)
T1BE0 000:963 JLINK_WriteReg(R10, 0x00000000)  returns 0x00 (0000ms, 0634ms total)
T1BE0 000:963 JLINK_WriteReg(R11, 0x00000000)  returns 0x00 (0000ms, 0634ms total)
T1BE0 000:963 JLINK_WriteReg(R12, 0x00000000)  returns 0x00 (0000ms, 0634ms total)
T1BE0 000:963 JLINK_WriteReg(R13 (SP), 0x20000800)  returns 0x00 (0000ms, 0634ms total)
T1BE0 000:963 JLINK_WriteReg(R14, 0x20000001)  returns 0x00 (0000ms, 0634ms total)
T1BE0 000:963 JLINK_WriteReg(R15 (PC), 0x20000038)  returns 0x00 (0000ms, 0634ms total)
T1BE0 000:963 JLINK_WriteReg(XPSR, 0x01000000)  returns 0x00 (0000ms, 0634ms total)
T1BE0 000:963 JLINK_WriteReg(MSP, 0x20000800)  returns 0x00 (0000ms, 0634ms total)
T1BE0 000:963 JLINK_WriteReg(PSP, 0x20000800)  returns 0x00 (0000ms, 0634ms total)
T1BE0 000:963 JLINK_WriteReg(CFBP, 0x00000000)  returns 0x00 (0000ms, 0634ms total)
T1BE0 000:963 JLINK_SetBPEx(Addr = 0x20000000, Type = 0xFFFFFFF2) -- CPU_ReadMem(4 bytes @ 0x20000000) -- CPU_WriteMem(4 bytes @ 0x20000000) -- CPU_ReadMem(4 bytes @ 0x20000000) -- CPU_WriteMem(4 bytes @ 0x20000000) -- CPU_ReadMem(2 bytes @ 0x20000000)  returns 0x00000011 (0002ms, 0636ms total)
T1BE0 000:965 JLINK_Go() -- CPU_WriteMem(2 bytes @ 0x20000000) -- CPU_ReadMem(4 bytes @ 0xE0001000) -- CPU_WriteMem(4 bytes @ 0xE0001000) (0003ms, 0639ms total)
T1BE0 000:968 JLINK_IsHalted() -- CPU_ReadMem(2 bytes @ 0x20000000)  returns TRUE (0002ms, 0641ms total)
T1BE0 000:970 JLINK_ReadReg(R15 (PC))  returns 0x20000000 (0000ms, 0639ms total)
T1BE0 000:970 JLINK_ClrBPEx(BPHandle = 0x00000011)  returns 0x00 (0000ms, 0639ms total)
T1BE0 000:970 JLINK_ReadReg(R0)  returns 0x00000000 (0000ms, 0639ms total)
T1BE0 000:970 JLINK_WriteMem(0x20000110, 0x0200 Bytes, ...) - Data: D0 01 00 20 81 00 00 00 89 00 00 00 8D 01 00 00 ... -- CPU_WriteMem(512 bytes @ 0x20000110)  returns 0x200 (0002ms, 0641ms total)
T1BE0 000:972 JLINK_WriteReg(R0, 0x00000000)  returns 0x00 (0000ms, 0641ms total)
T1BE0 000:972 JLINK_WriteReg(R1, 0x00000200)  returns 0x00 (0000ms, 0641ms total)
T1BE0 000:972 JLINK_WriteReg(R2, 0x20000110)  returns 0x00 (0000ms, 0641ms total)
T1BE0 000:972 JLINK_WriteReg(R3, 0x00000000)  returns 0x00 (0000ms, 0641ms total)
T1BE0 000:972 JLINK_WriteReg(R4, 0x00000000)  returns 0x00 (0000ms, 0641ms total)
T1BE0 000:972 JLINK_WriteReg(R5, 0x00000000)  returns 0x00 (0000ms, 0641ms total)
T1BE0 000:972 JLINK_WriteReg(R6, 0x00000000)  returns 0x00 (0000ms, 0641ms total)
T1BE0 000:972 JLINK_WriteReg(R7, 0x00000000)  returns 0x00 (0000ms, 0641ms total)
T1BE0 000:972 JLINK_WriteReg(R8, 0x00000000)  returns 0x00 (0000ms, 0641ms total)
T1BE0 000:972 JLINK_WriteReg(R9, 0x2000010C)  returns 0x00 (0000ms, 0641ms total)
T1BE0 000:972 JLINK_WriteReg(R10, 0x00000000)  returns 0x00 (0000ms, 0641ms total)
T1BE0 000:972 JLINK_WriteReg(R11, 0x00000000)  returns 0x00 (0000ms, 0641ms total)
T1BE0 000:972 JLINK_WriteReg(R12, 0x00000000)  returns 0x00 (0000ms, 0641ms total)
T1BE0 000:972 JLINK_WriteReg(R13 (SP), 0x20000800)  returns 0x00 (0000ms, 0641ms total)
T1BE0 000:972 JLINK_WriteReg(R14, 0x20000001)  returns 0x00 (0000ms, 0641ms total)
T1BE0 000:972 JLINK_WriteReg(R15 (PC), 0x200000D8)  returns 0x00 (0000ms, 0641ms total)
T1BE0 000:972 JLINK_WriteReg(XPSR, 0x01000000)  returns 0x00 (0000ms, 0641ms total)
T1BE0 000:972 JLINK_WriteReg(MSP, 0x20000800)  returns 0x00 (0000ms, 0641ms total)
T1BE0 000:972 JLINK_WriteReg(PSP, 0x20000800)  returns 0x00 (0000ms, 0641ms total)
T1BE0 000:972 JLINK_WriteReg(CFBP, 0x00000000)  returns 0x00 (0000ms, 0641ms total)
T1BE0 000:972 JLINK_SetBPEx(Addr = 0x20000000, Type = 0xFFFFFFF2)  returns 0x00000012 (0000ms, 0641ms total)
T1BE0 000:972 JLINK_Go() -- CPU_ReadMem(4 bytes @ 0xE0001000) -- CPU_WriteMem(4 bytes @ 0xE0001000) (0002ms, 0643ms total)
T1BE0 000:974 JLINK_IsHalted() -- CPU_ReadMem(2 bytes @ 0x20000000)  returns TRUE (0002ms, 0645ms total)
T1BE0 000:976 JLINK_ReadReg(R15 (PC))  returns 0x20000000 (0000ms, 0643ms total)
T1BE0 000:976 JLINK_ClrBPEx(BPHandle = 0x00000012)  returns 0x00 (0000ms, 0643ms total)
T1BE0 000:976 JLINK_ReadReg(R0)  returns 0x00000200 (0000ms, 0643ms total)
T1BE0 000:977 JLINK_WriteMem(0x20000110, 0x0200 Bytes, ...) - Data: 70 47 00 00 FE B5 05 46 30 48 00 68 C0 B2 01 90 ... -- CPU_WriteMem(512 bytes @ 0x20000110)  returns 0x200 (0003ms, 0646ms total)
T1BE0 000:980 JLINK_WriteReg(R0, 0x00000200)  returns 0x00 (0000ms, 0646ms total)
T1BE0 000:980 JLINK_WriteReg(R1, 0x00000200)  returns 0x00 (0000ms, 0646ms total)
T1BE0 000:980 JLINK_WriteReg(R2, 0x20000110)  returns 0x00 (0000ms, 0646ms total)
T1BE0 000:980 JLINK_WriteReg(R3, 0x00000000)  returns 0x00 (0000ms, 0646ms total)
T1BE0 000:980 JLINK_WriteReg(R4, 0x00000000)  returns 0x00 (0000ms, 0646ms total)
T1BE0 000:980 JLINK_WriteReg(R5, 0x00000000)  returns 0x00 (0000ms, 0646ms total)
T1BE0 000:980 JLINK_WriteReg(R6, 0x00000000)  returns 0x00 (0000ms, 0646ms total)
T1BE0 000:980 JLINK_WriteReg(R7, 0x00000000)  returns 0x00 (0000ms, 0646ms total)
T1BE0 000:980 JLINK_WriteReg(R8, 0x00000000)  returns 0x00 (0000ms, 0646ms total)
T1BE0 000:980 JLINK_WriteReg(R9, 0x2000010C)  returns 0x00 (0000ms, 0646ms total)
T1BE0 000:980 JLINK_WriteReg(R10, 0x00000000)  returns 0x00 (0000ms, 0646ms total)
T1BE0 000:980 JLINK_WriteReg(R11, 0x00000000)  returns 0x00 (0000ms, 0646ms total)
T1BE0 000:980 JLINK_WriteReg(R12, 0x00000000)  returns 0x00 (0000ms, 0646ms total)
T1BE0 000:980 JLINK_WriteReg(R13 (SP), 0x20000800)  returns 0x00 (0000ms, 0646ms total)
T1BE0 000:980 JLINK_WriteReg(R14, 0x20000001)  returns 0x00 (0000ms, 0646ms total)
T1BE0 000:980 JLINK_WriteReg(R15 (PC), 0x200000D8)  returns 0x00 (0000ms, 0646ms total)
T1BE0 000:980 JLINK_WriteReg(XPSR, 0x01000000)  returns 0x00 (0000ms, 0646ms total)
T1BE0 000:980 JLINK_WriteReg(MSP, 0x20000800)  returns 0x00 (0000ms, 0646ms total)
T1BE0 000:980 JLINK_WriteReg(PSP, 0x20000800)  returns 0x00 (0000ms, 0646ms total)
T1BE0 000:980 JLINK_WriteReg(CFBP, 0x00000000)  returns 0x00 (0000ms, 0646ms total)
T1BE0 000:980 JLINK_SetBPEx(Addr = 0x20000000, Type = 0xFFFFFFF2)  returns 0x00000013 (0000ms, 0646ms total)
T1BE0 000:980 JLINK_Go() -- CPU_ReadMem(4 bytes @ 0xE0001000) -- CPU_WriteMem(4 bytes @ 0xE0001000) (0002ms, 0648ms total)
T1BE0 000:982 JLINK_IsHalted() -- CPU_ReadMem(2 bytes @ 0x20000000)  returns TRUE (0003ms, 0651ms total)
T1BE0 000:985 JLINK_ReadReg(R15 (PC))  returns 0x20000000 (0000ms, 0648ms total)
T1BE0 000:985 JLINK_ClrBPEx(BPHandle = 0x00000013)  returns 0x00 (0000ms, 0648ms total)
T1BE0 000:985 JLINK_ReadReg(R0)  returns 0x00000400 (0000ms, 0648ms total)
T1BE0 000:985 JLINK_WriteMem(0x20000110, 0x0200 Bytes, ...) - Data: 09 48 00 F0 AD F8 00 28 EC D0 08 48 00 68 09 49 ... -- CPU_WriteMem(512 bytes @ 0x20000110)  returns 0x200 (0002ms, 0650ms total)
T1BE0 000:987 JLINK_WriteReg(R0, 0x00000400)  returns 0x00 (0000ms, 0650ms total)
T1BE0 000:987 JLINK_WriteReg(R1, 0x00000200)  returns 0x00 (0000ms, 0650ms total)
T1BE0 000:987 JLINK_WriteReg(R2, 0x20000110)  returns 0x00 (0000ms, 0650ms total)
T1BE0 000:987 JLINK_WriteReg(R3, 0x00000000)  returns 0x00 (0000ms, 0650ms total)
T1BE0 000:987 JLINK_WriteReg(R4, 0x00000000)  returns 0x00 (0000ms, 0650ms total)
T1BE0 000:987 JLINK_WriteReg(R5, 0x00000000)  returns 0x00 (0000ms, 0650ms total)
T1BE0 000:987 JLINK_WriteReg(R6, 0x00000000)  returns 0x00 (0000ms, 0650ms total)
T1BE0 000:987 JLINK_WriteReg(R7, 0x00000000)  returns 0x00 (0000ms, 0650ms total)
T1BE0 000:987 JLINK_WriteReg(R8, 0x00000000)  returns 0x00 (0000ms, 0650ms total)
T1BE0 000:987 JLINK_WriteReg(R9, 0x2000010C)  returns 0x00 (0000ms, 0650ms total)
T1BE0 000:987 JLINK_WriteReg(R10, 0x00000000)  returns 0x00 (0000ms, 0650ms total)
T1BE0 000:987 JLINK_WriteReg(R11, 0x00000000)  returns 0x00 (0000ms, 0650ms total)
T1BE0 000:987 JLINK_WriteReg(R12, 0x00000000)  returns 0x00 (0000ms, 0650ms total)
T1BE0 000:987 JLINK_WriteReg(R13 (SP), 0x20000800)  returns 0x00 (0000ms, 0650ms total)
T1BE0 000:987 JLINK_WriteReg(R14, 0x20000001)  returns 0x00 (0000ms, 0650ms total)
T1BE0 000:987 JLINK_WriteReg(R15 (PC), 0x200000D8)  returns 0x00 (0000ms, 0650ms total)
T1BE0 000:987 JLINK_WriteReg(XPSR, 0x01000000)  returns 0x00 (0000ms, 0650ms total)
T1BE0 000:987 JLINK_WriteReg(MSP, 0x20000800)  returns 0x00 (0000ms, 0650ms total)
T1BE0 000:987 JLINK_WriteReg(PSP, 0x20000800)  returns 0x00 (0000ms, 0650ms total)
T1BE0 000:987 JLINK_WriteReg(CFBP, 0x00000000)  returns 0x00 (0000ms, 0650ms total)
T1BE0 000:987 JLINK_SetBPEx(Addr = 0x20000000, Type = 0xFFFFFFF2)  returns 0x00000014 (0000ms, 0650ms total)
T1BE0 000:987 JLINK_Go() -- CPU_ReadMem(4 bytes @ 0xE0001000) -- CPU_WriteMem(4 bytes @ 0xE0001000) (0003ms, 0653ms total)
T1BE0 000:990 JLINK_IsHalted() -- CPU_ReadMem(2 bytes @ 0x20000000)  returns TRUE (0002ms, 0655ms total)
T1BE0 000:992 JLINK_ReadReg(R15 (PC))  returns 0x20000000 (0000ms, 0653ms total)
T1BE0 000:992 JLINK_ClrBPEx(BPHandle = 0x00000014)  returns 0x00 (0000ms, 0653ms total)
T1BE0 000:992 JLINK_ReadReg(R0)  returns 0x00000600 (0000ms, 0653ms total)
T1BE0 000:992 JLINK_WriteMem(0x20000110, 0x0200 Bytes, ...) - Data: B8 06 81 0C 01 91 38 46 3F 21 C9 43 08 40 80 09 ... -- CPU_WriteMem(512 bytes @ 0x20000110)  returns 0x200 (0003ms, 0656ms total)
T1BE0 000:995 JLINK_WriteReg(R0, 0x00000600)  returns 0x00 (0000ms, 0656ms total)
T1BE0 000:995 JLINK_WriteReg(R1, 0x0000017C)  returns 0x00 (0000ms, 0656ms total)
T1BE0 000:995 JLINK_WriteReg(R2, 0x20000110)  returns 0x00 (0000ms, 0656ms total)
T1BE0 000:995 JLINK_WriteReg(R3, 0x00000000)  returns 0x00 (0000ms, 0656ms total)
T1BE0 000:995 JLINK_WriteReg(R4, 0x00000000)  returns 0x00 (0000ms, 0656ms total)
T1BE0 000:995 JLINK_WriteReg(R5, 0x00000000)  returns 0x00 (0000ms, 0656ms total)
T1BE0 000:995 JLINK_WriteReg(R6, 0x00000000)  returns 0x00 (0000ms, 0656ms total)
T1BE0 000:995 JLINK_WriteReg(R7, 0x00000000)  returns 0x00 (0000ms, 0656ms total)
T1BE0 000:995 JLINK_WriteReg(R8, 0x00000000)  returns 0x00 (0000ms, 0656ms total)
T1BE0 000:995 JLINK_WriteReg(R9, 0x2000010C)  returns 0x00 (0000ms, 0656ms total)
T1BE0 000:995 JLINK_WriteReg(R10, 0x00000000)  returns 0x00 (0000ms, 0656ms total)
T1BE0 000:995 JLINK_WriteReg(R11, 0x00000000)  returns 0x00 (0000ms, 0656ms total)
T1BE0 000:995 JLINK_WriteReg(R12, 0x00000000)  returns 0x00 (0000ms, 0656ms total)
T1BE0 000:995 JLINK_WriteReg(R13 (SP), 0x20000800)  returns 0x00 (0000ms, 0656ms total)
T1BE0 000:995 JLINK_WriteReg(R14, 0x20000001)  returns 0x00 (0000ms, 0656ms total)
T1BE0 000:995 JLINK_WriteReg(R15 (PC), 0x200000D8)  returns 0x00 (0000ms, 0656ms total)
T1BE0 000:995 JLINK_WriteReg(XPSR, 0x01000000)  returns 0x00 (0000ms, 0656ms total)
T1BE0 000:995 JLINK_WriteReg(MSP, 0x20000800)  returns 0x00 (0000ms, 0656ms total)
T1BE0 000:995 JLINK_WriteReg(PSP, 0x20000800)  returns 0x00 (0000ms, 0656ms total)
T1BE0 000:995 JLINK_WriteReg(CFBP, 0x00000000)  returns 0x00 (0000ms, 0656ms total)
T1BE0 000:995 JLINK_SetBPEx(Addr = 0x20000000, Type = 0xFFFFFFF2)  returns 0x00000015 (0000ms, 0656ms total)
T1BE0 000:995 JLINK_Go() -- CPU_ReadMem(4 bytes @ 0xE0001000) -- CPU_WriteMem(4 bytes @ 0xE0001000) (0002ms, 0658ms total)
T1BE0 000:997 JLINK_IsHalted() -- CPU_ReadMem(2 bytes @ 0x20000000)  returns TRUE (0003ms, 0661ms total)
T1BE0 001:000 JLINK_ReadReg(R15 (PC))  returns 0x20000000 (0000ms, 0658ms total)
T1BE0 001:000 JLINK_ClrBPEx(BPHandle = 0x00000015)  returns 0x00 (0000ms, 0658ms total)
T1BE0 001:000 JLINK_ReadReg(R0)  returns 0x0000077C (0000ms, 0658ms total)
T1BE0 001:000 JLINK_WriteReg(R0, 0x00000003)  returns 0x00 (0000ms, 0658ms total)
T1BE0 001:000 JLINK_WriteReg(R1, 0x0000017C)  returns 0x00 (0000ms, 0658ms total)
T1BE0 001:000 JLINK_WriteReg(R2, 0x20000110)  returns 0x00 (0000ms, 0658ms total)
T1BE0 001:000 JLINK_WriteReg(R3, 0x00000000)  returns 0x00 (0000ms, 0658ms total)
T1BE0 001:000 JLINK_WriteReg(R4, 0x00000000)  returns 0x00 (0000ms, 0658ms total)
T1BE0 001:001 JLINK_WriteReg(R5, 0x00000000)  returns 0x00 (0000ms, 0658ms total)
T1BE0 001:001 JLINK_WriteReg(R6, 0x00000000)  returns 0x00 (0000ms, 0658ms total)
T1BE0 001:001 JLINK_WriteReg(R7, 0x00000000)  returns 0x00 (0000ms, 0658ms total)
T1BE0 001:001 JLINK_WriteReg(R8, 0x00000000)  returns 0x00 (0000ms, 0658ms total)
T1BE0 001:001 JLINK_WriteReg(R9, 0x2000010C)  returns 0x00 (0000ms, 0658ms total)
T1BE0 001:001 JLINK_WriteReg(R10, 0x00000000)  returns 0x00 (0000ms, 0658ms total)
T1BE0 001:001 JLINK_WriteReg(R11, 0x00000000)  returns 0x00 (0000ms, 0658ms total)
T1BE0 001:001 JLINK_WriteReg(R12, 0x00000000)  returns 0x00 (0000ms, 0658ms total)
T1BE0 001:001 JLINK_WriteReg(R13 (SP), 0x20000800)  returns 0x00 (0000ms, 0658ms total)
T1BE0 001:001 JLINK_WriteReg(R14, 0x20000001)  returns 0x00 (0000ms, 0658ms total)
T1BE0 001:001 JLINK_WriteReg(R15 (PC), 0x2000005A)  returns 0x00 (0000ms, 0658ms total)
T1BE0 001:001 JLINK_WriteReg(XPSR, 0x01000000)  returns 0x00 (0000ms, 0658ms total)
T1BE0 001:001 JLINK_WriteReg(MSP, 0x20000800)  returns 0x00 (0000ms, 0658ms total)
T1BE0 001:001 JLINK_WriteReg(PSP, 0x20000800)  returns 0x00 (0000ms, 0658ms total)
T1BE0 001:001 JLINK_WriteReg(CFBP, 0x00000000)  returns 0x00 (0000ms, 0658ms total)
T1BE0 001:001 JLINK_SetBPEx(Addr = 0x20000000, Type = 0xFFFFFFF2)  returns 0x00000016 (0000ms, 0658ms total)
T1BE0 001:001 JLINK_Go() -- CPU_ReadMem(4 bytes @ 0xE0001000) -- CPU_WriteMem(4 bytes @ 0xE0001000) (0002ms, 0660ms total)
T1BE0 001:003 JLINK_IsHalted() -- CPU_ReadMem(2 bytes @ 0x20000000)  returns TRUE (0002ms, 0662ms total)
T1BE0 001:005 JLINK_ReadReg(R15 (PC))  returns 0x20000000 (0000ms, 0660ms total)
T1BE0 001:005 JLINK_ClrBPEx(BPHandle = 0x00000016)  returns 0x00 (0000ms, 0660ms total)
T1BE0 001:005 JLINK_ReadReg(R0)  returns 0x00000000 (0000ms, 0660ms total)
T1BE0 001:061 JLINK_WriteMem(0x20000000, 0x0002 Bytes, ...) - Data: FE E7 -- CPU_WriteMem(2 bytes @ 0x20000000)  returns 0x02 (0001ms, 0661ms total)
T1BE0 001:062 JLINK_SetResetType(JLINKARM_RESET_TYPE_NORMAL)  returns JLINKARM_RESET_TYPE_NORMAL (0000ms, 0661ms total)
T1BE0 001:062 JLINK_Reset() -- CPU_ReadMem(4 bytes @ 0x20000110) -- CPU_WriteMem(4 bytes @ 0x20000110) -- CPU_WriteMem(4 bytes @ 0xE000EDF0) -- CPU_WriteMem(4 bytes @ 0xE000EDFC) >0x35 TIF> -- CPU_WriteMem(4 bytes @ 0xE000ED0C) -- CPU_ReadMem(4 bytes @ 0xE000EDF0) -- CPU_ReadMem(4 bytes @ 0xE000EDF0) -- CPU_WriteMem(4 bytes @ 0xE000EDF0) -- CPU_WriteMem(4 bytes @ 0xE000EDFC) -- CPU is running -- CPU_ReadMem(4 bytes @ 0xE000EDF0) -- CPU_WriteMem(4 bytes @ 0xE0002000) -- CPU_ReadMem(4 bytes @ 0xE000EDFC)
 -- CPU_ReadMem(4 bytes @ 0xE0001000) -- CPU_WriteMem(4 bytes @ 0xE0001000) (0018ms, 0679ms total)
T1BE0 001:080 JLINK_Go() -- CPU_ReadMem(4 bytes @ 0xE0001000) -- CPU_WriteMem(4 bytes @ 0xE0001000) -- CPU_WriteMem(4 bytes @ 0xE0002008) -- CPU_WriteMem(4 bytes @ 0xE000200C) -- CPU_WriteMem(4 bytes @ 0xE0002010) -- CPU_WriteMem(4 bytes @ 0xE0002014) -- CPU_WriteMem(4 bytes @ 0xE0001004) (0002ms, 0681ms total)
T1BE0 001:089 JLINK_Close() -- CPU is running -- CPU_WriteMem(4 bytes @ 0xE0002008) -- CPU is running -- CPU_WriteMem(4 bytes @ 0xE000200C) -- CPU is running -- CPU_WriteMem(4 bytes @ 0xE0002010) -- CPU is running -- CPU_WriteMem(4 bytes @ 0xE0002014) >0x42 TIF> >0x28 TIF> >0x0D TIF> >0x21 TIF> (0002ms, 0683ms total)
T1BE0 001:089  (0002ms, 0683ms total)
T1BE0 001:089 Closed (0002ms, 0683ms total)
