
T3420 000:335 SEGGER J-Link V5.12e Log File (0000ms, 0275ms total)
T3420 000:335 DLL Compiled: Apr 29 2016 15:03:58 (0000ms, 0275ms total)
T3420 000:335 Logging started @ 2023-10-09 17:52 (0000ms, 0275ms total)
T3420 000:335 JLINK_SetWarnOutHandler(...) (0000ms, 0275ms total)
T3420 000:335 JLINK_OpenEx(...)
Firmware: J-Link V9 compiled May  7 2021 16:26:12
Hardware: V9.40
S/N: 69405869
Feature(s): RDI, GDB, FlashDL, FlashBP, JFlash  returns O.K. (0271ms, 0546ms total)
T3420 000:606 JLINK_SetErrorOutHandler(...) (0000ms, 0546ms total)
T3420 000:606 JLINK_ExecCommand("ProjectFile = "E:\4ReferenceMaterial\0companySOC\A18003\DG32F003xx_SDK\SDK\Exmaple\TIMER1\TIM1_InputCapture_TI1FP1\USER\MDK-ARM\JLinkSettings.ini"", ...)  returns 0x00 (0017ms, 0563ms total)
T3420 000:626 JLINK_ExecCommand("Device = Cortex-M0+", ...)Device "CORTEX-M0+" selected.  returns 0x00 (0004ms, 0567ms total)
T3420 000:630 JLINK_ExecCommand("DisableConnectionTimeout", ...)  returns 0x01 (0000ms, 0567ms total)
T3420 000:630 JLINK_GetHardwareVersion()  returns 0x16F30 (0000ms, 0567ms total)
T3420 000:630 JLINK_GetDLLVersion()  returns 51205 (0000ms, 0567ms total)
T3420 000:630 JLINK_GetFirmwareString(...) (0000ms, 0567ms total)
T3420 000:638 JLINK_GetDLLVersion()  returns 51205 (0000ms, 0567ms total)
T3420 000:638 JLINK_GetCompileDateTime() (0000ms, 0567ms total)
T3420 000:641 JLINK_GetFirmwareString(...) (0000ms, 0567ms total)
T3420 000:643 JLINK_GetHardwareVersion()  returns 0x16F30 (0000ms, 0567ms total)
T3420 000:654 JLINK_TIF_Select(JLINKARM_TIF_SWD)  returns 0x00 (0001ms, 0568ms total)
T3420 000:655 JLINK_SetSpeed(5000) (0000ms, 0568ms total)
T3420 000:655 JLINK_GetId() >0x108 TIF>Found SWD-DP with ID 0x0BC11477 >0x0D TIF> >0x28 TIF> >0x0D TIF> >0x28 TIF> >0x0D TIF> >0x28 TIF> >0x0D TIF> >0x28 TIF> >0x0D TIF> >0x21 TIF> >0x0D TIF> >0x28 TIF> >0x0D TIF> >0x28 TIF> >0x0D TIF> >0x21 TIF> >0x0D TIF> >0x21 TIF> >0x0D TIF> >0x21 TIF> >0x0D TIF> >0x28 TIF> >0x0D TIF> >0x28 TIF> >0x0D TIF> >0x28 TIF> >0x0D TIF> >0x21 TIF> >0x0D TIF> >0x21 TIF> >0x0D TIF> >0x28 TIF> >0x0D TIF> >0x21 TIF> >0x0D TIF> >0x21 TIF>Found Cortex-M0 r0p1, Little endian.
 -- CPU_ReadMem(4 bytes @ 0xE000EDF0) -- CPU_ReadMem(4 bytes @ 0xE0002000)FPUnit: 4 code (BP) slots and 0 literal slots -- CPU_ReadMem(4 bytes @ 0xE000EDFC) -- CPU_ReadMem(4 bytes @ 0xE0001000) -- CPU_WriteMem(4 bytes @ 0xE0001000)CoreSight components:ROMTbl 0 @ E00FF000 -- CPU_ReadMem(16 bytes @ 0xE00FF000) -- CPU_ReadMem(16 bytes @ 0xE000EFF0) -- CPU_ReadMem(16 bytes @ 0xE000EFE0)ROMTbl 0 [0]: FFF0F000, CID: B105E00D, PID: 000BB008 SCS -- CPU_ReadMem(16 bytes @ 0xE0001FF0)
 -- CPU_ReadMem(16 bytes @ 0xE0001FE0)ROMTbl 0 [1]: FFF02000, CID: B105E00D, PID: 000BB00A DWT -- CPU_ReadMem(16 bytes @ 0xE0002FF0) -- CPU_ReadMem(16 bytes @ 0xE0002FE0)ROMTbl 0 [2]: FFF03000, CID: B105E00D, PID: 000BB00B FPB >0x0D TIF> >0x21 TIF>  returns 0x0BC11477 (0035ms, 0603ms total)
T3420 000:690 JLINK_GetDLLVersion()  returns 51205 (0000ms, 0603ms total)
T3420 000:690 JLINK_CORE_GetFound()  returns 0x60000FF (0001ms, 0604ms total)
T3420 000:691 JLINK_GetDebugInfo(0x100) -- Value=0xE00FF000  returns 0x00 (0000ms, 0604ms total)
T3420 000:693 JLINK_GetDebugInfo(0x100) -- Value=0xE00FF000  returns 0x00 (0000ms, 0604ms total)
T3420 000:693 JLINK_GetDebugInfo(0x101) -- Value=0x00000000  returns 0x00 (0000ms, 0604ms total)
T3420 000:693 JLINK_ReadMem (0xE0041FF0, 0x0010 Bytes, ...) -- CPU is running -- CPU_ReadMem(16 bytes @ 0xE0041FF0) - Data: 00 00 00 00 00 00 00 00 00 00 00 00 00 00 00 00  returns 0x00 (0001ms, 0605ms total)
T3420 000:694 JLINK_GetDebugInfo(0x102) -- Value=0x00000000  returns 0x00 (0000ms, 0605ms total)
T3420 000:694 JLINK_GetDebugInfo(0x103) -- Value=0x00000000  returns 0x00 (0000ms, 0605ms total)
T3420 000:694 JLINK_ReadMem (0xE0040FF0, 0x0010 Bytes, ...) -- CPU is running -- CPU_ReadMem(16 bytes @ 0xE0040FF0) - Data: 00 00 00 00 00 00 00 00 00 00 00 00 00 00 00 00  returns 0x00 (0000ms, 0605ms total)
T3420 000:694 JLINK_GetDebugInfo(0x104) -- Value=0xE0000000  returns 0x00 (0000ms, 0605ms total)
T3420 000:694 JLINK_GetDebugInfo(0x105) -- Value=0xE0001000  returns 0x00 (0000ms, 0605ms total)
T3420 000:694 JLINK_GetDebugInfo(0x106) -- Value=0xE0002000  returns 0x00 (0000ms, 0605ms total)
T3420 000:694 JLINK_GetDebugInfo(0x107) -- Value=0xE000E000  returns 0x00 (0000ms, 0605ms total)
T3420 000:694 JLINK_GetDebugInfo(0x10C) -- Value=0xE000EDF0  returns 0x00 (0000ms, 0605ms total)
T3420 000:694 JLINK_ReadMemU32(0xE000ED00, 0x0001 Items, ...) -- CPU is running -- CPU_ReadMem(4 bytes @ 0xE000ED00) - Data: 01 C6 0C 41  returns 0x01 (0001ms, 0606ms total)
T3420 000:695 JLINK_SetResetType(JLINKARM_RESET_TYPE_NORMAL)  returns JLINKARM_RESET_TYPE_NORMAL (0000ms, 0606ms total)
T3420 000:695 JLINK_Reset() -- CPU is running -- CPU_WriteMem(4 bytes @ 0xE000EDF0) -- CPU is running -- CPU_WriteMem(4 bytes @ 0xE000EDFC) >0x35 TIF> -- CPU is running -- CPU_WriteMem(4 bytes @ 0xE000ED0C) -- CPU is running -- CPU_ReadMem(4 bytes @ 0xE000EDF0) -- CPU is running -- CPU_ReadMem(4 bytes @ 0xE000EDF0) -- CPU is running -- CPU_WriteMem(4 bytes @ 0xE000EDF0) -- CPU is running -- CPU_WriteMem(4 bytes @ 0xE000EDFC) -- CPU is running -- CPU_ReadMem(4 bytes @ 0xE000EDF0)
 -- CPU_WriteMem(4 bytes @ 0xE0002000) -- CPU_ReadMem(4 bytes @ 0xE000EDFC) -- CPU_ReadMem(4 bytes @ 0xE0001000) -- CPU_WriteMem(4 bytes @ 0xE0001000) (0017ms, 0623ms total)
T3420 000:712 JLINK_Halt()  returns 0x00 (0000ms, 0623ms total)
T3420 000:712 JLINK_IsHalted()  returns TRUE (0000ms, 0623ms total)
T3420 000:712 JLINK_ReadMemU32(0xE000EDF0, 0x0001 Items, ...) -- CPU_ReadMem(4 bytes @ 0xE000EDF0) - Data: 03 00 03 00  returns 0x01 (0000ms, 0623ms total)
T3420 000:712 JLINK_WriteU32(0xE000EDF0, 0xA05F0003) -- CPU_WriteMem(4 bytes @ 0xE000EDF0)  returns 0x00 (0000ms, 0623ms total)
T3420 000:712 JLINK_WriteU32(0xE000EDFC, 0x01000000) -- CPU_WriteMem(4 bytes @ 0xE000EDFC)  returns 0x00 (0001ms, 0624ms total)
T3420 000:722 JLINK_GetHWStatus(...)  returns 0x00 (0000ms, 0624ms total)
T3420 000:729 JLINK_GetNumBPUnits(Type = 0xFFFFFF00)  returns 0x04 (0000ms, 0624ms total)
T3420 000:729 JLINK_GetNumBPUnits(Type = 0xF0)  returns 0x2000 (0000ms, 0624ms total)
T3420 000:729 JLINK_GetNumWPUnits()  returns 0x02 (0001ms, 0625ms total)
T3420 000:736 JLINK_GetSpeed()  returns 0xFA0 (0000ms, 0625ms total)
T3420 000:744 JLINK_ReadMemU32(0xE000E004, 0x0001 Items, ...) -- CPU_ReadMem(4 bytes @ 0xE000E004) - Data: 00 00 00 00  returns 0x01 (0001ms, 0626ms total)
T3420 000:745 JLINK_Halt()  returns 0x00 (0000ms, 0626ms total)
T3420 000:745 JLINK_IsHalted()  returns TRUE (0000ms, 0626ms total)
T3420 000:747 JLINK_WriteMem(0x20000000, 0x0110 Bytes, ...) - Data: 00 BE 0A E0 0D 78 2D 06 68 40 08 24 40 00 00 D3 ... -- CPU_WriteMem(272 bytes @ 0x20000000)  returns 0x110 (0002ms, 0628ms total)
T3420 000:749 JLINK_WriteReg(R0, 0x00000000)  returns 0x00 (0000ms, 0628ms total)
T3420 000:749 JLINK_WriteReg(R1, 0x00B71B00)  returns 0x00 (0000ms, 0628ms total)
T3420 000:749 JLINK_WriteReg(R2, 0x00000001)  returns 0x00 (0000ms, 0628ms total)
T3420 000:749 JLINK_WriteReg(R3, 0x00000000)  returns 0x00 (0000ms, 0628ms total)
T3420 000:749 JLINK_WriteReg(R4, 0x00000000)  returns 0x00 (0000ms, 0628ms total)
T3420 000:749 JLINK_WriteReg(R5, 0x00000000)  returns 0x00 (0000ms, 0628ms total)
T3420 000:749 JLINK_WriteReg(R6, 0x00000000)  returns 0x00 (0000ms, 0628ms total)
T3420 000:749 JLINK_WriteReg(R7, 0x00000000)  returns 0x00 (0000ms, 0628ms total)
T3420 000:749 JLINK_WriteReg(R8, 0x00000000)  returns 0x00 (0000ms, 0628ms total)
T3420 000:749 JLINK_WriteReg(R9, 0x2000010C)  returns 0x00 (0000ms, 0628ms total)
T3420 000:749 JLINK_WriteReg(R10, 0x00000000)  returns 0x00 (0001ms, 0629ms total)
T3420 000:750 JLINK_WriteReg(R11, 0x00000000)  returns 0x00 (0000ms, 0629ms total)
T3420 000:750 JLINK_WriteReg(R12, 0x00000000)  returns 0x00 (0000ms, 0629ms total)
T3420 000:750 JLINK_WriteReg(R13 (SP), 0x20000800)  returns 0x00 (0000ms, 0629ms total)
T3420 000:750 JLINK_WriteReg(R14, 0x20000001)  returns 0x00 (0000ms, 0629ms total)
T3420 000:750 JLINK_WriteReg(R15 (PC), 0x20000038)  returns 0x00 (0000ms, 0629ms total)
T3420 000:750 JLINK_WriteReg(XPSR, 0x01000000)  returns 0x00 (0000ms, 0629ms total)
T3420 000:750 JLINK_WriteReg(MSP, 0x20000800)  returns 0x00 (0000ms, 0629ms total)
T3420 000:750 JLINK_WriteReg(PSP, 0x20000800)  returns 0x00 (0000ms, 0629ms total)
T3420 000:750 JLINK_WriteReg(CFBP, 0x00000000)  returns 0x00 (0000ms, 0629ms total)
T3420 000:750 JLINK_SetBPEx(Addr = 0x20000000, Type = 0xFFFFFFF2) -- CPU_ReadMem(4 bytes @ 0x20000000) -- CPU_WriteMem(4 bytes @ 0x20000000) -- CPU_ReadMem(4 bytes @ 0x20000000) -- CPU_WriteMem(4 bytes @ 0x20000000) -- CPU_ReadMem(2 bytes @ 0x20000000)  returns 0x00000001 (0001ms, 0630ms total)
T3420 000:752 JLINK_Go() -- CPU_WriteMem(2 bytes @ 0x20000000) -- CPU_ReadMem(4 bytes @ 0xE0001000) -- CPU_WriteMem(4 bytes @ 0xE0001000) -- CPU_WriteMem(4 bytes @ 0xE0002008) -- CPU_WriteMem(4 bytes @ 0xE000200C) -- CPU_WriteMem(4 bytes @ 0xE0002010) -- CPU_WriteMem(4 bytes @ 0xE0002014) -- CPU_WriteMem(4 bytes @ 0xE0001004) (0004ms, 0635ms total)
T3420 000:756 JLINK_IsHalted() -- CPU_ReadMem(2 bytes @ 0x20000000)  returns TRUE (0003ms, 0638ms total)
T3420 000:759 JLINK_ReadReg(R15 (PC))  returns 0x20000000 (0000ms, 0635ms total)
T3420 000:759 JLINK_ClrBPEx(BPHandle = 0x00000001)  returns 0x00 (0000ms, 0635ms total)
T3420 000:759 JLINK_ReadReg(R0)  returns 0x00000000 (0000ms, 0635ms total)
T3420 000:760 JLINK_WriteReg(R0, 0x00000000)  returns 0x00 (0000ms, 0635ms total)
T3420 000:760 JLINK_WriteReg(R1, 0x00000200)  returns 0x00 (0000ms, 0635ms total)
T3420 000:760 JLINK_WriteReg(R2, 0x000000FF)  returns 0x00 (0000ms, 0635ms total)
T3420 000:760 JLINK_WriteReg(R3, 0x00000000)  returns 0x00 (0000ms, 0635ms total)
T3420 000:760 JLINK_WriteReg(R4, 0x00000000)  returns 0x00 (0000ms, 0635ms total)
T3420 000:760 JLINK_WriteReg(R5, 0x00000000)  returns 0x00 (0000ms, 0635ms total)
T3420 000:760 JLINK_WriteReg(R6, 0x00000000)  returns 0x00 (0000ms, 0635ms total)
T3420 000:760 JLINK_WriteReg(R7, 0x00000000)  returns 0x00 (0000ms, 0635ms total)
T3420 000:760 JLINK_WriteReg(R8, 0x00000000)  returns 0x00 (0000ms, 0635ms total)
T3420 000:760 JLINK_WriteReg(R9, 0x2000010C)  returns 0x00 (0000ms, 0635ms total)
T3420 000:760 JLINK_WriteReg(R10, 0x00000000)  returns 0x00 (0000ms, 0635ms total)
T3420 000:760 JLINK_WriteReg(R11, 0x00000000)  returns 0x00 (0000ms, 0635ms total)
T3420 000:760 JLINK_WriteReg(R12, 0x00000000)  returns 0x00 (0000ms, 0635ms total)
T3420 000:760 JLINK_WriteReg(R13 (SP), 0x20000800)  returns 0x00 (0000ms, 0635ms total)
T3420 000:760 JLINK_WriteReg(R14, 0x20000001)  returns 0x00 (0000ms, 0635ms total)
T3420 000:760 JLINK_WriteReg(R15 (PC), 0x20000020)  returns 0x00 (0000ms, 0635ms total)
T3420 000:760 JLINK_WriteReg(XPSR, 0x01000000)  returns 0x00 (0000ms, 0635ms total)
T3420 000:760 JLINK_WriteReg(MSP, 0x20000800)  returns 0x00 (0000ms, 0635ms total)
T3420 000:760 JLINK_WriteReg(PSP, 0x20000800)  returns 0x00 (0000ms, 0635ms total)
T3420 000:760 JLINK_WriteReg(CFBP, 0x00000000)  returns 0x00 (0000ms, 0635ms total)
T3420 000:760 JLINK_SetBPEx(Addr = 0x20000000, Type = 0xFFFFFFF2)  returns 0x00000002 (0000ms, 0635ms total)
T3420 000:760 JLINK_Go() -- CPU_ReadMem(4 bytes @ 0xE0001000) -- CPU_WriteMem(4 bytes @ 0xE0001000) (0002ms, 0637ms total)
T3420 000:762 JLINK_IsHalted() -- CPU_ReadMem(2 bytes @ 0x20000000)  returns TRUE (0003ms, 0640ms total)
T3420 000:765 JLINK_ReadReg(R15 (PC))  returns 0x20000000 (0000ms, 0637ms total)
T3420 000:765 JLINK_ClrBPEx(BPHandle = 0x00000002)  returns 0x00 (0000ms, 0637ms total)
T3420 000:765 JLINK_ReadReg(R0)  returns 0x00000001 (0000ms, 0637ms total)
T3420 000:765 JLINK_WriteReg(R0, 0x00000000)  returns 0x00 (0000ms, 0637ms total)
T3420 000:765 JLINK_WriteReg(R1, 0x00000200)  returns 0x00 (0000ms, 0637ms total)
T3420 000:765 JLINK_WriteReg(R2, 0x000000FF)  returns 0x00 (0000ms, 0637ms total)
T3420 000:765 JLINK_WriteReg(R3, 0x00000000)  returns 0x00 (0000ms, 0637ms total)
T3420 000:765 JLINK_WriteReg(R4, 0x00000000)  returns 0x00 (0000ms, 0637ms total)
T3420 000:765 JLINK_WriteReg(R5, 0x00000000)  returns 0x00 (0000ms, 0637ms total)
T3420 000:765 JLINK_WriteReg(R6, 0x00000000)  returns 0x00 (0000ms, 0637ms total)
T3420 000:765 JLINK_WriteReg(R7, 0x00000000)  returns 0x00 (0000ms, 0637ms total)
T3420 000:765 JLINK_WriteReg(R8, 0x00000000)  returns 0x00 (0000ms, 0637ms total)
T3420 000:765 JLINK_WriteReg(R9, 0x2000010C)  returns 0x00 (0000ms, 0637ms total)
T3420 000:765 JLINK_WriteReg(R10, 0x00000000)  returns 0x00 (0000ms, 0637ms total)
T3420 000:765 JLINK_WriteReg(R11, 0x00000000)  returns 0x00 (0000ms, 0637ms total)
T3420 000:765 JLINK_WriteReg(R12, 0x00000000)  returns 0x00 (0000ms, 0637ms total)
T3420 000:765 JLINK_WriteReg(R13 (SP), 0x20000800)  returns 0x00 (0000ms, 0637ms total)
T3420 000:765 JLINK_WriteReg(R14, 0x20000001)  returns 0x00 (0000ms, 0637ms total)
T3420 000:765 JLINK_WriteReg(R15 (PC), 0x20000092)  returns 0x00 (0000ms, 0637ms total)
T3420 000:765 JLINK_WriteReg(XPSR, 0x01000000)  returns 0x00 (0000ms, 0637ms total)
T3420 000:765 JLINK_WriteReg(MSP, 0x20000800)  returns 0x00 (0000ms, 0637ms total)
T3420 000:765 JLINK_WriteReg(PSP, 0x20000800)  returns 0x00 (0000ms, 0637ms total)
T3420 000:765 JLINK_WriteReg(CFBP, 0x00000000)  returns 0x00 (0000ms, 0637ms total)
T3420 000:765 JLINK_SetBPEx(Addr = 0x20000000, Type = 0xFFFFFFF2)  returns 0x00000003 (0001ms, 0638ms total)
T3420 000:766 JLINK_Go() -- CPU_ReadMem(4 bytes @ 0xE0001000) -- CPU_WriteMem(4 bytes @ 0xE0001000) (0001ms, 0639ms total)
T3420 000:768 JLINK_IsHalted()  returns FALSE (0000ms, 0639ms total)
T3420 000:808 JLINK_IsHalted() -- CPU_ReadMem(2 bytes @ 0x20000000)  returns TRUE (0003ms, 0642ms total)
T3420 000:811 JLINK_ReadReg(R15 (PC))  returns 0x20000000 (0000ms, 0639ms total)
T3420 000:811 JLINK_ClrBPEx(BPHandle = 0x00000003)  returns 0x00 (0000ms, 0639ms total)
T3420 000:811 JLINK_ReadReg(R0)  returns 0x00000000 (0000ms, 0639ms total)
T3420 000:811 JLINK_WriteReg(R0, 0x00000200)  returns 0x00 (0000ms, 0639ms total)
T3420 000:811 JLINK_WriteReg(R1, 0x00000200)  returns 0x00 (0000ms, 0639ms total)
T3420 000:811 JLINK_WriteReg(R2, 0x000000FF)  returns 0x00 (0000ms, 0639ms total)
T3420 000:811 JLINK_WriteReg(R3, 0x00000000)  returns 0x00 (0000ms, 0639ms total)
T3420 000:811 JLINK_WriteReg(R4, 0x00000000)  returns 0x00 (0000ms, 0639ms total)
T3420 000:812 JLINK_WriteReg(R5, 0x00000000)  returns 0x00 (0000ms, 0639ms total)
T3420 000:812 JLINK_WriteReg(R6, 0x00000000)  returns 0x00 (0000ms, 0639ms total)
T3420 000:812 JLINK_WriteReg(R7, 0x00000000)  returns 0x00 (0000ms, 0639ms total)
T3420 000:812 JLINK_WriteReg(R8, 0x00000000)  returns 0x00 (0000ms, 0639ms total)
T3420 000:812 JLINK_WriteReg(R9, 0x2000010C)  returns 0x00 (0000ms, 0639ms total)
T3420 000:812 JLINK_WriteReg(R10, 0x00000000)  returns 0x00 (0000ms, 0639ms total)
T3420 000:812 JLINK_WriteReg(R11, 0x00000000)  returns 0x00 (0000ms, 0639ms total)
T3420 000:812 JLINK_WriteReg(R12, 0x00000000)  returns 0x00 (0000ms, 0639ms total)
T3420 000:812 JLINK_WriteReg(R13 (SP), 0x20000800)  returns 0x00 (0000ms, 0639ms total)
T3420 000:812 JLINK_WriteReg(R14, 0x20000001)  returns 0x00 (0000ms, 0639ms total)
T3420 000:812 JLINK_WriteReg(R15 (PC), 0x20000020)  returns 0x00 (0000ms, 0639ms total)
T3420 000:812 JLINK_WriteReg(XPSR, 0x01000000)  returns 0x00 (0000ms, 0639ms total)
T3420 000:812 JLINK_WriteReg(MSP, 0x20000800)  returns 0x00 (0000ms, 0639ms total)
T3420 000:812 JLINK_WriteReg(PSP, 0x20000800)  returns 0x00 (0000ms, 0639ms total)
T3420 000:812 JLINK_WriteReg(CFBP, 0x00000000)  returns 0x00 (0000ms, 0639ms total)
T3420 000:812 JLINK_SetBPEx(Addr = 0x20000000, Type = 0xFFFFFFF2)  returns 0x00000004 (0000ms, 0639ms total)
T3420 000:812 JLINK_Go() -- CPU_ReadMem(4 bytes @ 0xE0001000) -- CPU_WriteMem(4 bytes @ 0xE0001000) (0002ms, 0641ms total)
T3420 000:814 JLINK_IsHalted() -- CPU_ReadMem(2 bytes @ 0x20000000)  returns TRUE (0003ms, 0644ms total)
T3420 000:817 JLINK_ReadReg(R15 (PC))  returns 0x20000000 (0000ms, 0641ms total)
T3420 000:817 JLINK_ClrBPEx(BPHandle = 0x00000004)  returns 0x00 (0000ms, 0641ms total)
T3420 000:817 JLINK_ReadReg(R0)  returns 0x00000001 (0000ms, 0641ms total)
T3420 000:818 JLINK_WriteReg(R0, 0x00000200)  returns 0x00 (0000ms, 0641ms total)
T3420 000:818 JLINK_WriteReg(R1, 0x00000200)  returns 0x00 (0000ms, 0641ms total)
T3420 000:818 JLINK_WriteReg(R2, 0x000000FF)  returns 0x00 (0000ms, 0641ms total)
T3420 000:818 JLINK_WriteReg(R3, 0x00000000)  returns 0x00 (0000ms, 0641ms total)
T3420 000:818 JLINK_WriteReg(R4, 0x00000000)  returns 0x00 (0000ms, 0641ms total)
T3420 000:818 JLINK_WriteReg(R5, 0x00000000)  returns 0x00 (0000ms, 0641ms total)
T3420 000:818 JLINK_WriteReg(R6, 0x00000000)  returns 0x00 (0000ms, 0641ms total)
T3420 000:818 JLINK_WriteReg(R7, 0x00000000)  returns 0x00 (0000ms, 0641ms total)
T3420 000:818 JLINK_WriteReg(R8, 0x00000000)  returns 0x00 (0000ms, 0641ms total)
T3420 000:818 JLINK_WriteReg(R9, 0x2000010C)  returns 0x00 (0000ms, 0641ms total)
T3420 000:818 JLINK_WriteReg(R10, 0x00000000)  returns 0x00 (0000ms, 0641ms total)
T3420 000:818 JLINK_WriteReg(R11, 0x00000000)  returns 0x00 (0000ms, 0641ms total)
T3420 000:818 JLINK_WriteReg(R12, 0x00000000)  returns 0x00 (0000ms, 0641ms total)
T3420 000:818 JLINK_WriteReg(R13 (SP), 0x20000800)  returns 0x00 (0000ms, 0641ms total)
T3420 000:818 JLINK_WriteReg(R14, 0x20000001)  returns 0x00 (0000ms, 0641ms total)
T3420 000:818 JLINK_WriteReg(R15 (PC), 0x20000092)  returns 0x00 (0000ms, 0641ms total)
T3420 000:818 JLINK_WriteReg(XPSR, 0x01000000)  returns 0x00 (0000ms, 0641ms total)
T3420 000:818 JLINK_WriteReg(MSP, 0x20000800)  returns 0x00 (0000ms, 0641ms total)
T3420 000:818 JLINK_WriteReg(PSP, 0x20000800)  returns 0x00 (0000ms, 0641ms total)
T3420 000:818 JLINK_WriteReg(CFBP, 0x00000000)  returns 0x00 (0000ms, 0641ms total)
T3420 000:818 JLINK_SetBPEx(Addr = 0x20000000, Type = 0xFFFFFFF2)  returns 0x00000005 (0000ms, 0641ms total)
T3420 000:818 JLINK_Go() -- CPU_ReadMem(4 bytes @ 0xE0001000) -- CPU_WriteMem(4 bytes @ 0xE0001000) (0002ms, 0643ms total)
T3420 000:820 JLINK_IsHalted()  returns FALSE (0001ms, 0644ms total)
T3420 000:822 JLINK_IsHalted()  returns FALSE (0000ms, 0643ms total)
T3420 000:824 JLINK_IsHalted() -- CPU_ReadMem(2 bytes @ 0x20000000)  returns TRUE (0003ms, 0646ms total)
T3420 000:827 JLINK_ReadReg(R15 (PC))  returns 0x20000000 (0000ms, 0643ms total)
T3420 000:827 JLINK_ClrBPEx(BPHandle = 0x00000005)  returns 0x00 (0000ms, 0643ms total)
T3420 000:827 JLINK_ReadReg(R0)  returns 0x00000000 (0000ms, 0643ms total)
T3420 000:827 JLINK_WriteReg(R0, 0x00000400)  returns 0x00 (0000ms, 0643ms total)
T3420 000:827 JLINK_WriteReg(R1, 0x00000200)  returns 0x00 (0000ms, 0643ms total)
T3420 000:827 JLINK_WriteReg(R2, 0x000000FF)  returns 0x00 (0000ms, 0643ms total)
T3420 000:827 JLINK_WriteReg(R3, 0x00000000)  returns 0x00 (0000ms, 0643ms total)
T3420 000:827 JLINK_WriteReg(R4, 0x00000000)  returns 0x00 (0000ms, 0643ms total)
T3420 000:827 JLINK_WriteReg(R5, 0x00000000)  returns 0x00 (0000ms, 0643ms total)
T3420 000:827 JLINK_WriteReg(R6, 0x00000000)  returns 0x00 (0000ms, 0643ms total)
T3420 000:827 JLINK_WriteReg(R7, 0x00000000)  returns 0x00 (0000ms, 0643ms total)
T3420 000:827 JLINK_WriteReg(R8, 0x00000000)  returns 0x00 (0000ms, 0643ms total)
T3420 000:827 JLINK_WriteReg(R9, 0x2000010C)  returns 0x00 (0000ms, 0643ms total)
T3420 000:827 JLINK_WriteReg(R10, 0x00000000)  returns 0x00 (0000ms, 0643ms total)
T3420 000:827 JLINK_WriteReg(R11, 0x00000000)  returns 0x00 (0000ms, 0643ms total)
T3420 000:827 JLINK_WriteReg(R12, 0x00000000)  returns 0x00 (0000ms, 0643ms total)
T3420 000:827 JLINK_WriteReg(R13 (SP), 0x20000800)  returns 0x00 (0000ms, 0643ms total)
T3420 000:827 JLINK_WriteReg(R14, 0x20000001)  returns 0x00 (0000ms, 0643ms total)
T3420 000:827 JLINK_WriteReg(R15 (PC), 0x20000020)  returns 0x00 (0000ms, 0643ms total)
T3420 000:827 JLINK_WriteReg(XPSR, 0x01000000)  returns 0x00 (0001ms, 0644ms total)
T3420 000:828 JLINK_WriteReg(MSP, 0x20000800)  returns 0x00 (0000ms, 0644ms total)
T3420 000:828 JLINK_WriteReg(PSP, 0x20000800)  returns 0x00 (0000ms, 0644ms total)
T3420 000:828 JLINK_WriteReg(CFBP, 0x00000000)  returns 0x00 (0000ms, 0644ms total)
T3420 000:828 JLINK_SetBPEx(Addr = 0x20000000, Type = 0xFFFFFFF2)  returns 0x00000006 (0000ms, 0644ms total)
T3420 000:828 JLINK_Go() -- CPU_ReadMem(4 bytes @ 0xE0001000) -- CPU_WriteMem(4 bytes @ 0xE0001000) (0002ms, 0646ms total)
T3420 000:830 JLINK_IsHalted() -- CPU_ReadMem(2 bytes @ 0x20000000)  returns TRUE (0003ms, 0649ms total)
T3420 000:833 JLINK_ReadReg(R15 (PC))  returns 0x20000000 (0000ms, 0646ms total)
T3420 000:833 JLINK_ClrBPEx(BPHandle = 0x00000006)  returns 0x00 (0000ms, 0646ms total)
T3420 000:833 JLINK_ReadReg(R0)  returns 0x00000001 (0000ms, 0646ms total)
T3420 000:833 JLINK_WriteReg(R0, 0x00000400)  returns 0x00 (0000ms, 0646ms total)
T3420 000:833 JLINK_WriteReg(R1, 0x00000200)  returns 0x00 (0000ms, 0646ms total)
T3420 000:833 JLINK_WriteReg(R2, 0x000000FF)  returns 0x00 (0000ms, 0646ms total)
T3420 000:833 JLINK_WriteReg(R3, 0x00000000)  returns 0x00 (0000ms, 0646ms total)
T3420 000:833 JLINK_WriteReg(R4, 0x00000000)  returns 0x00 (0000ms, 0646ms total)
T3420 000:833 JLINK_WriteReg(R5, 0x00000000)  returns 0x00 (0000ms, 0646ms total)
T3420 000:833 JLINK_WriteReg(R6, 0x00000000)  returns 0x00 (0000ms, 0646ms total)
T3420 000:833 JLINK_WriteReg(R7, 0x00000000)  returns 0x00 (0000ms, 0646ms total)
T3420 000:833 JLINK_WriteReg(R8, 0x00000000)  returns 0x00 (0000ms, 0646ms total)
T3420 000:833 JLINK_WriteReg(R9, 0x2000010C)  returns 0x00 (0000ms, 0646ms total)
T3420 000:833 JLINK_WriteReg(R10, 0x00000000)  returns 0x00 (0000ms, 0646ms total)
T3420 000:833 JLINK_WriteReg(R11, 0x00000000)  returns 0x00 (0000ms, 0646ms total)
T3420 000:833 JLINK_WriteReg(R12, 0x00000000)  returns 0x00 (0000ms, 0646ms total)
T3420 000:833 JLINK_WriteReg(R13 (SP), 0x20000800)  returns 0x00 (0000ms, 0646ms total)
T3420 000:833 JLINK_WriteReg(R14, 0x20000001)  returns 0x00 (0000ms, 0646ms total)
T3420 000:833 JLINK_WriteReg(R15 (PC), 0x20000092)  returns 0x00 (0000ms, 0646ms total)
T3420 000:833 JLINK_WriteReg(XPSR, 0x01000000)  returns 0x00 (0000ms, 0646ms total)
T3420 000:833 JLINK_WriteReg(MSP, 0x20000800)  returns 0x00 (0000ms, 0646ms total)
T3420 000:833 JLINK_WriteReg(PSP, 0x20000800)  returns 0x00 (0000ms, 0646ms total)
T3420 000:833 JLINK_WriteReg(CFBP, 0x00000000)  returns 0x00 (0000ms, 0646ms total)
T3420 000:833 JLINK_SetBPEx(Addr = 0x20000000, Type = 0xFFFFFFF2)  returns 0x00000007 (0000ms, 0646ms total)
T3420 000:833 JLINK_Go() -- CPU_ReadMem(4 bytes @ 0xE0001000) -- CPU_WriteMem(4 bytes @ 0xE0001000) (0002ms, 0648ms total)
T3420 000:835 JLINK_IsHalted()  returns FALSE (0000ms, 0648ms total)
T3420 000:838 JLINK_IsHalted() -- CPU_ReadMem(2 bytes @ 0x20000000)  returns TRUE (0003ms, 0651ms total)
T3420 000:841 JLINK_ReadReg(R15 (PC))  returns 0x20000000 (0000ms, 0648ms total)
T3420 000:841 JLINK_ClrBPEx(BPHandle = 0x00000007)  returns 0x00 (0000ms, 0648ms total)
T3420 000:841 JLINK_ReadReg(R0)  returns 0x00000000 (0000ms, 0648ms total)
T3420 000:841 JLINK_WriteReg(R0, 0x00000600)  returns 0x00 (0000ms, 0648ms total)
T3420 000:841 JLINK_WriteReg(R1, 0x00000200)  returns 0x00 (0000ms, 0648ms total)
T3420 000:841 JLINK_WriteReg(R2, 0x000000FF)  returns 0x00 (0000ms, 0648ms total)
T3420 000:841 JLINK_WriteReg(R3, 0x00000000)  returns 0x00 (0000ms, 0648ms total)
T3420 000:841 JLINK_WriteReg(R4, 0x00000000)  returns 0x00 (0000ms, 0648ms total)
T3420 000:841 JLINK_WriteReg(R5, 0x00000000)  returns 0x00 (0000ms, 0648ms total)
T3420 000:841 JLINK_WriteReg(R6, 0x00000000)  returns 0x00 (0000ms, 0648ms total)
T3420 000:841 JLINK_WriteReg(R7, 0x00000000)  returns 0x00 (0000ms, 0648ms total)
T3420 000:841 JLINK_WriteReg(R8, 0x00000000)  returns 0x00 (0000ms, 0648ms total)
T3420 000:841 JLINK_WriteReg(R9, 0x2000010C)  returns 0x00 (0000ms, 0648ms total)
T3420 000:841 JLINK_WriteReg(R10, 0x00000000)  returns 0x00 (0000ms, 0648ms total)
T3420 000:841 JLINK_WriteReg(R11, 0x00000000)  returns 0x00 (0000ms, 0648ms total)
T3420 000:841 JLINK_WriteReg(R12, 0x00000000)  returns 0x00 (0000ms, 0648ms total)
T3420 000:841 JLINK_WriteReg(R13 (SP), 0x20000800)  returns 0x00 (0000ms, 0648ms total)
T3420 000:841 JLINK_WriteReg(R14, 0x20000001)  returns 0x00 (0000ms, 0648ms total)
T3420 000:841 JLINK_WriteReg(R15 (PC), 0x20000020)  returns 0x00 (0000ms, 0648ms total)
T3420 000:841 JLINK_WriteReg(XPSR, 0x01000000)  returns 0x00 (0000ms, 0648ms total)
T3420 000:841 JLINK_WriteReg(MSP, 0x20000800)  returns 0x00 (0000ms, 0648ms total)
T3420 000:841 JLINK_WriteReg(PSP, 0x20000800)  returns 0x00 (0000ms, 0648ms total)
T3420 000:841 JLINK_WriteReg(CFBP, 0x00000000)  returns 0x00 (0000ms, 0648ms total)
T3420 000:841 JLINK_SetBPEx(Addr = 0x20000000, Type = 0xFFFFFFF2)  returns 0x00000008 (0000ms, 0648ms total)
T3420 000:841 JLINK_Go() -- CPU_ReadMem(4 bytes @ 0xE0001000) -- CPU_WriteMem(4 bytes @ 0xE0001000) (0002ms, 0650ms total)
T3420 000:843 JLINK_IsHalted() -- CPU_ReadMem(2 bytes @ 0x20000000)  returns TRUE (0003ms, 0653ms total)
T3420 000:846 JLINK_ReadReg(R15 (PC))  returns 0x20000000 (0000ms, 0650ms total)
T3420 000:846 JLINK_ClrBPEx(BPHandle = 0x00000008)  returns 0x00 (0000ms, 0650ms total)
T3420 000:846 JLINK_ReadReg(R0)  returns 0x00000001 (0000ms, 0650ms total)
T3420 000:846 JLINK_WriteReg(R0, 0x00000600)  returns 0x00 (0001ms, 0651ms total)
T3420 000:847 JLINK_WriteReg(R1, 0x00000200)  returns 0x00 (0000ms, 0651ms total)
T3420 000:847 JLINK_WriteReg(R2, 0x000000FF)  returns 0x00 (0000ms, 0651ms total)
T3420 000:847 JLINK_WriteReg(R3, 0x00000000)  returns 0x00 (0000ms, 0651ms total)
T3420 000:847 JLINK_WriteReg(R4, 0x00000000)  returns 0x00 (0000ms, 0651ms total)
T3420 000:847 JLINK_WriteReg(R5, 0x00000000)  returns 0x00 (0000ms, 0651ms total)
T3420 000:847 JLINK_WriteReg(R6, 0x00000000)  returns 0x00 (0000ms, 0651ms total)
T3420 000:847 JLINK_WriteReg(R7, 0x00000000)  returns 0x00 (0000ms, 0651ms total)
T3420 000:847 JLINK_WriteReg(R8, 0x00000000)  returns 0x00 (0000ms, 0651ms total)
T3420 000:847 JLINK_WriteReg(R9, 0x2000010C)  returns 0x00 (0000ms, 0651ms total)
T3420 000:847 JLINK_WriteReg(R10, 0x00000000)  returns 0x00 (0000ms, 0651ms total)
T3420 000:847 JLINK_WriteReg(R11, 0x00000000)  returns 0x00 (0000ms, 0651ms total)
T3420 000:847 JLINK_WriteReg(R12, 0x00000000)  returns 0x00 (0000ms, 0651ms total)
T3420 000:847 JLINK_WriteReg(R13 (SP), 0x20000800)  returns 0x00 (0000ms, 0651ms total)
T3420 000:847 JLINK_WriteReg(R14, 0x20000001)  returns 0x00 (0000ms, 0651ms total)
T3420 000:847 JLINK_WriteReg(R15 (PC), 0x20000092)  returns 0x00 (0000ms, 0651ms total)
T3420 000:847 JLINK_WriteReg(XPSR, 0x01000000)  returns 0x00 (0000ms, 0651ms total)
T3420 000:847 JLINK_WriteReg(MSP, 0x20000800)  returns 0x00 (0000ms, 0651ms total)
T3420 000:847 JLINK_WriteReg(PSP, 0x20000800)  returns 0x00 (0000ms, 0651ms total)
T3420 000:847 JLINK_WriteReg(CFBP, 0x00000000)  returns 0x00 (0000ms, 0651ms total)
T3420 000:847 JLINK_SetBPEx(Addr = 0x20000000, Type = 0xFFFFFFF2)  returns 0x00000009 (0000ms, 0651ms total)
T3420 000:847 JLINK_Go() -- CPU_ReadMem(4 bytes @ 0xE0001000) -- CPU_WriteMem(4 bytes @ 0xE0001000) (0002ms, 0653ms total)
T3420 000:849 JLINK_IsHalted()  returns FALSE (0000ms, 0653ms total)
T3420 000:851 JLINK_IsHalted()  returns FALSE (0000ms, 0653ms total)
T3420 000:853 JLINK_IsHalted() -- CPU_ReadMem(2 bytes @ 0x20000000)  returns TRUE (0002ms, 0655ms total)
T3420 000:856 JLINK_ReadReg(R15 (PC))  returns 0x20000000 (0000ms, 0653ms total)
T3420 000:856 JLINK_ClrBPEx(BPHandle = 0x00000009)  returns 0x00 (0000ms, 0653ms total)
T3420 000:856 JLINK_ReadReg(R0)  returns 0x00000000 (0000ms, 0653ms total)
T3420 000:856 JLINK_WriteReg(R0, 0x00000001)  returns 0x00 (0000ms, 0653ms total)
T3420 000:856 JLINK_WriteReg(R1, 0x00000200)  returns 0x00 (0000ms, 0653ms total)
T3420 000:856 JLINK_WriteReg(R2, 0x000000FF)  returns 0x00 (0000ms, 0653ms total)
T3420 000:856 JLINK_WriteReg(R3, 0x00000000)  returns 0x00 (0000ms, 0653ms total)
T3420 000:856 JLINK_WriteReg(R4, 0x00000000)  returns 0x00 (0000ms, 0653ms total)
T3420 000:856 JLINK_WriteReg(R5, 0x00000000)  returns 0x00 (0000ms, 0653ms total)
T3420 000:856 JLINK_WriteReg(R6, 0x00000000)  returns 0x00 (0000ms, 0653ms total)
T3420 000:856 JLINK_WriteReg(R7, 0x00000000)  returns 0x00 (0000ms, 0653ms total)
T3420 000:856 JLINK_WriteReg(R8, 0x00000000)  returns 0x00 (0000ms, 0653ms total)
T3420 000:856 JLINK_WriteReg(R9, 0x2000010C)  returns 0x00 (0000ms, 0653ms total)
T3420 000:856 JLINK_WriteReg(R10, 0x00000000)  returns 0x00 (0000ms, 0653ms total)
T3420 000:856 JLINK_WriteReg(R11, 0x00000000)  returns 0x00 (0000ms, 0653ms total)
T3420 000:856 JLINK_WriteReg(R12, 0x00000000)  returns 0x00 (0000ms, 0653ms total)
T3420 000:856 JLINK_WriteReg(R13 (SP), 0x20000800)  returns 0x00 (0000ms, 0653ms total)
T3420 000:856 JLINK_WriteReg(R14, 0x20000001)  returns 0x00 (0000ms, 0653ms total)
T3420 000:856 JLINK_WriteReg(R15 (PC), 0x2000005A)  returns 0x00 (0000ms, 0653ms total)
T3420 000:856 JLINK_WriteReg(XPSR, 0x01000000)  returns 0x00 (0000ms, 0653ms total)
T3420 000:856 JLINK_WriteReg(MSP, 0x20000800)  returns 0x00 (0000ms, 0653ms total)
T3420 000:856 JLINK_WriteReg(PSP, 0x20000800)  returns 0x00 (0000ms, 0653ms total)
T3420 000:856 JLINK_WriteReg(CFBP, 0x00000000)  returns 0x00 (0000ms, 0653ms total)
T3420 000:856 JLINK_SetBPEx(Addr = 0x20000000, Type = 0xFFFFFFF2)  returns 0x0000000A (0000ms, 0653ms total)
T3420 000:856 JLINK_Go() -- CPU_ReadMem(4 bytes @ 0xE0001000) -- CPU_WriteMem(4 bytes @ 0xE0001000) (0002ms, 0655ms total)
T3420 000:858 JLINK_IsHalted() -- CPU_ReadMem(2 bytes @ 0x20000000)  returns TRUE (0003ms, 0658ms total)
T3420 000:861 JLINK_ReadReg(R15 (PC))  returns 0x20000000 (0000ms, 0655ms total)
T3420 000:861 JLINK_ClrBPEx(BPHandle = 0x0000000A)  returns 0x00 (0000ms, 0655ms total)
T3420 000:861 JLINK_ReadReg(R0)  returns 0x00000000 (0000ms, 0655ms total)
T3420 000:924 JLINK_WriteMem(0x20000000, 0x0110 Bytes, ...) - Data: 00 BE 0A E0 0D 78 2D 06 68 40 08 24 40 00 00 D3 ... -- CPU_WriteMem(272 bytes @ 0x20000000)  returns 0x110 (0002ms, 0657ms total)
T3420 000:926 JLINK_WriteReg(R0, 0x00000000)  returns 0x00 (0000ms, 0657ms total)
T3420 000:926 JLINK_WriteReg(R1, 0x00B71B00)  returns 0x00 (0000ms, 0657ms total)
T3420 000:926 JLINK_WriteReg(R2, 0x00000002)  returns 0x00 (0000ms, 0657ms total)
T3420 000:926 JLINK_WriteReg(R3, 0x00000000)  returns 0x00 (0000ms, 0657ms total)
T3420 000:926 JLINK_WriteReg(R4, 0x00000000)  returns 0x00 (0000ms, 0657ms total)
T3420 000:926 JLINK_WriteReg(R5, 0x00000000)  returns 0x00 (0000ms, 0657ms total)
T3420 000:926 JLINK_WriteReg(R6, 0x00000000)  returns 0x00 (0000ms, 0657ms total)
T3420 000:926 JLINK_WriteReg(R7, 0x00000000)  returns 0x00 (0000ms, 0657ms total)
T3420 000:926 JLINK_WriteReg(R8, 0x00000000)  returns 0x00 (0000ms, 0657ms total)
T3420 000:926 JLINK_WriteReg(R9, 0x2000010C)  returns 0x00 (0000ms, 0657ms total)
T3420 000:926 JLINK_WriteReg(R10, 0x00000000)  returns 0x00 (0000ms, 0657ms total)
T3420 000:926 JLINK_WriteReg(R11, 0x00000000)  returns 0x00 (0000ms, 0657ms total)
T3420 000:926 JLINK_WriteReg(R12, 0x00000000)  returns 0x00 (0000ms, 0657ms total)
T3420 000:926 JLINK_WriteReg(R13 (SP), 0x20000800)  returns 0x00 (0000ms, 0657ms total)
T3420 000:926 JLINK_WriteReg(R14, 0x20000001)  returns 0x00 (0000ms, 0657ms total)
T3420 000:926 JLINK_WriteReg(R15 (PC), 0x20000038)  returns 0x00 (0000ms, 0657ms total)
T3420 000:926 JLINK_WriteReg(XPSR, 0x01000000)  returns 0x00 (0000ms, 0657ms total)
T3420 000:926 JLINK_WriteReg(MSP, 0x20000800)  returns 0x00 (0000ms, 0657ms total)
T3420 000:926 JLINK_WriteReg(PSP, 0x20000800)  returns 0x00 (0000ms, 0657ms total)
T3420 000:927 JLINK_WriteReg(CFBP, 0x00000000)  returns 0x00 (0000ms, 0657ms total)
T3420 000:927 JLINK_SetBPEx(Addr = 0x20000000, Type = 0xFFFFFFF2) -- CPU_ReadMem(4 bytes @ 0x20000000) -- CPU_WriteMem(4 bytes @ 0x20000000) -- CPU_ReadMem(4 bytes @ 0x20000000) -- CPU_WriteMem(4 bytes @ 0x20000000) -- CPU_ReadMem(2 bytes @ 0x20000000)  returns 0x0000000B (0001ms, 0658ms total)
T3420 000:928 JLINK_Go() -- CPU_WriteMem(2 bytes @ 0x20000000) -- CPU_ReadMem(4 bytes @ 0xE0001000) -- CPU_WriteMem(4 bytes @ 0xE0001000) (0003ms, 0661ms total)
T3420 000:931 JLINK_IsHalted() -- CPU_ReadMem(2 bytes @ 0x20000000)  returns TRUE (0002ms, 0663ms total)
T3420 000:933 JLINK_ReadReg(R15 (PC))  returns 0x20000000 (0000ms, 0661ms total)
T3420 000:933 JLINK_ClrBPEx(BPHandle = 0x0000000B)  returns 0x00 (0001ms, 0662ms total)
T3420 000:934 JLINK_ReadReg(R0)  returns 0x00000000 (0000ms, 0662ms total)
T3420 000:934 JLINK_WriteMem(0x20000110, 0x0200 Bytes, ...) - Data: 88 01 00 20 81 00 00 00 89 00 00 00 3D 01 00 00 ... -- CPU_WriteMem(512 bytes @ 0x20000110)  returns 0x200 (0003ms, 0665ms total)
T3420 000:937 JLINK_WriteReg(R0, 0x00000000)  returns 0x00 (0000ms, 0665ms total)
T3420 000:937 JLINK_WriteReg(R1, 0x00000200)  returns 0x00 (0000ms, 0665ms total)
T3420 000:937 JLINK_WriteReg(R2, 0x20000110)  returns 0x00 (0000ms, 0665ms total)
T3420 000:937 JLINK_WriteReg(R3, 0x00000000)  returns 0x00 (0000ms, 0665ms total)
T3420 000:937 JLINK_WriteReg(R4, 0x00000000)  returns 0x00 (0000ms, 0665ms total)
T3420 000:937 JLINK_WriteReg(R5, 0x00000000)  returns 0x00 (0000ms, 0665ms total)
T3420 000:937 JLINK_WriteReg(R6, 0x00000000)  returns 0x00 (0000ms, 0665ms total)
T3420 000:937 JLINK_WriteReg(R7, 0x00000000)  returns 0x00 (0000ms, 0665ms total)
T3420 000:937 JLINK_WriteReg(R8, 0x00000000)  returns 0x00 (0000ms, 0665ms total)
T3420 000:937 JLINK_WriteReg(R9, 0x2000010C)  returns 0x00 (0000ms, 0665ms total)
T3420 000:937 JLINK_WriteReg(R10, 0x00000000)  returns 0x00 (0000ms, 0665ms total)
T3420 000:937 JLINK_WriteReg(R11, 0x00000000)  returns 0x00 (0000ms, 0665ms total)
T3420 000:937 JLINK_WriteReg(R12, 0x00000000)  returns 0x00 (0000ms, 0665ms total)
T3420 000:937 JLINK_WriteReg(R13 (SP), 0x20000800)  returns 0x00 (0000ms, 0665ms total)
T3420 000:937 JLINK_WriteReg(R14, 0x20000001)  returns 0x00 (0000ms, 0665ms total)
T3420 000:937 JLINK_WriteReg(R15 (PC), 0x200000C2)  returns 0x00 (0000ms, 0665ms total)
T3420 000:937 JLINK_WriteReg(XPSR, 0x01000000)  returns 0x00 (0000ms, 0665ms total)
T3420 000:937 JLINK_WriteReg(MSP, 0x20000800)  returns 0x00 (0000ms, 0665ms total)
T3420 000:937 JLINK_WriteReg(PSP, 0x20000800)  returns 0x00 (0000ms, 0665ms total)
T3420 000:937 JLINK_WriteReg(CFBP, 0x00000000)  returns 0x00 (0000ms, 0665ms total)
T3420 000:937 JLINK_SetBPEx(Addr = 0x20000000, Type = 0xFFFFFFF2)  returns 0x0000000C (0000ms, 0665ms total)
T3420 000:937 JLINK_Go() -- CPU_ReadMem(4 bytes @ 0xE0001000) -- CPU_WriteMem(4 bytes @ 0xE0001000) (0002ms, 0667ms total)
T3420 000:939 JLINK_IsHalted()  returns FALSE (0000ms, 0667ms total)
T3420 000:945 JLINK_IsHalted() -- CPU_ReadMem(2 bytes @ 0x20000000)  returns TRUE (0004ms, 0671ms total)
T3420 000:949 JLINK_ReadReg(R15 (PC))  returns 0x20000000 (0000ms, 0667ms total)
T3420 000:949 JLINK_ClrBPEx(BPHandle = 0x0000000C)  returns 0x00 (0000ms, 0667ms total)
T3420 000:949 JLINK_ReadReg(R0)  returns 0x00000000 (0000ms, 0667ms total)
T3420 000:949 JLINK_WriteMem(0x20000110, 0x0200 Bytes, ...) - Data: 92 07 50 60 02 E0 01 22 92 07 90 60 70 47 70 47 ... -- CPU_WriteMem(512 bytes @ 0x20000110)  returns 0x200 (0004ms, 0671ms total)
T3420 000:953 JLINK_WriteReg(R0, 0x00000200)  returns 0x00 (0000ms, 0671ms total)
T3420 000:953 JLINK_WriteReg(R1, 0x00000200)  returns 0x00 (0000ms, 0671ms total)
T3420 000:953 JLINK_WriteReg(R2, 0x20000110)  returns 0x00 (0000ms, 0671ms total)
T3420 000:953 JLINK_WriteReg(R3, 0x00000000)  returns 0x00 (0000ms, 0671ms total)
T3420 000:953 JLINK_WriteReg(R4, 0x00000000)  returns 0x00 (0000ms, 0671ms total)
T3420 000:953 JLINK_WriteReg(R5, 0x00000000)  returns 0x00 (0000ms, 0671ms total)
T3420 000:953 JLINK_WriteReg(R6, 0x00000000)  returns 0x00 (0000ms, 0671ms total)
T3420 000:953 JLINK_WriteReg(R7, 0x00000000)  returns 0x00 (0000ms, 0671ms total)
T3420 000:953 JLINK_WriteReg(R8, 0x00000000)  returns 0x00 (0000ms, 0671ms total)
T3420 000:953 JLINK_WriteReg(R9, 0x2000010C)  returns 0x00 (0000ms, 0671ms total)
T3420 000:953 JLINK_WriteReg(R10, 0x00000000)  returns 0x00 (0000ms, 0671ms total)
T3420 000:953 JLINK_WriteReg(R11, 0x00000000)  returns 0x00 (0000ms, 0671ms total)
T3420 000:953 JLINK_WriteReg(R12, 0x00000000)  returns 0x00 (0000ms, 0671ms total)
T3420 000:953 JLINK_WriteReg(R13 (SP), 0x20000800)  returns 0x00 (0000ms, 0671ms total)
T3420 000:953 JLINK_WriteReg(R14, 0x20000001)  returns 0x00 (0000ms, 0671ms total)
T3420 000:953 JLINK_WriteReg(R15 (PC), 0x200000C2)  returns 0x00 (0000ms, 0671ms total)
T3420 000:953 JLINK_WriteReg(XPSR, 0x01000000)  returns 0x00 (0000ms, 0671ms total)
T3420 000:953 JLINK_WriteReg(MSP, 0x20000800)  returns 0x00 (0000ms, 0671ms total)
T3420 000:953 JLINK_WriteReg(PSP, 0x20000800)  returns 0x00 (0000ms, 0671ms total)
T3420 000:953 JLINK_WriteReg(CFBP, 0x00000000)  returns 0x00 (0000ms, 0671ms total)
T3420 000:953 JLINK_SetBPEx(Addr = 0x20000000, Type = 0xFFFFFFF2)  returns 0x0000000D (0000ms, 0671ms total)
T3420 000:953 JLINK_Go() -- CPU_ReadMem(4 bytes @ 0xE0001000) -- CPU_WriteMem(4 bytes @ 0xE0001000) (0003ms, 0674ms total)
T3420 000:956 JLINK_IsHalted()  returns FALSE (0001ms, 0675ms total)
T3420 000:960 JLINK_IsHalted() -- CPU_ReadMem(2 bytes @ 0x20000000)  returns TRUE (0003ms, 0677ms total)
T3420 000:964 JLINK_ReadReg(R15 (PC))  returns 0x20000000 (0000ms, 0674ms total)
T3420 000:964 JLINK_ClrBPEx(BPHandle = 0x0000000D)  returns 0x00 (0000ms, 0674ms total)
T3420 000:964 JLINK_ReadReg(R0)  returns 0x00000000 (0000ms, 0674ms total)
T3420 000:964 JLINK_WriteMem(0x20000110, 0x0200 Bytes, ...) - Data: 0A 48 00 F0 80 F8 05 21 68 46 01 70 01 21 81 70 ... -- CPU_WriteMem(512 bytes @ 0x20000110)  returns 0x200 (0003ms, 0677ms total)
T3420 000:967 JLINK_WriteReg(R0, 0x00000400)  returns 0x00 (0000ms, 0677ms total)
T3420 000:967 JLINK_WriteReg(R1, 0x00000200)  returns 0x00 (0000ms, 0677ms total)
T3420 000:967 JLINK_WriteReg(R2, 0x20000110)  returns 0x00 (0000ms, 0677ms total)
T3420 000:967 JLINK_WriteReg(R3, 0x00000000)  returns 0x00 (0000ms, 0677ms total)
T3420 000:967 JLINK_WriteReg(R4, 0x00000000)  returns 0x00 (0000ms, 0677ms total)
T3420 000:967 JLINK_WriteReg(R5, 0x00000000)  returns 0x00 (0000ms, 0677ms total)
T3420 000:967 JLINK_WriteReg(R6, 0x00000000)  returns 0x00 (0000ms, 0677ms total)
T3420 000:967 JLINK_WriteReg(R7, 0x00000000)  returns 0x00 (0000ms, 0677ms total)
T3420 000:967 JLINK_WriteReg(R8, 0x00000000)  returns 0x00 (0000ms, 0677ms total)
T3420 000:967 JLINK_WriteReg(R9, 0x2000010C)  returns 0x00 (0000ms, 0677ms total)
T3420 000:967 JLINK_WriteReg(R10, 0x00000000)  returns 0x00 (0000ms, 0677ms total)
T3420 000:967 JLINK_WriteReg(R11, 0x00000000)  returns 0x00 (0000ms, 0677ms total)
T3420 000:967 JLINK_WriteReg(R12, 0x00000000)  returns 0x00 (0000ms, 0677ms total)
T3420 000:967 JLINK_WriteReg(R13 (SP), 0x20000800)  returns 0x00 (0000ms, 0677ms total)
T3420 000:967 JLINK_WriteReg(R14, 0x20000001)  returns 0x00 (0000ms, 0677ms total)
T3420 000:967 JLINK_WriteReg(R15 (PC), 0x200000C2)  returns 0x00 (0000ms, 0677ms total)
T3420 000:967 JLINK_WriteReg(XPSR, 0x01000000)  returns 0x00 (0000ms, 0677ms total)
T3420 000:967 JLINK_WriteReg(MSP, 0x20000800)  returns 0x00 (0000ms, 0677ms total)
T3420 000:967 JLINK_WriteReg(PSP, 0x20000800)  returns 0x00 (0000ms, 0677ms total)
T3420 000:967 JLINK_WriteReg(CFBP, 0x00000000)  returns 0x00 (0000ms, 0677ms total)
T3420 000:967 JLINK_SetBPEx(Addr = 0x20000000, Type = 0xFFFFFFF2)  returns 0x0000000E (0000ms, 0677ms total)
T3420 000:967 JLINK_Go() -- CPU_ReadMem(4 bytes @ 0xE0001000) -- CPU_WriteMem(4 bytes @ 0xE0001000) (0003ms, 0680ms total)
T3420 000:970 JLINK_IsHalted()  returns FALSE (0001ms, 0681ms total)
T3420 000:973 JLINK_IsHalted() -- CPU_ReadMem(2 bytes @ 0x20000000)  returns TRUE (0003ms, 0683ms total)
T3420 000:976 JLINK_ReadReg(R15 (PC))  returns 0x20000000 (0000ms, 0680ms total)
T3420 000:976 JLINK_ClrBPEx(BPHandle = 0x0000000E)  returns 0x00 (0000ms, 0680ms total)
T3420 000:976 JLINK_ReadReg(R0)  returns 0x00000000 (0000ms, 0680ms total)
T3420 000:977 JLINK_WriteMem(0x20000110, 0x0200 Bytes, ...) - Data: 01 30 FF F7 6F FD 01 21 08 02 FF F7 5F FD FF 20 ... -- CPU_WriteMem(512 bytes @ 0x20000110)  returns 0x200 (0003ms, 0683ms total)
T3420 000:980 JLINK_WriteReg(R0, 0x00000600)  returns 0x00 (0000ms, 0683ms total)
T3420 000:980 JLINK_WriteReg(R1, 0x0000004C)  returns 0x00 (0000ms, 0683ms total)
T3420 000:980 JLINK_WriteReg(R2, 0x20000110)  returns 0x00 (0000ms, 0683ms total)
T3420 000:980 JLINK_WriteReg(R3, 0x00000000)  returns 0x00 (0000ms, 0683ms total)
T3420 000:980 JLINK_WriteReg(R4, 0x00000000)  returns 0x00 (0000ms, 0683ms total)
T3420 000:980 JLINK_WriteReg(R5, 0x00000000)  returns 0x00 (0000ms, 0683ms total)
T3420 000:980 JLINK_WriteReg(R6, 0x00000000)  returns 0x00 (0000ms, 0683ms total)
T3420 000:980 JLINK_WriteReg(R7, 0x00000000)  returns 0x00 (0000ms, 0683ms total)
T3420 000:980 JLINK_WriteReg(R8, 0x00000000)  returns 0x00 (0000ms, 0683ms total)
T3420 000:980 JLINK_WriteReg(R9, 0x2000010C)  returns 0x00 (0000ms, 0683ms total)
T3420 000:980 JLINK_WriteReg(R10, 0x00000000)  returns 0x00 (0000ms, 0683ms total)
T3420 000:980 JLINK_WriteReg(R11, 0x00000000)  returns 0x00 (0000ms, 0683ms total)
T3420 000:980 JLINK_WriteReg(R12, 0x00000000)  returns 0x00 (0000ms, 0683ms total)
T3420 000:980 JLINK_WriteReg(R13 (SP), 0x20000800)  returns 0x00 (0000ms, 0683ms total)
T3420 000:980 JLINK_WriteReg(R14, 0x20000001)  returns 0x00 (0000ms, 0683ms total)
T3420 000:980 JLINK_WriteReg(R15 (PC), 0x200000C2)  returns 0x00 (0000ms, 0683ms total)
T3420 000:980 JLINK_WriteReg(XPSR, 0x01000000)  returns 0x00 (0000ms, 0683ms total)
T3420 000:980 JLINK_WriteReg(MSP, 0x20000800)  returns 0x00 (0001ms, 0684ms total)
T3420 000:981 JLINK_WriteReg(PSP, 0x20000800)  returns 0x00 (0000ms, 0684ms total)
T3420 000:981 JLINK_WriteReg(CFBP, 0x00000000)  returns 0x00 (0000ms, 0684ms total)
T3420 000:981 JLINK_SetBPEx(Addr = 0x20000000, Type = 0xFFFFFFF2)  returns 0x0000000F (0000ms, 0684ms total)
T3420 000:981 JLINK_Go() -- CPU_ReadMem(4 bytes @ 0xE0001000) -- CPU_WriteMem(4 bytes @ 0xE0001000) (0002ms, 0686ms total)
T3420 000:983 JLINK_IsHalted()  returns FALSE (0000ms, 0686ms total)
T3420 000:986 JLINK_IsHalted() -- CPU_ReadMem(2 bytes @ 0x20000000)  returns TRUE (0004ms, 0690ms total)
T3420 000:990 JLINK_ReadReg(R15 (PC))  returns 0x20000000 (0000ms, 0686ms total)
T3420 000:990 JLINK_ClrBPEx(BPHandle = 0x0000000F)  returns 0x00 (0000ms, 0686ms total)
T3420 000:990 JLINK_ReadReg(R0)  returns 0x00000000 (0000ms, 0686ms total)
T3420 000:990 JLINK_WriteReg(R0, 0x00000002)  returns 0x00 (0000ms, 0686ms total)
T3420 000:990 JLINK_WriteReg(R1, 0x0000004C)  returns 0x00 (0000ms, 0686ms total)
T3420 000:990 JLINK_WriteReg(R2, 0x20000110)  returns 0x00 (0000ms, 0686ms total)
T3420 000:990 JLINK_WriteReg(R3, 0x00000000)  returns 0x00 (0000ms, 0686ms total)
T3420 000:990 JLINK_WriteReg(R4, 0x00000000)  returns 0x00 (0000ms, 0686ms total)
T3420 000:990 JLINK_WriteReg(R5, 0x00000000)  returns 0x00 (0000ms, 0686ms total)
T3420 000:990 JLINK_WriteReg(R6, 0x00000000)  returns 0x00 (0000ms, 0686ms total)
T3420 000:990 JLINK_WriteReg(R7, 0x00000000)  returns 0x00 (0000ms, 0686ms total)
T3420 000:990 JLINK_WriteReg(R8, 0x00000000)  returns 0x00 (0000ms, 0686ms total)
T3420 000:990 JLINK_WriteReg(R9, 0x2000010C)  returns 0x00 (0000ms, 0686ms total)
T3420 000:990 JLINK_WriteReg(R10, 0x00000000)  returns 0x00 (0000ms, 0686ms total)
T3420 000:990 JLINK_WriteReg(R11, 0x00000000)  returns 0x00 (0000ms, 0686ms total)
T3420 000:990 JLINK_WriteReg(R12, 0x00000000)  returns 0x00 (0000ms, 0686ms total)
T3420 000:990 JLINK_WriteReg(R13 (SP), 0x20000800)  returns 0x00 (0000ms, 0686ms total)
T3420 000:990 JLINK_WriteReg(R14, 0x20000001)  returns 0x00 (0000ms, 0686ms total)
T3420 000:990 JLINK_WriteReg(R15 (PC), 0x2000005A)  returns 0x00 (0000ms, 0686ms total)
T3420 000:990 JLINK_WriteReg(XPSR, 0x01000000)  returns 0x00 (0000ms, 0686ms total)
T3420 000:990 JLINK_WriteReg(MSP, 0x20000800)  returns 0x00 (0000ms, 0686ms total)
T3420 000:990 JLINK_WriteReg(PSP, 0x20000800)  returns 0x00 (0000ms, 0686ms total)
T3420 000:990 JLINK_WriteReg(CFBP, 0x00000000)  returns 0x00 (0000ms, 0686ms total)
T3420 000:990 JLINK_SetBPEx(Addr = 0x20000000, Type = 0xFFFFFFF2)  returns 0x00000010 (0000ms, 0686ms total)
T3420 000:990 JLINK_Go() -- CPU_ReadMem(4 bytes @ 0xE0001000) -- CPU_WriteMem(4 bytes @ 0xE0001000) (0003ms, 0689ms total)
T3420 000:993 JLINK_IsHalted() -- CPU_ReadMem(2 bytes @ 0x20000000)  returns TRUE (0003ms, 0692ms total)
T3420 000:996 JLINK_ReadReg(R15 (PC))  returns 0x20000000 (0000ms, 0689ms total)
T3420 000:996 JLINK_ClrBPEx(BPHandle = 0x00000010)  returns 0x00 (0000ms, 0689ms total)
T3420 000:996 JLINK_ReadReg(R0)  returns 0x00000000 (0000ms, 0689ms total)
T3420 001:057 JLINK_WriteMem(0x20000000, 0x0110 Bytes, ...) - Data: 00 BE 0A E0 0D 78 2D 06 68 40 08 24 40 00 00 D3 ... -- CPU_WriteMem(272 bytes @ 0x20000000)  returns 0x110 (0002ms, 0691ms total)
T3420 001:059 JLINK_WriteReg(R0, 0x00000000)  returns 0x00 (0000ms, 0691ms total)
T3420 001:059 JLINK_WriteReg(R1, 0x00B71B00)  returns 0x00 (0000ms, 0691ms total)
T3420 001:059 JLINK_WriteReg(R2, 0x00000003)  returns 0x00 (0000ms, 0691ms total)
T3420 001:059 JLINK_WriteReg(R3, 0x00000000)  returns 0x00 (0000ms, 0691ms total)
T3420 001:059 JLINK_WriteReg(R4, 0x00000000)  returns 0x00 (0001ms, 0692ms total)
T3420 001:060 JLINK_WriteReg(R5, 0x00000000)  returns 0x00 (0000ms, 0692ms total)
T3420 001:060 JLINK_WriteReg(R6, 0x00000000)  returns 0x00 (0000ms, 0692ms total)
T3420 001:060 JLINK_WriteReg(R7, 0x00000000)  returns 0x00 (0000ms, 0692ms total)
T3420 001:060 JLINK_WriteReg(R8, 0x00000000)  returns 0x00 (0000ms, 0692ms total)
T3420 001:060 JLINK_WriteReg(R9, 0x2000010C)  returns 0x00 (0000ms, 0692ms total)
T3420 001:060 JLINK_WriteReg(R10, 0x00000000)  returns 0x00 (0000ms, 0692ms total)
T3420 001:060 JLINK_WriteReg(R11, 0x00000000)  returns 0x00 (0000ms, 0692ms total)
T3420 001:060 JLINK_WriteReg(R12, 0x00000000)  returns 0x00 (0000ms, 0692ms total)
T3420 001:060 JLINK_WriteReg(R13 (SP), 0x20000800)  returns 0x00 (0000ms, 0692ms total)
T3420 001:060 JLINK_WriteReg(R14, 0x20000001)  returns 0x00 (0000ms, 0692ms total)
T3420 001:060 JLINK_WriteReg(R15 (PC), 0x20000038)  returns 0x00 (0000ms, 0692ms total)
T3420 001:060 JLINK_WriteReg(XPSR, 0x01000000)  returns 0x00 (0000ms, 0692ms total)
T3420 001:060 JLINK_WriteReg(MSP, 0x20000800)  returns 0x00 (0000ms, 0692ms total)
T3420 001:060 JLINK_WriteReg(PSP, 0x20000800)  returns 0x00 (0000ms, 0692ms total)
T3420 001:060 JLINK_WriteReg(CFBP, 0x00000000)  returns 0x00 (0000ms, 0692ms total)
T3420 001:060 JLINK_SetBPEx(Addr = 0x20000000, Type = 0xFFFFFFF2) -- CPU_ReadMem(4 bytes @ 0x20000000) -- CPU_WriteMem(4 bytes @ 0x20000000) -- CPU_ReadMem(4 bytes @ 0x20000000) -- CPU_WriteMem(4 bytes @ 0x20000000) -- CPU_ReadMem(2 bytes @ 0x20000000)  returns 0x00000011 (0002ms, 0694ms total)
T3420 001:062 JLINK_Go() -- CPU_WriteMem(2 bytes @ 0x20000000) -- CPU_ReadMem(4 bytes @ 0xE0001000) -- CPU_WriteMem(4 bytes @ 0xE0001000) (0002ms, 0696ms total)
T3420 001:064 JLINK_IsHalted() -- CPU_ReadMem(2 bytes @ 0x20000000)  returns TRUE (0003ms, 0699ms total)
T3420 001:067 JLINK_ReadReg(R15 (PC))  returns 0x20000000 (0000ms, 0696ms total)
T3420 001:067 JLINK_ClrBPEx(BPHandle = 0x00000011)  returns 0x00 (0000ms, 0696ms total)
T3420 001:067 JLINK_ReadReg(R0)  returns 0x00000000 (0000ms, 0696ms total)
T3420 001:067 JLINK_WriteMem(0x20000110, 0x0200 Bytes, ...) - Data: 88 01 00 20 81 00 00 00 89 00 00 00 3D 01 00 00 ... -- CPU_WriteMem(512 bytes @ 0x20000110)  returns 0x200 (0003ms, 0699ms total)
T3420 001:070 JLINK_WriteReg(R0, 0x00000000)  returns 0x00 (0000ms, 0699ms total)
T3420 001:070 JLINK_WriteReg(R1, 0x00000200)  returns 0x00 (0000ms, 0699ms total)
T3420 001:070 JLINK_WriteReg(R2, 0x20000110)  returns 0x00 (0000ms, 0699ms total)
T3420 001:070 JLINK_WriteReg(R3, 0x00000000)  returns 0x00 (0000ms, 0699ms total)
T3420 001:070 JLINK_WriteReg(R4, 0x00000000)  returns 0x00 (0000ms, 0699ms total)
T3420 001:070 JLINK_WriteReg(R5, 0x00000000)  returns 0x00 (0000ms, 0699ms total)
T3420 001:070 JLINK_WriteReg(R6, 0x00000000)  returns 0x00 (0000ms, 0699ms total)
T3420 001:070 JLINK_WriteReg(R7, 0x00000000)  returns 0x00 (0000ms, 0699ms total)
T3420 001:070 JLINK_WriteReg(R8, 0x00000000)  returns 0x00 (0000ms, 0699ms total)
T3420 001:070 JLINK_WriteReg(R9, 0x2000010C)  returns 0x00 (0000ms, 0699ms total)
T3420 001:070 JLINK_WriteReg(R10, 0x00000000)  returns 0x00 (0000ms, 0699ms total)
T3420 001:070 JLINK_WriteReg(R11, 0x00000000)  returns 0x00 (0000ms, 0699ms total)
T3420 001:070 JLINK_WriteReg(R12, 0x00000000)  returns 0x00 (0000ms, 0699ms total)
T3420 001:070 JLINK_WriteReg(R13 (SP), 0x20000800)  returns 0x00 (0000ms, 0699ms total)
T3420 001:070 JLINK_WriteReg(R14, 0x20000001)  returns 0x00 (0000ms, 0699ms total)
T3420 001:070 JLINK_WriteReg(R15 (PC), 0x200000D8)  returns 0x00 (0000ms, 0699ms total)
T3420 001:070 JLINK_WriteReg(XPSR, 0x01000000)  returns 0x00 (0000ms, 0699ms total)
T3420 001:070 JLINK_WriteReg(MSP, 0x20000800)  returns 0x00 (0000ms, 0699ms total)
T3420 001:071 JLINK_WriteReg(PSP, 0x20000800)  returns 0x00 (0000ms, 0699ms total)
T3420 001:071 JLINK_WriteReg(CFBP, 0x00000000)  returns 0x00 (0000ms, 0699ms total)
T3420 001:071 JLINK_SetBPEx(Addr = 0x20000000, Type = 0xFFFFFFF2)  returns 0x00000012 (0000ms, 0699ms total)
T3420 001:071 JLINK_Go() -- CPU_ReadMem(4 bytes @ 0xE0001000) -- CPU_WriteMem(4 bytes @ 0xE0001000) (0002ms, 0701ms total)
T3420 001:073 JLINK_IsHalted() -- CPU_ReadMem(2 bytes @ 0x20000000)  returns TRUE (0003ms, 0704ms total)
T3420 001:076 JLINK_ReadReg(R15 (PC))  returns 0x20000000 (0000ms, 0701ms total)
T3420 001:076 JLINK_ClrBPEx(BPHandle = 0x00000012)  returns 0x00 (0000ms, 0701ms total)
T3420 001:076 JLINK_ReadReg(R0)  returns 0x00000200 (0000ms, 0701ms total)
T3420 001:076 JLINK_WriteMem(0x20000110, 0x0200 Bytes, ...) - Data: 92 07 50 60 02 E0 01 22 92 07 90 60 70 47 70 47 ... -- CPU_WriteMem(512 bytes @ 0x20000110)  returns 0x200 (0003ms, 0704ms total)
T3420 001:079 JLINK_WriteReg(R0, 0x00000200)  returns 0x00 (0000ms, 0704ms total)
T3420 001:079 JLINK_WriteReg(R1, 0x00000200)  returns 0x00 (0000ms, 0704ms total)
T3420 001:079 JLINK_WriteReg(R2, 0x20000110)  returns 0x00 (0000ms, 0704ms total)
T3420 001:079 JLINK_WriteReg(R3, 0x00000000)  returns 0x00 (0000ms, 0704ms total)
T3420 001:079 JLINK_WriteReg(R4, 0x00000000)  returns 0x00 (0000ms, 0704ms total)
T3420 001:079 JLINK_WriteReg(R5, 0x00000000)  returns 0x00 (0000ms, 0704ms total)
T3420 001:079 JLINK_WriteReg(R6, 0x00000000)  returns 0x00 (0000ms, 0704ms total)
T3420 001:079 JLINK_WriteReg(R7, 0x00000000)  returns 0x00 (0000ms, 0704ms total)
T3420 001:079 JLINK_WriteReg(R8, 0x00000000)  returns 0x00 (0000ms, 0704ms total)
T3420 001:079 JLINK_WriteReg(R9, 0x2000010C)  returns 0x00 (0000ms, 0704ms total)
T3420 001:079 JLINK_WriteReg(R10, 0x00000000)  returns 0x00 (0000ms, 0704ms total)
T3420 001:080 JLINK_WriteReg(R11, 0x00000000)  returns 0x00 (0000ms, 0705ms total)
T3420 001:080 JLINK_WriteReg(R12, 0x00000000)  returns 0x00 (0000ms, 0705ms total)
T3420 001:080 JLINK_WriteReg(R13 (SP), 0x20000800)  returns 0x00 (0000ms, 0705ms total)
T3420 001:080 JLINK_WriteReg(R14, 0x20000001)  returns 0x00 (0000ms, 0705ms total)
T3420 001:080 JLINK_WriteReg(R15 (PC), 0x200000D8)  returns 0x00 (0000ms, 0705ms total)
T3420 001:080 JLINK_WriteReg(XPSR, 0x01000000)  returns 0x00 (0000ms, 0705ms total)
T3420 001:080 JLINK_WriteReg(MSP, 0x20000800)  returns 0x00 (0000ms, 0705ms total)
T3420 001:080 JLINK_WriteReg(PSP, 0x20000800)  returns 0x00 (0000ms, 0705ms total)
T3420 001:080 JLINK_WriteReg(CFBP, 0x00000000)  returns 0x00 (0000ms, 0705ms total)
T3420 001:080 JLINK_SetBPEx(Addr = 0x20000000, Type = 0xFFFFFFF2)  returns 0x00000013 (0000ms, 0705ms total)
T3420 001:080 JLINK_Go() -- CPU_ReadMem(4 bytes @ 0xE0001000) -- CPU_WriteMem(4 bytes @ 0xE0001000) (0002ms, 0707ms total)
T3420 001:082 JLINK_IsHalted() -- CPU_ReadMem(2 bytes @ 0x20000000)  returns TRUE (0004ms, 0711ms total)
T3420 001:086 JLINK_ReadReg(R15 (PC))  returns 0x20000000 (0000ms, 0707ms total)
T3420 001:086 JLINK_ClrBPEx(BPHandle = 0x00000013)  returns 0x00 (0000ms, 0707ms total)
T3420 001:086 JLINK_ReadReg(R0)  returns 0x00000400 (0000ms, 0707ms total)
T3420 001:087 JLINK_WriteMem(0x20000110, 0x0200 Bytes, ...) - Data: 0A 48 00 F0 80 F8 05 21 68 46 01 70 01 21 81 70 ... -- CPU_WriteMem(512 bytes @ 0x20000110)  returns 0x200 (0003ms, 0710ms total)
T3420 001:090 JLINK_WriteReg(R0, 0x00000400)  returns 0x00 (0000ms, 0710ms total)
T3420 001:090 JLINK_WriteReg(R1, 0x00000200)  returns 0x00 (0000ms, 0710ms total)
T3420 001:090 JLINK_WriteReg(R2, 0x20000110)  returns 0x00 (0000ms, 0710ms total)
T3420 001:090 JLINK_WriteReg(R3, 0x00000000)  returns 0x00 (0000ms, 0710ms total)
T3420 001:090 JLINK_WriteReg(R4, 0x00000000)  returns 0x00 (0000ms, 0710ms total)
T3420 001:090 JLINK_WriteReg(R5, 0x00000000)  returns 0x00 (0000ms, 0710ms total)
T3420 001:090 JLINK_WriteReg(R6, 0x00000000)  returns 0x00 (0000ms, 0710ms total)
T3420 001:090 JLINK_WriteReg(R7, 0x00000000)  returns 0x00 (0000ms, 0710ms total)
T3420 001:090 JLINK_WriteReg(R8, 0x00000000)  returns 0x00 (0000ms, 0710ms total)
T3420 001:090 JLINK_WriteReg(R9, 0x2000010C)  returns 0x00 (0000ms, 0710ms total)
T3420 001:090 JLINK_WriteReg(R10, 0x00000000)  returns 0x00 (0000ms, 0710ms total)
T3420 001:090 JLINK_WriteReg(R11, 0x00000000)  returns 0x00 (0000ms, 0710ms total)
T3420 001:090 JLINK_WriteReg(R12, 0x00000000)  returns 0x00 (0000ms, 0710ms total)
T3420 001:090 JLINK_WriteReg(R13 (SP), 0x20000800)  returns 0x00 (0000ms, 0710ms total)
T3420 001:090 JLINK_WriteReg(R14, 0x20000001)  returns 0x00 (0000ms, 0710ms total)
T3420 001:090 JLINK_WriteReg(R15 (PC), 0x200000D8)  returns 0x00 (0000ms, 0710ms total)
T3420 001:090 JLINK_WriteReg(XPSR, 0x01000000)  returns 0x00 (0000ms, 0710ms total)
T3420 001:090 JLINK_WriteReg(MSP, 0x20000800)  returns 0x00 (0000ms, 0710ms total)
T3420 001:090 JLINK_WriteReg(PSP, 0x20000800)  returns 0x00 (0000ms, 0710ms total)
T3420 001:090 JLINK_WriteReg(CFBP, 0x00000000)  returns 0x00 (0000ms, 0710ms total)
T3420 001:090 JLINK_SetBPEx(Addr = 0x20000000, Type = 0xFFFFFFF2)  returns 0x00000014 (0000ms, 0710ms total)
T3420 001:090 JLINK_Go() -- CPU_ReadMem(4 bytes @ 0xE0001000) -- CPU_WriteMem(4 bytes @ 0xE0001000) (0002ms, 0712ms total)
T3420 001:092 JLINK_IsHalted() -- CPU_ReadMem(2 bytes @ 0x20000000)  returns TRUE (0003ms, 0715ms total)
T3420 001:095 JLINK_ReadReg(R15 (PC))  returns 0x20000000 (0000ms, 0712ms total)
T3420 001:095 JLINK_ClrBPEx(BPHandle = 0x00000014)  returns 0x00 (0000ms, 0712ms total)
T3420 001:095 JLINK_ReadReg(R0)  returns 0x00000600 (0000ms, 0712ms total)
T3420 001:096 JLINK_WriteMem(0x20000110, 0x0200 Bytes, ...) - Data: 01 30 FF F7 6F FD 01 21 08 02 FF F7 5F FD FF 20 ... -- CPU_WriteMem(512 bytes @ 0x20000110)  returns 0x200 (0003ms, 0715ms total)
T3420 001:099 JLINK_WriteReg(R0, 0x00000600)  returns 0x00 (0000ms, 0715ms total)
T3420 001:099 JLINK_WriteReg(R1, 0x0000004C)  returns 0x00 (0000ms, 0715ms total)
T3420 001:099 JLINK_WriteReg(R2, 0x20000110)  returns 0x00 (0000ms, 0715ms total)
T3420 001:099 JLINK_WriteReg(R3, 0x00000000)  returns 0x00 (0000ms, 0715ms total)
T3420 001:099 JLINK_WriteReg(R4, 0x00000000)  returns 0x00 (0000ms, 0715ms total)
T3420 001:099 JLINK_WriteReg(R5, 0x00000000)  returns 0x00 (0000ms, 0715ms total)
T3420 001:099 JLINK_WriteReg(R6, 0x00000000)  returns 0x00 (0000ms, 0715ms total)
T3420 001:099 JLINK_WriteReg(R7, 0x00000000)  returns 0x00 (0000ms, 0715ms total)
T3420 001:099 JLINK_WriteReg(R8, 0x00000000)  returns 0x00 (0000ms, 0715ms total)
T3420 001:099 JLINK_WriteReg(R9, 0x2000010C)  returns 0x00 (0000ms, 0715ms total)
T3420 001:099 JLINK_WriteReg(R10, 0x00000000)  returns 0x00 (0000ms, 0715ms total)
T3420 001:099 JLINK_WriteReg(R11, 0x00000000)  returns 0x00 (0000ms, 0715ms total)
T3420 001:099 JLINK_WriteReg(R12, 0x00000000)  returns 0x00 (0000ms, 0715ms total)
T3420 001:099 JLINK_WriteReg(R13 (SP), 0x20000800)  returns 0x00 (0000ms, 0715ms total)
T3420 001:099 JLINK_WriteReg(R14, 0x20000001)  returns 0x00 (0000ms, 0715ms total)
T3420 001:099 JLINK_WriteReg(R15 (PC), 0x200000D8)  returns 0x00 (0000ms, 0715ms total)
T3420 001:099 JLINK_WriteReg(XPSR, 0x01000000)  returns 0x00 (0000ms, 0715ms total)
T3420 001:099 JLINK_WriteReg(MSP, 0x20000800)  returns 0x00 (0000ms, 0715ms total)
T3420 001:099 JLINK_WriteReg(PSP, 0x20000800)  returns 0x00 (0000ms, 0715ms total)
T3420 001:099 JLINK_WriteReg(CFBP, 0x00000000)  returns 0x00 (0000ms, 0715ms total)
T3420 001:099 JLINK_SetBPEx(Addr = 0x20000000, Type = 0xFFFFFFF2)  returns 0x00000015 (0000ms, 0715ms total)
T3420 001:099 JLINK_Go() -- CPU_ReadMem(4 bytes @ 0xE0001000) -- CPU_WriteMem(4 bytes @ 0xE0001000) (0003ms, 0718ms total)
T3420 001:102 JLINK_IsHalted() -- CPU_ReadMem(2 bytes @ 0x20000000)  returns TRUE (0003ms, 0721ms total)
T3420 001:105 JLINK_ReadReg(R15 (PC))  returns 0x20000000 (0000ms, 0718ms total)
T3420 001:105 JLINK_ClrBPEx(BPHandle = 0x00000015)  returns 0x00 (0000ms, 0718ms total)
T3420 001:105 JLINK_ReadReg(R0)  returns 0x0000064C (0000ms, 0718ms total)
T3420 001:106 JLINK_WriteReg(R0, 0x00000003)  returns 0x00 (0000ms, 0718ms total)
T3420 001:106 JLINK_WriteReg(R1, 0x0000004C)  returns 0x00 (0000ms, 0718ms total)
T3420 001:106 JLINK_WriteReg(R2, 0x20000110)  returns 0x00 (0000ms, 0718ms total)
T3420 001:106 JLINK_WriteReg(R3, 0x00000000)  returns 0x00 (0000ms, 0718ms total)
T3420 001:106 JLINK_WriteReg(R4, 0x00000000)  returns 0x00 (0000ms, 0718ms total)
T3420 001:106 JLINK_WriteReg(R5, 0x00000000)  returns 0x00 (0000ms, 0718ms total)
T3420 001:106 JLINK_WriteReg(R6, 0x00000000)  returns 0x00 (0000ms, 0718ms total)
T3420 001:106 JLINK_WriteReg(R7, 0x00000000)  returns 0x00 (0000ms, 0718ms total)
T3420 001:106 JLINK_WriteReg(R8, 0x00000000)  returns 0x00 (0000ms, 0718ms total)
T3420 001:106 JLINK_WriteReg(R9, 0x2000010C)  returns 0x00 (0000ms, 0718ms total)
T3420 001:106 JLINK_WriteReg(R10, 0x00000000)  returns 0x00 (0000ms, 0718ms total)
T3420 001:106 JLINK_WriteReg(R11, 0x00000000)  returns 0x00 (0000ms, 0718ms total)
T3420 001:106 JLINK_WriteReg(R12, 0x00000000)  returns 0x00 (0000ms, 0718ms total)
T3420 001:106 JLINK_WriteReg(R13 (SP), 0x20000800)  returns 0x00 (0000ms, 0718ms total)
T3420 001:106 JLINK_WriteReg(R14, 0x20000001)  returns 0x00 (0000ms, 0718ms total)
T3420 001:106 JLINK_WriteReg(R15 (PC), 0x2000005A)  returns 0x00 (0000ms, 0718ms total)
T3420 001:106 JLINK_WriteReg(XPSR, 0x01000000)  returns 0x00 (0000ms, 0718ms total)
T3420 001:106 JLINK_WriteReg(MSP, 0x20000800)  returns 0x00 (0000ms, 0718ms total)
T3420 001:106 JLINK_WriteReg(PSP, 0x20000800)  returns 0x00 (0000ms, 0718ms total)
T3420 001:106 JLINK_WriteReg(CFBP, 0x00000000)  returns 0x00 (0000ms, 0718ms total)
T3420 001:106 JLINK_SetBPEx(Addr = 0x20000000, Type = 0xFFFFFFF2)  returns 0x00000016 (0000ms, 0718ms total)
T3420 001:106 JLINK_Go() -- CPU_ReadMem(4 bytes @ 0xE0001000) -- CPU_WriteMem(4 bytes @ 0xE0001000) (0002ms, 0720ms total)
T3420 001:108 JLINK_IsHalted() -- CPU_ReadMem(2 bytes @ 0x20000000)  returns TRUE (0003ms, 0723ms total)
T3420 001:111 JLINK_ReadReg(R15 (PC))  returns 0x20000000 (0000ms, 0720ms total)
T3420 001:111 JLINK_ClrBPEx(BPHandle = 0x00000016)  returns 0x00 (0000ms, 0720ms total)
T3420 001:111 JLINK_ReadReg(R0)  returns 0x00000000 (0000ms, 0720ms total)
T3420 001:166 JLINK_WriteMem(0x20000000, 0x0002 Bytes, ...) - Data: FE E7 -- CPU_WriteMem(2 bytes @ 0x20000000)  returns 0x02 (0000ms, 0720ms total)
T3420 001:167 JLINK_SetResetType(JLINKARM_RESET_TYPE_NORMAL)  returns JLINKARM_RESET_TYPE_NORMAL (0000ms, 0720ms total)
T3420 001:167 JLINK_Reset() -- CPU_ReadMem(4 bytes @ 0x20000110) -- CPU_WriteMem(4 bytes @ 0x20000110) -- CPU_WriteMem(4 bytes @ 0xE000EDF0) -- CPU_WriteMem(4 bytes @ 0xE000EDFC) >0x35 TIF> -- CPU_WriteMem(4 bytes @ 0xE000ED0C) -- CPU_ReadMem(4 bytes @ 0xE000EDF0) -- CPU_ReadMem(4 bytes @ 0xE000EDF0) -- CPU_WriteMem(4 bytes @ 0xE000EDF0) -- CPU_WriteMem(4 bytes @ 0xE000EDFC) -- CPU is running -- CPU_ReadMem(4 bytes @ 0xE000EDF0) -- CPU_WriteMem(4 bytes @ 0xE0002000) -- CPU_ReadMem(4 bytes @ 0xE000EDFC)
 -- CPU_ReadMem(4 bytes @ 0xE0001000) -- CPU_WriteMem(4 bytes @ 0xE0001000) (0018ms, 0738ms total)
T3420 001:185 JLINK_Go() -- CPU_ReadMem(4 bytes @ 0xE0001000) -- CPU_WriteMem(4 bytes @ 0xE0001000) -- CPU_WriteMem(4 bytes @ 0xE0002008) -- CPU_WriteMem(4 bytes @ 0xE000200C) -- CPU_WriteMem(4 bytes @ 0xE0002010) -- CPU_WriteMem(4 bytes @ 0xE0002014) -- CPU_WriteMem(4 bytes @ 0xE0001004) (0003ms, 0741ms total)
T3420 001:198 JLINK_Close() -- CPU is running -- CPU_WriteMem(4 bytes @ 0xE0002008) -- CPU is running -- CPU_WriteMem(4 bytes @ 0xE000200C) -- CPU is running -- CPU_WriteMem(4 bytes @ 0xE0002010) -- CPU is running -- CPU_WriteMem(4 bytes @ 0xE0002014) >0x42 TIF> >0x28 TIF> >0x0D TIF> >0x21 TIF> (0002ms, 0743ms total)
T3420 001:198  (0002ms, 0743ms total)
T3420 001:198 Closed (0003ms, 0744ms total)
